<?xml version="1.0" encoding="UTF-8" standalone="no"?>
<!-- Created with Inkscape (http://www.inkscape.org/) -->

<svg
   xmlns:dc="http://purl.org/dc/elements/1.1/"
   xmlns:cc="http://creativecommons.org/ns#"
   xmlns:rdf="http://www.w3.org/1999/02/22-rdf-syntax-ns#"
   xmlns:svg="http://www.w3.org/2000/svg"
   xmlns="http://www.w3.org/2000/svg"
   xmlns:xlink="http://www.w3.org/1999/xlink"
   xmlns:sodipodi="http://sodipodi.sourceforge.net/DTD/sodipodi-0.dtd"
   xmlns:inkscape="http://www.inkscape.org/namespaces/inkscape"
   width="960"
   height="540"
   id="svg3023"
   version="1.1"
   inkscape:version="0.48.5 r10040"
   sodipodi:docname="0.png">
  <defs
     id="defs3025">
    <pattern
       inkscape:collect="always"
       xlink:href="#pattern3436"
       id="pattern7109"
       patternTransform="translate(236.74456,1408.3001)" />
    <pattern
       patternUnits="userSpaceOnUse"
       width="80"
       height="77"
       patternTransform="translate(248.43796,970.98627)"
       id="pattern3436">
      <g
         inkscape:label="Ebene 1"
         id="layer1-6"
         transform="translate(0,-975.36218)">
        <rect
           style="fill:#000000;fill-rule:evenodd;stroke:none"
           id="rect3850-2"
           width="80"
           height="77"
           x="0"
           y="975.36218" />
        <text
           xml:space="preserve"
           style="font-size:50px;font-style:normal;font-variant:normal;font-weight:bold;font-stretch:normal;text-align:start;line-height:125%;letter-spacing:0px;word-spacing:0px;writing-mode:lr-tb;text-anchor:start;fill:#ff0000;fill-opacity:1;stroke:none;font-family:Courier New;-inkscape-font-specification:Courier New Bold"
           x="24.973145"
           y="1028.6693"
           id="text3019-1"
           sodipodi:linespacing="125%"><tspan
             sodipodi:role="line"
             id="tspan3021-3"
             x="24.973145"
             y="1028.6693">O</tspan></text>
      </g>
    </pattern>
  </defs>
  <sodipodi:namedview
     id="base"
     pagecolor="#ffffff"
     bordercolor="#666666"
     borderopacity="1.0"
     inkscape:pageopacity="0.0"
     inkscape:pageshadow="2"
     inkscape:zoom="0.38483146"
     inkscape:cx="341.73491"
     inkscape:cy="246.62978"
     inkscape:document-units="px"
     inkscape:current-layer="layer1"
     showgrid="false"
     inkscape:window-width="1339"
     inkscape:window-height="755"
     inkscape:window-x="2"
     inkscape:window-y="4"
     inkscape:window-maximized="0" />
  <metadata
     id="metadata3028">
    <rdf:RDF>
      <cc:Work
         rdf:about="">
        <dc:format>image/svg+xml</dc:format>
        <dc:type
           rdf:resource="http://purl.org/dc/dcmitype/StillImage" />
        <dc:title></dc:title>
      </cc:Work>
    </rdf:RDF>
  </metadata>
  <g
     inkscape:label="Ebene 1"
     inkscape:groupmode="layer"
     id="layer1"
     transform="translate(0,-512.36218)">
    <rect
       style="fill:#000000;fill-opacity:1;fill-rule:evenodd;stroke:none"
       id="rect10516"
       width="960"
       height="540"
       x="0"
       y="512.36218" />
    <g
       id="g8271"
       transform="translate(-236.74451,-433.43797)">
      <g
         inkscape:label="Ebene 1"
         id="layer1-0"
         transform="translate(1116.7445,432.93795)">
        <rect
           style="fill:#000000;fill-rule:evenodd;stroke:none"
           id="rect3850"
           width="80"
           height="77"
           x="0"
           y="975.36218" />
        <text
           xml:space="preserve"
           style="font-size:50px;font-style:normal;font-variant:normal;font-weight:bold;font-stretch:normal;text-align:start;line-height:125%;letter-spacing:0px;word-spacing:0px;writing-mode:lr-tb;text-anchor:start;fill:#ff0000;fill-opacity:1;stroke:none;font-family:Courier New;-inkscape-font-specification:Courier New Bold"
           x="24.973145"
           y="1028.6693"
           id="text3019"
           sodipodi:linespacing="125%"><tspan
             sodipodi:role="line"
             id="tspan3021"
             x="24.973145"
             y="1028.6693">O</tspan></text>
      </g>
      <rect
         id="rect3442"
         y="1408.3002"
         x="236.74454"
         height="77"
         width="80"
         style="fill:url(#pattern7109);stroke:none" />
      <g
         inkscape:label="Ebene 1"
         id="layer1-9"
         transform="translate(316.74453,201.93795)">
        <rect
           style="fill:#000000;fill-rule:evenodd;stroke:none"
           id="rect3850-0"
           width="80"
           height="77"
           x="0"
           y="975.36218" />
        <text
           xml:space="preserve"
           style="font-size:50px;font-style:normal;font-variant:normal;font-weight:bold;font-stretch:normal;text-align:start;line-height:125%;letter-spacing:0px;word-spacing:0px;writing-mode:lr-tb;text-anchor:start;fill:#ff0000;fill-opacity:1;stroke:none;font-family:Courier New;-inkscape-font-specification:Courier New Bold"
           x="24.973145"
           y="1028.6693"
           id="text3019-7"
           sodipodi:linespacing="125%"><tspan
             sodipodi:role="line"
             id="tspan3021-4"
             x="24.973145"
             y="1028.6693">O</tspan></text>
      </g>
      <g
         inkscape:label="Ebene 1"
         id="layer1-06"
         transform="translate(236.74453,278.93795)">
        <rect
           style="fill:#000000;fill-rule:evenodd;stroke:none"
           id="rect3850-1"
           width="80"
           height="77"
           x="0"
           y="975.36218" />
        <text
           xml:space="preserve"
           style="font-size:50px;font-style:normal;font-variant:normal;font-weight:bold;font-stretch:normal;text-align:start;line-height:125%;letter-spacing:0px;word-spacing:0px;writing-mode:lr-tb;text-anchor:start;fill:#ff0000;fill-opacity:1;stroke:none;font-family:Courier New;-inkscape-font-specification:Courier New Bold"
           x="24.973145"
           y="1028.6693"
           id="text3019-8"
           sodipodi:linespacing="125%"><tspan
             sodipodi:role="line"
             id="tspan3021-7"
             x="24.973145"
             y="1028.6693">O</tspan></text>
      </g>
      <g
         inkscape:label="Ebene 1"
         id="layer1-5"
         transform="translate(1116.7445,201.93795)">
        <rect
           style="fill:#000000;fill-rule:evenodd;stroke:none"
           id="rect3850-4"
           width="80"
           height="77"
           x="0"
           y="975.36218" />
        <text
           xml:space="preserve"
           style="font-size:50px;font-style:normal;font-variant:normal;font-weight:bold;font-stretch:normal;text-align:start;line-height:125%;letter-spacing:0px;word-spacing:0px;writing-mode:lr-tb;text-anchor:start;fill:#ff0000;fill-opacity:1;stroke:none;font-family:Courier New;-inkscape-font-specification:Courier New Bold"
           x="24.973145"
           y="1028.6693"
           id="text3019-3"
           sodipodi:linespacing="125%"><tspan
             sodipodi:role="line"
             id="tspan3021-1"
             x="24.973145"
             y="1028.6693">O</tspan></text>
      </g>
      <g
         inkscape:label="Ebene 1"
         id="layer1-56"
         transform="translate(396.74453,355.93795)">
        <rect
           style="fill:#000000;fill-rule:evenodd;stroke:none"
           id="rect3850-48"
           width="80"
           height="77"
           x="0"
           y="975.36218" />
        <text
           xml:space="preserve"
           style="font-size:50px;font-style:normal;font-variant:normal;font-weight:bold;font-stretch:normal;text-align:start;line-height:125%;letter-spacing:0px;word-spacing:0px;writing-mode:lr-tb;text-anchor:start;fill:#ff0000;fill-opacity:1;stroke:none;font-family:Courier New;-inkscape-font-specification:Courier New Bold"
           x="24.973145"
           y="1028.6693"
           id="text3019-4"
           sodipodi:linespacing="125%"><tspan
             sodipodi:role="line"
             id="tspan3021-9"
             x="24.973145"
             y="1028.6693">O</tspan></text>
      </g>
      <g
         inkscape:label="Ebene 1"
         id="layer1-1"
         transform="translate(476.74453,355.93795)">
        <rect
           style="fill:#000000;fill-rule:evenodd;stroke:none"
           id="rect3850-7"
           width="80"
           height="77"
           x="0"
           y="975.36218" />
        <text
           xml:space="preserve"
           style="font-size:50px;font-style:normal;font-variant:normal;font-weight:bold;font-stretch:normal;text-align:start;line-height:125%;letter-spacing:0px;word-spacing:0px;writing-mode:lr-tb;text-anchor:start;fill:#ff0000;fill-opacity:1;stroke:none;font-family:Courier New;-inkscape-font-specification:Courier New Bold"
           x="24.973145"
           y="1028.6693"
           id="text3019-9"
           sodipodi:linespacing="125%"><tspan
             sodipodi:role="line"
             id="tspan3021-96"
             x="24.973145"
             y="1028.6693">O</tspan></text>
      </g>
      <g
         inkscape:label="Ebene 1"
         id="layer1-68"
         transform="translate(316.74453,278.93795)">
        <rect
           style="fill:#000000;fill-rule:evenodd;stroke:none"
           id="rect3850-8"
           width="80"
           height="77"
           x="0"
           y="975.36218" />
        <text
           xml:space="preserve"
           style="font-size:50px;font-style:normal;font-variant:normal;font-weight:bold;font-stretch:normal;text-align:start;line-height:125%;letter-spacing:0px;word-spacing:0px;writing-mode:lr-tb;text-anchor:start;fill:#ff0000;fill-opacity:1;stroke:none;font-family:Courier New;-inkscape-font-specification:Courier New Bold"
           x="24.973145"
           y="1028.6693"
           id="text3019-6"
           sodipodi:linespacing="125%"><tspan
             sodipodi:role="line"
             id="tspan3021-8"
             x="24.973145"
             y="1028.6693">O</tspan></text>
      </g>
      <g
         inkscape:label="Ebene 1"
         id="layer1-3"
         transform="translate(956.74453,201.93795)">
        <rect
           style="fill:#000000;fill-rule:evenodd;stroke:none"
           id="rect3850-486"
           width="80"
           height="77"
           x="0"
           y="975.36218" />
        <text
           xml:space="preserve"
           style="font-size:50px;font-style:normal;font-variant:normal;font-weight:bold;font-stretch:normal;text-align:start;line-height:125%;letter-spacing:0px;word-spacing:0px;writing-mode:lr-tb;text-anchor:start;fill:#ff0000;fill-opacity:1;stroke:none;font-family:Courier New;-inkscape-font-specification:Courier New Bold"
           x="24.973145"
           y="1028.6693"
           id="text3019-65"
           sodipodi:linespacing="125%"><tspan
             sodipodi:role="line"
             id="tspan3021-5"
             x="24.973145"
             y="1028.6693">O</tspan></text>
      </g>
      <g
         inkscape:label="Ebene 1"
         id="layer1-4"
         transform="translate(476.74453,201.93795)">
        <rect
           style="fill:#000000;fill-rule:evenodd;stroke:none"
           id="rect3850-02"
           width="80"
           height="77"
           x="0"
           y="975.36218" />
        <text
           xml:space="preserve"
           style="font-size:50px;font-style:normal;font-variant:normal;font-weight:bold;font-stretch:normal;text-align:start;line-height:125%;letter-spacing:0px;word-spacing:0px;writing-mode:lr-tb;text-anchor:start;fill:#ff0000;fill-opacity:1;stroke:none;font-family:Courier New;-inkscape-font-specification:Courier New Bold"
           x="24.973145"
           y="1028.6693"
           id="text3019-77"
           sodipodi:linespacing="125%"><tspan
             sodipodi:role="line"
             id="tspan3021-72"
             x="24.973145"
             y="1028.6693">O</tspan></text>
      </g>
      <g
         inkscape:label="Ebene 1"
         id="layer1-2"
         transform="translate(316.74453,355.93795)">
        <rect
           style="fill:#000000;fill-rule:evenodd;stroke:none"
           id="rect3850-85"
           width="80"
           height="77"
           x="0"
           y="975.36218" />
        <text
           xml:space="preserve"
           style="font-size:50px;font-style:normal;font-variant:normal;font-weight:bold;font-stretch:normal;text-align:start;line-height:125%;letter-spacing:0px;word-spacing:0px;writing-mode:lr-tb;text-anchor:start;fill:#ff0000;fill-opacity:1;stroke:none;font-family:Courier New;-inkscape-font-specification:Courier New Bold"
           x="24.973145"
           y="1028.6693"
           id="text3019-31"
           sodipodi:linespacing="125%"><tspan
             sodipodi:role="line"
             id="tspan3021-78"
             x="24.973145"
             y="1028.6693">O</tspan></text>
      </g>
      <g
         inkscape:label="Ebene 1"
         id="layer1-44"
         transform="translate(1036.7445,278.93795)">
        <rect
           style="fill:#000000;fill-rule:evenodd;stroke:none"
           id="rect3850-9"
           width="80"
           height="77"
           x="0"
           y="975.36218" />
        <text
           xml:space="preserve"
           style="font-size:50px;font-style:normal;font-variant:normal;font-weight:bold;font-stretch:normal;text-align:start;line-height:125%;letter-spacing:0px;word-spacing:0px;writing-mode:lr-tb;text-anchor:start;fill:#ff0000;fill-opacity:1;stroke:none;font-family:Courier New;-inkscape-font-specification:Courier New Bold"
           x="24.973145"
           y="1028.6693"
           id="text3019-45"
           sodipodi:linespacing="125%"><tspan
             sodipodi:role="line"
             id="tspan3021-2"
             x="24.973145"
             y="1028.6693">O</tspan></text>
      </g>
      <g
         inkscape:label="Ebene 1"
         id="layer1-8"
         transform="translate(876.74453,278.93795)">
        <rect
           style="fill:#000000;fill-rule:evenodd;stroke:none"
           id="rect3850-86"
           width="80"
           height="77"
           x="0"
           y="975.36218" />
        <text
           xml:space="preserve"
           style="font-size:50px;font-style:normal;font-variant:normal;font-weight:bold;font-stretch:normal;text-align:start;line-height:125%;letter-spacing:0px;word-spacing:0px;writing-mode:lr-tb;text-anchor:start;fill:#ff0000;fill-opacity:1;stroke:none;font-family:Courier New;-inkscape-font-specification:Courier New Bold"
           x="24.973145"
           y="1028.6693"
           id="text3019-62"
           sodipodi:linespacing="125%"><tspan
             sodipodi:role="line"
             id="tspan3021-54"
             x="24.973145"
             y="1028.6693">O</tspan></text>
      </g>
      <g
         inkscape:label="Ebene 1"
         id="layer1-28"
         transform="translate(636.74453,278.93795)">
        <rect
           style="fill:#000000;fill-rule:evenodd;stroke:none"
           id="rect3850-19"
           width="80"
           height="77"
           x="0"
           y="975.36218" />
        <text
           xml:space="preserve"
           style="font-size:50px;font-style:normal;font-variant:normal;font-weight:bold;font-stretch:normal;text-align:start;line-height:125%;letter-spacing:0px;word-spacing:0px;writing-mode:lr-tb;text-anchor:start;fill:#ff0000;fill-opacity:1;stroke:none;font-family:Courier New;-inkscape-font-specification:Courier New Bold"
           x="24.973145"
           y="1028.6693"
           id="text3019-2"
           sodipodi:linespacing="125%"><tspan
             sodipodi:role="line"
             id="tspan3021-71"
             x="24.973145"
             y="1028.6693">O</tspan></text>
      </g>
      <g
         inkscape:label="Ebene 1"
         id="layer1-09"
         transform="translate(476.74453,278.93795)">
        <rect
           style="fill:#000000;fill-rule:evenodd;stroke:none"
           id="rect3850-857"
           width="80"
           height="77"
           x="0"
           y="975.36218" />
        <text
           xml:space="preserve"
           style="font-size:50px;font-style:normal;font-variant:normal;font-weight:bold;font-stretch:normal;text-align:start;line-height:125%;letter-spacing:0px;word-spacing:0px;writing-mode:lr-tb;text-anchor:start;fill:#ff0000;fill-opacity:1;stroke:none;font-family:Courier New;-inkscape-font-specification:Courier New Bold"
           x="24.973145"
           y="1028.6693"
           id="text3019-49"
           sodipodi:linespacing="125%"><tspan
             sodipodi:role="line"
             id="tspan3021-89"
             x="24.973145"
             y="1028.6693">O</tspan></text>
      </g>
      <g
         inkscape:label="Ebene 1"
         id="layer1-98"
         transform="translate(876.74453,201.93795)">
        <rect
           style="fill:#000000;fill-rule:evenodd;stroke:none"
           id="rect3850-47"
           width="80"
           height="77"
           x="0"
           y="975.36218" />
        <text
           xml:space="preserve"
           style="font-size:50px;font-style:normal;font-variant:normal;font-weight:bold;font-stretch:normal;text-align:start;line-height:125%;letter-spacing:0px;word-spacing:0px;writing-mode:lr-tb;text-anchor:start;fill:#ff0000;fill-opacity:1;stroke:none;font-family:Courier New;-inkscape-font-specification:Courier New Bold"
           x="24.973145"
           y="1028.6693"
           id="text3019-19"
           sodipodi:linespacing="125%"><tspan
             sodipodi:role="line"
             id="tspan3021-0"
             x="24.973145"
             y="1028.6693">O</tspan></text>
      </g>
      <g
         inkscape:label="Ebene 1"
         id="layer1-67"
         transform="translate(556.74453,201.93795)">
        <rect
           style="fill:#000000;fill-rule:evenodd;stroke:none"
           id="rect3850-5"
           width="80"
           height="77"
           x="0"
           y="975.36218" />
        <text
           xml:space="preserve"
           style="font-size:50px;font-style:normal;font-variant:normal;font-weight:bold;font-stretch:normal;text-align:start;line-height:125%;letter-spacing:0px;word-spacing:0px;writing-mode:lr-tb;text-anchor:start;fill:#ff0000;fill-opacity:1;stroke:none;font-family:Courier New;-inkscape-font-specification:Courier New Bold"
           x="24.973145"
           y="1028.6693"
           id="text3019-5"
           sodipodi:linespacing="125%"><tspan
             sodipodi:role="line"
             id="tspan3021-05"
             x="24.973145"
             y="1028.6693">O</tspan></text>
      </g>
      <g
         inkscape:label="Ebene 1"
         id="layer1-43"
         transform="translate(796.74453,124.93795)">
        <rect
           style="fill:#000000;fill-rule:evenodd;stroke:none"
           id="rect3850-6"
           width="80"
           height="77"
           x="0"
           y="975.36218" />
        <text
           xml:space="preserve"
           style="font-size:50px;font-style:normal;font-variant:normal;font-weight:bold;font-stretch:normal;text-align:start;line-height:125%;letter-spacing:0px;word-spacing:0px;writing-mode:lr-tb;text-anchor:start;fill:#ff0000;fill-opacity:1;stroke:none;font-family:Courier New;-inkscape-font-specification:Courier New Bold"
           x="24.973145"
           y="1028.6693"
           id="text3019-18"
           sodipodi:linespacing="125%"><tspan
             sodipodi:role="line"
             id="tspan3021-59"
             x="24.973145"
             y="1028.6693">O</tspan></text>
      </g>
      <g
         inkscape:label="Ebene 1"
         id="layer1-97"
         transform="translate(476.74453,47.937953)">
        <rect
           style="fill:#000000;fill-rule:evenodd;stroke:none"
           id="rect3850-29"
           width="80"
           height="77"
           x="0"
           y="975.36218" />
        <text
           xml:space="preserve"
           style="font-size:50px;font-style:normal;font-variant:normal;font-weight:bold;font-stretch:normal;text-align:start;line-height:125%;letter-spacing:0px;word-spacing:0px;writing-mode:lr-tb;text-anchor:start;fill:#ff0000;fill-opacity:1;stroke:none;font-family:Courier New;-inkscape-font-specification:Courier New Bold"
           x="24.973145"
           y="1028.6693"
           id="text3019-96"
           sodipodi:linespacing="125%"><tspan
             sodipodi:role="line"
             id="tspan3021-595"
             x="24.973145"
             y="1028.6693">O</tspan></text>
      </g>
      <g
         inkscape:label="Ebene 1"
         id="layer1-61"
         transform="translate(1116.7445,355.93795)">
        <rect
           style="fill:#000000;fill-rule:evenodd;stroke:none"
           id="rect3850-67"
           width="80"
           height="77"
           x="0"
           y="975.36218" />
        <text
           xml:space="preserve"
           style="font-size:50px;font-style:normal;font-variant:normal;font-weight:bold;font-stretch:normal;text-align:start;line-height:125%;letter-spacing:0px;word-spacing:0px;writing-mode:lr-tb;text-anchor:start;fill:#ff0000;fill-opacity:1;stroke:none;font-family:Courier New;-inkscape-font-specification:Courier New Bold"
           x="24.973145"
           y="1028.6693"
           id="text3019-34"
           sodipodi:linespacing="125%"><tspan
             sodipodi:role="line"
             id="tspan3021-46"
             x="24.973145"
             y="1028.6693">O</tspan></text>
      </g>
      <g
         inkscape:label="Ebene 1"
         id="layer1-38"
         transform="translate(1036.7445,355.93795)">
        <rect
           style="fill:#000000;fill-rule:evenodd;stroke:none"
           id="rect3850-92"
           width="80"
           height="77"
           x="0"
           y="975.36218" />
        <text
           xml:space="preserve"
           style="font-size:50px;font-style:normal;font-variant:normal;font-weight:bold;font-stretch:normal;text-align:start;line-height:125%;letter-spacing:0px;word-spacing:0px;writing-mode:lr-tb;text-anchor:start;fill:#ff0000;fill-opacity:1;stroke:none;font-family:Courier New;-inkscape-font-specification:Courier New Bold"
           x="24.973145"
           y="1028.6693"
           id="text3019-0"
           sodipodi:linespacing="125%"><tspan
             sodipodi:role="line"
             id="tspan3021-20"
             x="24.973145"
             y="1028.6693">O</tspan></text>
      </g>
      <g
         inkscape:label="Ebene 1"
         id="layer1-40"
         transform="translate(956.74453,355.93795)">
        <rect
           style="fill:#000000;fill-rule:evenodd;stroke:none"
           id="rect3850-04"
           width="80"
           height="77"
           x="0"
           y="975.36218" />
        <text
           xml:space="preserve"
           style="font-size:50px;font-style:normal;font-variant:normal;font-weight:bold;font-stretch:normal;text-align:start;line-height:125%;letter-spacing:0px;word-spacing:0px;writing-mode:lr-tb;text-anchor:start;fill:#ff0000;fill-opacity:1;stroke:none;font-family:Courier New;-inkscape-font-specification:Courier New Bold"
           x="24.973145"
           y="1028.6693"
           id="text3019-67"
           sodipodi:linespacing="125%"><tspan
             sodipodi:role="line"
             id="tspan3021-60"
             x="24.973145"
             y="1028.6693">O</tspan></text>
      </g>
      <g
         inkscape:label="Ebene 1"
         id="layer1-433"
         transform="translate(876.74453,355.93795)">
        <rect
           style="fill:#000000;fill-rule:evenodd;stroke:none"
           id="rect3850-46"
           width="80"
           height="77"
           x="0"
           y="975.36218" />
        <text
           xml:space="preserve"
           style="font-size:50px;font-style:normal;font-variant:normal;font-weight:bold;font-stretch:normal;text-align:start;line-height:125%;letter-spacing:0px;word-spacing:0px;writing-mode:lr-tb;text-anchor:start;fill:#ff0000;fill-opacity:1;stroke:none;font-family:Courier New;-inkscape-font-specification:Courier New Bold"
           x="24.973145"
           y="1028.6693"
           id="text3019-90"
           sodipodi:linespacing="125%"><tspan
             sodipodi:role="line"
             id="tspan3021-68"
             x="24.973145"
             y="1028.6693">O</tspan></text>
      </g>
      <g
         inkscape:label="Ebene 1"
         id="layer1-061"
         transform="translate(796.74453,355.93795)">
        <rect
           style="fill:#000000;fill-rule:evenodd;stroke:none"
           id="rect3850-82"
           width="80"
           height="77"
           x="0"
           y="975.36218" />
        <text
           xml:space="preserve"
           style="font-size:50px;font-style:normal;font-variant:normal;font-weight:bold;font-stretch:normal;text-align:start;line-height:125%;letter-spacing:0px;word-spacing:0px;writing-mode:lr-tb;text-anchor:start;fill:#ff0000;fill-opacity:1;stroke:none;font-family:Courier New;-inkscape-font-specification:Courier New Bold"
           x="24.973145"
           y="1028.6693"
           id="text3019-51"
           sodipodi:linespacing="125%"><tspan
             sodipodi:role="line"
             id="tspan3021-90"
             x="24.973145"
             y="1028.6693">O</tspan></text>
      </g>
      <g
         inkscape:label="Ebene 1"
         id="layer1-12"
         transform="translate(716.74453,355.93795)">
        <rect
           style="fill:#000000;fill-rule:evenodd;stroke:none"
           id="rect3850-97"
           width="80"
           height="77"
           x="0"
           y="975.36218" />
        <text
           xml:space="preserve"
           style="font-size:50px;font-style:normal;font-variant:normal;font-weight:bold;font-stretch:normal;text-align:start;line-height:125%;letter-spacing:0px;word-spacing:0px;writing-mode:lr-tb;text-anchor:start;fill:#ff0000;fill-opacity:1;stroke:none;font-family:Courier New;-inkscape-font-specification:Courier New Bold"
           x="24.973145"
           y="1028.6693"
           id="text3019-14"
           sodipodi:linespacing="125%"><tspan
             sodipodi:role="line"
             id="tspan3021-92"
             x="24.973145"
             y="1028.6693">O</tspan></text>
      </g>
      <g
         inkscape:label="Ebene 1"
         id="layer1-92"
         transform="translate(636.74453,355.93795)">
        <rect
           style="fill:#000000;fill-rule:evenodd;stroke:none"
           id="rect3850-22"
           width="80"
           height="77"
           x="0"
           y="975.36218" />
        <text
           xml:space="preserve"
           style="font-size:50px;font-style:normal;font-variant:normal;font-weight:bold;font-stretch:normal;text-align:start;line-height:125%;letter-spacing:0px;word-spacing:0px;writing-mode:lr-tb;text-anchor:start;fill:#ff0000;fill-opacity:1;stroke:none;font-family:Courier New;-inkscape-font-specification:Courier New Bold"
           x="24.973145"
           y="1028.6693"
           id="text3019-91"
           sodipodi:linespacing="125%"><tspan
             sodipodi:role="line"
             id="tspan3021-94"
             x="24.973145"
             y="1028.6693">O</tspan></text>
      </g>
      <g
         inkscape:label="Ebene 1"
         id="layer1-41"
         transform="translate(556.74453,355.93795)">
        <rect
           style="fill:#000000;fill-rule:evenodd;stroke:none"
           id="rect3850-90"
           width="80"
           height="77"
           x="0"
           y="975.36218" />
        <text
           xml:space="preserve"
           style="font-size:50px;font-style:normal;font-variant:normal;font-weight:bold;font-stretch:normal;text-align:start;line-height:125%;letter-spacing:0px;word-spacing:0px;writing-mode:lr-tb;text-anchor:start;fill:#ff0000;fill-opacity:1;stroke:none;font-family:Courier New;-inkscape-font-specification:Courier New Bold"
           x="24.973145"
           y="1028.6693"
           id="text3019-69"
           sodipodi:linespacing="125%"><tspan
             sodipodi:role="line"
             id="tspan3021-82"
             x="24.973145"
             y="1028.6693">O</tspan></text>
      </g>
      <g
         inkscape:label="Ebene 1"
         id="layer1-15"
         transform="translate(716.74453,201.93795)">
        <rect
           style="fill:#000000;fill-rule:evenodd;stroke:none"
           id="rect3850-41"
           width="80"
           height="77"
           x="0"
           y="975.36218" />
        <text
           xml:space="preserve"
           style="font-size:50px;font-style:normal;font-variant:normal;font-weight:bold;font-stretch:normal;text-align:start;line-height:125%;letter-spacing:0px;word-spacing:0px;writing-mode:lr-tb;text-anchor:start;fill:#ff0000;fill-opacity:1;stroke:none;font-family:Courier New;-inkscape-font-specification:Courier New Bold"
           x="24.973145"
           y="1028.6693"
           id="text3019-21"
           sodipodi:linespacing="125%"><tspan
             sodipodi:role="line"
             id="tspan3021-27"
             x="24.973145"
             y="1028.6693">O</tspan></text>
      </g>
      <g
         inkscape:label="Ebene 1"
         id="layer1-08"
         transform="translate(636.74453,201.93795)">
        <rect
           style="fill:#000000;fill-rule:evenodd;stroke:none"
           id="rect3850-488"
           width="80"
           height="77"
           x="0"
           y="975.36218" />
        <text
           xml:space="preserve"
           style="font-size:50px;font-style:normal;font-variant:normal;font-weight:bold;font-stretch:normal;text-align:start;line-height:125%;letter-spacing:0px;word-spacing:0px;writing-mode:lr-tb;text-anchor:start;fill:#ff0000;fill-opacity:1;stroke:none;font-family:Courier New;-inkscape-font-specification:Courier New Bold"
           x="24.973145"
           y="1028.6693"
           id="text3019-76"
           sodipodi:linespacing="125%"><tspan
             sodipodi:role="line"
             id="tspan3021-28"
             x="24.973145"
             y="1028.6693">O</tspan></text>
      </g>
      <g
         inkscape:label="Ebene 1"
         id="layer1-929"
         transform="translate(1036.7445,432.93795)">
        <rect
           style="fill:#000000;fill-rule:evenodd;stroke:none"
           id="rect3850-03"
           width="80"
           height="77"
           x="0"
           y="975.36218" />
        <text
           xml:space="preserve"
           style="font-size:50px;font-style:normal;font-variant:normal;font-weight:bold;font-stretch:normal;text-align:start;line-height:125%;letter-spacing:0px;word-spacing:0px;writing-mode:lr-tb;text-anchor:start;fill:#ff0000;fill-opacity:1;stroke:none;font-family:Courier New;-inkscape-font-specification:Courier New Bold"
           x="24.973145"
           y="1028.6693"
           id="text3019-30"
           sodipodi:linespacing="125%"><tspan
             sodipodi:role="line"
             id="tspan3021-00"
             x="24.973145"
             y="1028.6693">O</tspan></text>
      </g>
      <g
         inkscape:label="Ebene 1"
         id="layer1-42"
         transform="translate(956.74453,432.93795)">
        <rect
           style="fill:#000000;fill-rule:evenodd;stroke:none"
           id="rect3850-828"
           width="80"
           height="77"
           x="0"
           y="975.36218" />
        <text
           xml:space="preserve"
           style="font-size:50px;font-style:normal;font-variant:normal;font-weight:bold;font-stretch:normal;text-align:start;line-height:125%;letter-spacing:0px;word-spacing:0px;writing-mode:lr-tb;text-anchor:start;fill:#ff0000;fill-opacity:1;stroke:none;font-family:Courier New;-inkscape-font-specification:Courier New Bold"
           x="24.973145"
           y="1028.6693"
           id="text3019-22"
           sodipodi:linespacing="125%"><tspan
             sodipodi:role="line"
             id="tspan3021-051"
             x="24.973145"
             y="1028.6693">O</tspan></text>
      </g>
      <g
         inkscape:label="Ebene 1"
         id="layer1-21"
         transform="translate(876.74453,432.93795)">
        <rect
           style="fill:#000000;fill-rule:evenodd;stroke:none"
           id="rect3850-83"
           width="80"
           height="77"
           x="0"
           y="975.36218" />
        <text
           xml:space="preserve"
           style="font-size:50px;font-style:normal;font-variant:normal;font-weight:bold;font-stretch:normal;text-align:start;line-height:125%;letter-spacing:0px;word-spacing:0px;writing-mode:lr-tb;text-anchor:start;fill:#ff0000;fill-opacity:1;stroke:none;font-family:Courier New;-inkscape-font-specification:Courier New Bold"
           x="24.973145"
           y="1028.6693"
           id="text3019-32"
           sodipodi:linespacing="125%"><tspan
             sodipodi:role="line"
             id="tspan3021-10"
             x="24.973145"
             y="1028.6693">O</tspan></text>
      </g>
      <g
         inkscape:label="Ebene 1"
         id="layer1-092"
         transform="translate(796.74453,432.93795)">
        <rect
           style="fill:#000000;fill-rule:evenodd;stroke:none"
           id="rect3850-033"
           width="80"
           height="77"
           x="0"
           y="975.36218" />
        <text
           xml:space="preserve"
           style="font-size:50px;font-style:normal;font-variant:normal;font-weight:bold;font-stretch:normal;text-align:start;line-height:125%;letter-spacing:0px;word-spacing:0px;writing-mode:lr-tb;text-anchor:start;fill:#ff0000;fill-opacity:1;stroke:none;font-family:Courier New;-inkscape-font-specification:Courier New Bold"
           x="24.973145"
           y="1028.6693"
           id="text3019-04"
           sodipodi:linespacing="125%"><tspan
             sodipodi:role="line"
             id="tspan3021-108"
             x="24.973145"
             y="1028.6693">O</tspan></text>
      </g>
      <g
         inkscape:label="Ebene 1"
         id="layer1-66"
         transform="translate(716.74453,432.93795)">
        <rect
           style="fill:#000000;fill-rule:evenodd;stroke:none"
           id="rect3850-57"
           width="80"
           height="77"
           x="0"
           y="975.36218" />
        <text
           xml:space="preserve"
           style="font-size:50px;font-style:normal;font-variant:normal;font-weight:bold;font-stretch:normal;text-align:start;line-height:125%;letter-spacing:0px;word-spacing:0px;writing-mode:lr-tb;text-anchor:start;fill:#ff0000;fill-opacity:1;stroke:none;font-family:Courier New;-inkscape-font-specification:Courier New Bold"
           x="24.973145"
           y="1028.6693"
           id="text3019-95"
           sodipodi:linespacing="125%"><tspan
             sodipodi:role="line"
             id="tspan3021-70"
             x="24.973145"
             y="1028.6693">O</tspan></text>
      </g>
      <g
         inkscape:label="Ebene 1"
         id="layer1-48"
         transform="translate(636.74453,432.93795)">
        <rect
           style="fill:#000000;fill-rule:evenodd;stroke:none"
           id="rect3850-571"
           width="80"
           height="77"
           x="0"
           y="975.36218" />
        <text
           xml:space="preserve"
           style="font-size:50px;font-style:normal;font-variant:normal;font-weight:bold;font-stretch:normal;text-align:start;line-height:125%;letter-spacing:0px;word-spacing:0px;writing-mode:lr-tb;text-anchor:start;fill:#ff0000;fill-opacity:1;stroke:none;font-family:Courier New;-inkscape-font-specification:Courier New Bold"
           x="24.973145"
           y="1028.6693"
           id="text3019-82"
           sodipodi:linespacing="125%"><tspan
             sodipodi:role="line"
             id="tspan3021-39"
             x="24.973145"
             y="1028.6693">O</tspan></text>
      </g>
      <g
         inkscape:label="Ebene 1"
         id="layer1-7"
         transform="translate(556.74453,432.93795)">
        <rect
           style="fill:#000000;fill-rule:evenodd;stroke:none"
           id="rect3850-39"
           width="80"
           height="77"
           x="0"
           y="975.36218" />
        <text
           xml:space="preserve"
           style="font-size:50px;font-style:normal;font-variant:normal;font-weight:bold;font-stretch:normal;text-align:start;line-height:125%;letter-spacing:0px;word-spacing:0px;writing-mode:lr-tb;text-anchor:start;fill:#ff0000;fill-opacity:1;stroke:none;font-family:Courier New;-inkscape-font-specification:Courier New Bold"
           x="24.973145"
           y="1028.6693"
           id="text3019-63"
           sodipodi:linespacing="125%"><tspan
             sodipodi:role="line"
             id="tspan3021-286"
             x="24.973145"
             y="1028.6693">O</tspan></text>
      </g>
      <g
         inkscape:label="Ebene 1"
         id="layer1-91"
         transform="translate(476.74453,432.93795)">
        <rect
           style="fill:#000000;fill-rule:evenodd;stroke:none"
           id="rect3850-25"
           width="80"
           height="77"
           x="0"
           y="975.36218" />
        <text
           xml:space="preserve"
           style="font-size:50px;font-style:normal;font-variant:normal;font-weight:bold;font-stretch:normal;text-align:start;line-height:125%;letter-spacing:0px;word-spacing:0px;writing-mode:lr-tb;text-anchor:start;fill:#ff0000;fill-opacity:1;stroke:none;font-family:Courier New;-inkscape-font-specification:Courier New Bold"
           x="24.973145"
           y="1028.6693"
           id="text3019-98"
           sodipodi:linespacing="125%"><tspan
             sodipodi:role="line"
             id="tspan3021-61"
             x="24.973145"
             y="1028.6693">O</tspan></text>
      </g>
      <g
         inkscape:label="Ebene 1"
         id="layer1-54"
         transform="translate(396.74453,432.93795)">
        <rect
           style="fill:#000000;fill-rule:evenodd;stroke:none"
           id="rect3850-34"
           width="80"
           height="77"
           x="0"
           y="975.36218" />
        <text
           xml:space="preserve"
           style="font-size:50px;font-style:normal;font-variant:normal;font-weight:bold;font-stretch:normal;text-align:start;line-height:125%;letter-spacing:0px;word-spacing:0px;writing-mode:lr-tb;text-anchor:start;fill:#ff0000;fill-opacity:1;stroke:none;font-family:Courier New;-inkscape-font-specification:Courier New Bold"
           x="24.973145"
           y="1028.6693"
           id="text3019-64"
           sodipodi:linespacing="125%"><tspan
             sodipodi:role="line"
             id="tspan3021-466"
             x="24.973145"
             y="1028.6693">O</tspan></text>
      </g>
      <g
         inkscape:label="Ebene 1"
         id="layer1-424"
         transform="translate(316.74453,432.93795)">
        <rect
           style="fill:#000000;fill-rule:evenodd;stroke:none"
           id="rect3850-30"
           width="80"
           height="77"
           x="0"
           y="975.36218" />
        <text
           xml:space="preserve"
           style="font-size:50px;font-style:normal;font-variant:normal;font-weight:bold;font-stretch:normal;text-align:start;line-height:125%;letter-spacing:0px;word-spacing:0px;writing-mode:lr-tb;text-anchor:start;fill:#ff0000;fill-opacity:1;stroke:none;font-family:Courier New;-inkscape-font-specification:Courier New Bold"
           x="24.973145"
           y="1028.6693"
           id="text3019-58"
           sodipodi:linespacing="125%"><tspan
             sodipodi:role="line"
             id="tspan3021-32"
             x="24.973145"
             y="1028.6693">O</tspan></text>
      </g>
      <g
         inkscape:label="Ebene 1"
         id="layer1-02"
         transform="translate(636.74453,47.937953)">
        <rect
           style="fill:#000000;fill-rule:evenodd;stroke:none"
           id="rect3850-17"
           width="80"
           height="77"
           x="0"
           y="975.36218" />
        <text
           xml:space="preserve"
           style="font-size:50px;font-style:normal;font-variant:normal;font-weight:bold;font-stretch:normal;text-align:start;line-height:125%;letter-spacing:0px;word-spacing:0px;writing-mode:lr-tb;text-anchor:start;fill:#ff0000;fill-opacity:1;stroke:none;font-family:Courier New;-inkscape-font-specification:Courier New Bold"
           x="24.973145"
           y="1028.6693"
           id="text3019-678"
           sodipodi:linespacing="125%"><tspan
             sodipodi:role="line"
             id="tspan3021-44"
             x="24.973145"
             y="1028.6693">O</tspan></text>
      </g>
      <g
         inkscape:label="Ebene 1"
         id="layer1-36"
         transform="translate(316.74453,47.937953)">
        <rect
           style="fill:#000000;fill-rule:evenodd;stroke:none"
           id="rect3850-45"
           width="80"
           height="77"
           x="0"
           y="975.36218" />
        <text
           xml:space="preserve"
           style="font-size:50px;font-style:normal;font-variant:normal;font-weight:bold;font-stretch:normal;text-align:start;line-height:125%;letter-spacing:0px;word-spacing:0px;writing-mode:lr-tb;text-anchor:start;fill:#ff0000;fill-opacity:1;stroke:none;font-family:Courier New;-inkscape-font-specification:Courier New Bold"
           x="24.973145"
           y="1028.6693"
           id="text3019-498"
           sodipodi:linespacing="125%"><tspan
             sodipodi:role="line"
             id="tspan3021-77"
             x="24.973145"
             y="1028.6693">O</tspan></text>
      </g>
      <g
         inkscape:label="Ebene 1"
         id="layer1-665"
         transform="translate(876.74453,124.93795)">
        <rect
           style="fill:#000000;fill-rule:evenodd;stroke:none"
           id="rect3850-69"
           width="80"
           height="77"
           x="0"
           y="975.36218" />
        <text
           xml:space="preserve"
           style="font-size:50px;font-style:normal;font-variant:normal;font-weight:bold;font-stretch:normal;text-align:start;line-height:125%;letter-spacing:0px;word-spacing:0px;writing-mode:lr-tb;text-anchor:start;fill:#ff0000;fill-opacity:1;stroke:none;font-family:Courier New;-inkscape-font-specification:Courier New Bold"
           x="24.973145"
           y="1028.6693"
           id="text3019-80"
           sodipodi:linespacing="125%"><tspan
             sodipodi:role="line"
             id="tspan3021-13"
             x="24.973145"
             y="1028.6693">O</tspan></text>
      </g>
      <g
         inkscape:label="Ebene 1"
         id="layer1-39"
         transform="translate(556.74453,124.93795)">
        <rect
           style="fill:#000000;fill-rule:evenodd;stroke:none"
           id="rect3850-06"
           width="80"
           height="77"
           x="0"
           y="975.36218" />
        <text
           xml:space="preserve"
           style="font-size:50px;font-style:normal;font-variant:normal;font-weight:bold;font-stretch:normal;text-align:start;line-height:125%;letter-spacing:0px;word-spacing:0px;writing-mode:lr-tb;text-anchor:start;fill:#ff0000;fill-opacity:1;stroke:none;font-family:Courier New;-inkscape-font-specification:Courier New Bold"
           x="24.973145"
           y="1028.6693"
           id="text3019-53"
           sodipodi:linespacing="125%"><tspan
             sodipodi:role="line"
             id="tspan3021-01"
             x="24.973145"
             y="1028.6693">O</tspan></text>
      </g>
      <g
         inkscape:label="Ebene 1"
         id="layer1-87"
         transform="translate(236.74453,124.93795)">
        <rect
           style="fill:#000000;fill-rule:evenodd;stroke:none"
           id="rect3850-66"
           width="80"
           height="77"
           x="0"
           y="975.36218" />
        <text
           xml:space="preserve"
           style="font-size:50px;font-style:normal;font-variant:normal;font-weight:bold;font-stretch:normal;text-align:start;line-height:125%;letter-spacing:0px;word-spacing:0px;writing-mode:lr-tb;text-anchor:start;fill:#ff0000;fill-opacity:1;stroke:none;font-family:Courier New;-inkscape-font-specification:Courier New Bold"
           x="24.973145"
           y="1028.6693"
           id="text3019-01"
           sodipodi:linespacing="125%"><tspan
             sodipodi:role="line"
             id="tspan3021-820"
             x="24.973145"
             y="1028.6693">O</tspan></text>
      </g>
      <g
         inkscape:label="Ebene 1"
         id="layer1-79"
         transform="translate(876.74453,47.937953)">
        <rect
           style="fill:#000000;fill-rule:evenodd;stroke:none"
           id="rect3850-223"
           width="80"
           height="77"
           x="0"
           y="975.36218" />
        <text
           xml:space="preserve"
           style="font-size:50px;font-style:normal;font-variant:normal;font-weight:bold;font-stretch:normal;text-align:start;line-height:125%;letter-spacing:0px;word-spacing:0px;writing-mode:lr-tb;text-anchor:start;fill:#ff0000;fill-opacity:1;stroke:none;font-family:Courier New;-inkscape-font-specification:Courier New Bold"
           x="24.973145"
           y="1028.6693"
           id="text3019-94"
           sodipodi:linespacing="125%"><tspan
             sodipodi:role="line"
             id="tspan3021-99"
             x="24.973145"
             y="1028.6693">O</tspan></text>
      </g>
      <g
         inkscape:label="Ebene 1"
         id="layer1-11"
         transform="translate(556.74453,47.937953)">
        <rect
           style="fill:#000000;fill-rule:evenodd;stroke:none"
           id="rect3850-40"
           width="80"
           height="77"
           x="0"
           y="975.36218" />
        <text
           xml:space="preserve"
           style="font-size:50px;font-style:normal;font-variant:normal;font-weight:bold;font-stretch:normal;text-align:start;line-height:125%;letter-spacing:0px;word-spacing:0px;writing-mode:lr-tb;text-anchor:start;fill:#ff0000;fill-opacity:1;stroke:none;font-family:Courier New;-inkscape-font-specification:Courier New Bold"
           x="24.973145"
           y="1028.6693"
           id="text3019-06"
           sodipodi:linespacing="125%"><tspan
             sodipodi:role="line"
             id="tspan3021-703"
             x="24.973145"
             y="1028.6693">O</tspan></text>
      </g>
      <g
         inkscape:label="Ebene 1"
         id="layer1-10"
         transform="translate(1116.7445,-29.062047)">
        <rect
           style="fill:#000000;fill-rule:evenodd;stroke:none"
           id="rect3850-301"
           width="80"
           height="77"
           x="0"
           y="975.36218" />
        <text
           xml:space="preserve"
           style="font-size:50px;font-style:normal;font-variant:normal;font-weight:bold;font-stretch:normal;text-align:start;line-height:125%;letter-spacing:0px;word-spacing:0px;writing-mode:lr-tb;text-anchor:start;fill:#ff0000;fill-opacity:1;stroke:none;font-family:Courier New;-inkscape-font-specification:Courier New Bold"
           x="24.973145"
           y="1028.6693"
           id="text3019-07"
           sodipodi:linespacing="125%"><tspan
             sodipodi:role="line"
             id="tspan3021-62"
             x="24.973145"
             y="1028.6693">O</tspan></text>
      </g>
      <g
         inkscape:label="Ebene 1"
         id="layer1-46"
         transform="translate(236.74453,47.937953)">
        <rect
           style="fill:#000000;fill-rule:evenodd;stroke:none"
           id="rect3850-61"
           width="80"
           height="77"
           x="0"
           y="975.36218" />
        <text
           xml:space="preserve"
           style="font-size:50px;font-style:normal;font-variant:normal;font-weight:bold;font-stretch:normal;text-align:start;line-height:125%;letter-spacing:0px;word-spacing:0px;writing-mode:lr-tb;text-anchor:start;fill:#ff0000;fill-opacity:1;stroke:none;font-family:Courier New;-inkscape-font-specification:Courier New Bold"
           x="24.973145"
           y="1028.6693"
           id="text3019-83"
           sodipodi:linespacing="125%"><tspan
             sodipodi:role="line"
             id="tspan3021-65"
             x="24.973145"
             y="1028.6693">O</tspan></text>
      </g>
      <g
         inkscape:label="Ebene 1"
         id="layer1-689"
         transform="translate(236.74453,-29.062047)">
        <rect
           style="fill:#000000;fill-rule:evenodd;stroke:none"
           id="rect3850-407"
           width="80"
           height="77"
           x="0"
           y="975.36218" />
        <text
           xml:space="preserve"
           style="font-size:50px;font-style:normal;font-variant:normal;font-weight:bold;font-stretch:normal;text-align:start;line-height:125%;letter-spacing:0px;word-spacing:0px;writing-mode:lr-tb;text-anchor:start;fill:#ff0000;fill-opacity:1;stroke:none;font-family:Courier New;-inkscape-font-specification:Courier New Bold"
           x="24.973145"
           y="1028.6693"
           id="text3019-4985"
           sodipodi:linespacing="125%"><tspan
             sodipodi:role="line"
             id="tspan3021-43"
             x="24.973145"
             y="1028.6693">O</tspan></text>
      </g>
      <g
         inkscape:label="Ebene 1"
         id="layer1-159"
         transform="translate(796.74453,201.93795)">
        <rect
           style="fill:#000000;fill-rule:evenodd;stroke:none"
           id="rect3850-53"
           width="80"
           height="77"
           x="0"
           y="975.36218" />
        <text
           xml:space="preserve"
           style="font-size:50px;font-style:normal;font-variant:normal;font-weight:bold;font-stretch:normal;text-align:start;line-height:125%;letter-spacing:0px;word-spacing:0px;writing-mode:lr-tb;text-anchor:start;fill:#ff0000;fill-opacity:1;stroke:none;font-family:Courier New;-inkscape-font-specification:Courier New Bold"
           x="24.973145"
           y="1028.6693"
           id="text3019-061"
           sodipodi:linespacing="125%"><tspan
             sodipodi:role="line"
             id="tspan3021-85"
             x="24.973145"
             y="1028.6693">O</tspan></text>
      </g>
      <g
         inkscape:label="Ebene 1"
         id="layer1-443"
         transform="translate(1116.7445,124.93795)">
        <rect
           style="fill:#000000;fill-rule:evenodd;stroke:none"
           id="rect3850-869"
           width="80"
           height="77"
           x="0"
           y="975.36218" />
        <text
           xml:space="preserve"
           style="font-size:50px;font-style:normal;font-variant:normal;font-weight:bold;font-stretch:normal;text-align:start;line-height:125%;letter-spacing:0px;word-spacing:0px;writing-mode:lr-tb;text-anchor:start;fill:#ff0000;fill-opacity:1;stroke:none;font-family:Courier New;-inkscape-font-specification:Courier New Bold"
           x="24.973145"
           y="1028.6693"
           id="text3019-75"
           sodipodi:linespacing="125%"><tspan
             sodipodi:role="line"
             id="tspan3021-24"
             x="24.973145"
             y="1028.6693">O</tspan></text>
      </g>
      <g
         inkscape:label="Ebene 1"
         id="layer1-73"
         transform="translate(796.74453,47.937953)">
        <rect
           style="fill:#000000;fill-rule:evenodd;stroke:none"
           id="rect3850-295"
           width="80"
           height="77"
           x="0"
           y="975.36218" />
        <text
           xml:space="preserve"
           style="font-size:50px;font-style:normal;font-variant:normal;font-weight:bold;font-stretch:normal;text-align:start;line-height:125%;letter-spacing:0px;word-spacing:0px;writing-mode:lr-tb;text-anchor:start;fill:#ff0000;fill-opacity:1;stroke:none;font-family:Courier New;-inkscape-font-specification:Courier New Bold"
           x="24.973145"
           y="1028.6693"
           id="text3019-97"
           sodipodi:linespacing="125%"><tspan
             sodipodi:role="line"
             id="tspan3021-04"
             x="24.973145"
             y="1028.6693">O</tspan></text>
      </g>
      <g
         inkscape:label="Ebene 1"
         id="layer1-88"
         transform="translate(396.74453,124.93795)">
        <rect
           style="fill:#000000;fill-rule:evenodd;stroke:none"
           id="rect3850-067"
           width="80"
           height="77"
           x="0"
           y="975.36218" />
        <text
           xml:space="preserve"
           style="font-size:50px;font-style:normal;font-variant:normal;font-weight:bold;font-stretch:normal;text-align:start;line-height:125%;letter-spacing:0px;word-spacing:0px;writing-mode:lr-tb;text-anchor:start;fill:#ff0000;fill-opacity:1;stroke:none;font-family:Courier New;-inkscape-font-specification:Courier New Bold"
           x="24.973145"
           y="1028.6693"
           id="text3019-08"
           sodipodi:linespacing="125%"><tspan
             sodipodi:role="line"
             id="tspan3021-324"
             x="24.973145"
             y="1028.6693">O</tspan></text>
      </g>
      <g
         inkscape:label="Ebene 1"
         id="layer1-24"
         transform="translate(316.74453,-29.062047)">
        <rect
           style="fill:#000000;fill-rule:evenodd;stroke:none"
           id="rect3850-72"
           width="80"
           height="77"
           x="0"
           y="975.36218" />
        <text
           xml:space="preserve"
           style="font-size:50px;font-style:normal;font-variant:normal;font-weight:bold;font-stretch:normal;text-align:start;line-height:125%;letter-spacing:0px;word-spacing:0px;writing-mode:lr-tb;text-anchor:start;fill:#ff0000;fill-opacity:1;stroke:none;font-family:Courier New;-inkscape-font-specification:Courier New Bold"
           x="24.973145"
           y="1028.6693"
           id="text3019-948"
           sodipodi:linespacing="125%"><tspan
             sodipodi:role="line"
             id="tspan3021-23"
             x="24.973145"
             y="1028.6693">O</tspan></text>
      </g>
      <g
         inkscape:label="Ebene 1"
         id="layer1-35"
         transform="translate(1036.7445,124.93795)">
        <rect
           style="fill:#000000;fill-rule:evenodd;stroke:none"
           id="rect3850-49"
           width="80"
           height="77"
           x="0"
           y="975.36218" />
        <text
           xml:space="preserve"
           style="font-size:50px;font-style:normal;font-variant:normal;font-weight:bold;font-stretch:normal;text-align:start;line-height:125%;letter-spacing:0px;word-spacing:0px;writing-mode:lr-tb;text-anchor:start;fill:#ff0000;fill-opacity:1;stroke:none;font-family:Courier New;-inkscape-font-specification:Courier New Bold"
           x="24.973145"
           y="1028.6693"
           id="text3019-530"
           sodipodi:linespacing="125%"><tspan
             sodipodi:role="line"
             id="tspan3021-98"
             x="24.973145"
             y="1028.6693">O</tspan></text>
      </g>
      <g
         inkscape:label="Ebene 1"
         id="layer1-4243"
         transform="translate(316.74453,124.93795)">
        <rect
           style="fill:#000000;fill-rule:evenodd;stroke:none"
           id="rect3850-98"
           width="80"
           height="77"
           x="0"
           y="975.36218" />
        <text
           xml:space="preserve"
           style="font-size:50px;font-style:normal;font-variant:normal;font-weight:bold;font-stretch:normal;text-align:start;line-height:125%;letter-spacing:0px;word-spacing:0px;writing-mode:lr-tb;text-anchor:start;fill:#ff0000;fill-opacity:1;stroke:none;font-family:Courier New;-inkscape-font-specification:Courier New Bold"
           x="24.973145"
           y="1028.6693"
           id="text3019-05"
           sodipodi:linespacing="125%"><tspan
             sodipodi:role="line"
             id="tspan3021-21"
             x="24.973145"
             y="1028.6693">O</tspan></text>
      </g>
      <g
         inkscape:label="Ebene 1"
         id="layer1-660"
         transform="translate(236.74453,201.93795)">
        <rect
           style="fill:#000000;fill-rule:evenodd;stroke:none"
           id="rect3850-42"
           width="80"
           height="77"
           x="0"
           y="975.36218" />
        <text
           xml:space="preserve"
           style="font-size:50px;font-style:normal;font-variant:normal;font-weight:bold;font-stretch:normal;text-align:start;line-height:125%;letter-spacing:0px;word-spacing:0px;writing-mode:lr-tb;text-anchor:start;fill:#ff0000;fill-opacity:1;stroke:none;font-family:Courier New;-inkscape-font-specification:Courier New Bold"
           x="24.973145"
           y="1028.6693"
           id="text3019-71"
           sodipodi:linespacing="125%"><tspan
             sodipodi:role="line"
             id="tspan3021-249"
             x="24.973145"
             y="1028.6693">O</tspan></text>
      </g>
      <g
         inkscape:label="Ebene 1"
         id="layer1-884"
         transform="translate(1116.7445,47.937953)">
        <rect
           style="fill:#000000;fill-rule:evenodd;stroke:none"
           id="rect3850-065"
           width="80"
           height="77"
           x="0"
           y="975.36218" />
        <text
           xml:space="preserve"
           style="font-size:50px;font-style:normal;font-variant:normal;font-weight:bold;font-stretch:normal;text-align:start;line-height:125%;letter-spacing:0px;word-spacing:0px;writing-mode:lr-tb;text-anchor:start;fill:#ff0000;fill-opacity:1;stroke:none;font-family:Courier New;-inkscape-font-specification:Courier New Bold"
           x="24.973145"
           y="1028.6693"
           id="text3019-28"
           sodipodi:linespacing="125%"><tspan
             sodipodi:role="line"
             id="tspan3021-12"
             x="24.973145"
             y="1028.6693">O</tspan></text>
      </g>
      <g
         inkscape:label="Ebene 1"
         id="layer1-874"
         transform="translate(716.74453,124.93795)">
        <rect
           style="fill:#000000;fill-rule:evenodd;stroke:none"
           id="rect3850-91"
           width="80"
           height="77"
           x="0"
           y="975.36218" />
        <text
           xml:space="preserve"
           style="font-size:50px;font-style:normal;font-variant:normal;font-weight:bold;font-stretch:normal;text-align:start;line-height:125%;letter-spacing:0px;word-spacing:0px;writing-mode:lr-tb;text-anchor:start;fill:#ff0000;fill-opacity:1;stroke:none;font-family:Courier New;-inkscape-font-specification:Courier New Bold"
           x="24.973145"
           y="1028.6693"
           id="text3019-322"
           sodipodi:linespacing="125%"><tspan
             sodipodi:role="line"
             id="tspan3021-31"
             x="24.973145"
             y="1028.6693">O</tspan></text>
      </g>
      <g
         inkscape:label="Ebene 1"
         id="layer1-30"
         transform="translate(1036.7445,47.937953)">
        <rect
           style="fill:#000000;fill-rule:evenodd;stroke:none"
           id="rect3850-76"
           width="80"
           height="77"
           x="0"
           y="975.36218" />
        <text
           xml:space="preserve"
           style="font-size:50px;font-style:normal;font-variant:normal;font-weight:bold;font-stretch:normal;text-align:start;line-height:125%;letter-spacing:0px;word-spacing:0px;writing-mode:lr-tb;text-anchor:start;fill:#ff0000;fill-opacity:1;stroke:none;font-family:Courier New;-inkscape-font-specification:Courier New Bold"
           x="24.973145"
           y="1028.6693"
           id="text3019-00"
           sodipodi:linespacing="125%"><tspan
             sodipodi:role="line"
             id="tspan3021-66"
             x="24.973145"
             y="1028.6693">O</tspan></text>
      </g>
      <g
         inkscape:label="Ebene 1"
         id="layer1-351"
         transform="translate(956.74453,47.937953)">
        <rect
           style="fill:#000000;fill-rule:evenodd;stroke:none"
           id="rect3850-88"
           width="80"
           height="77"
           x="0"
           y="975.36218" />
        <text
           xml:space="preserve"
           style="font-size:50px;font-style:normal;font-variant:normal;font-weight:bold;font-stretch:normal;text-align:start;line-height:125%;letter-spacing:0px;word-spacing:0px;writing-mode:lr-tb;text-anchor:start;fill:#ff0000;fill-opacity:1;stroke:none;font-family:Courier New;-inkscape-font-specification:Courier New Bold"
           x="24.973145"
           y="1028.6693"
           id="text3019-318"
           sodipodi:linespacing="125%"><tspan
             sodipodi:role="line"
             id="tspan3021-40"
             x="24.973145"
             y="1028.6693">O</tspan></text>
      </g>
      <g
         inkscape:label="Ebene 1"
         id="layer1-64"
         transform="translate(1036.7445,201.93795)">
        <rect
           style="fill:#000000;fill-rule:evenodd;stroke:none"
           id="rect3850-473"
           width="80"
           height="77"
           x="0"
           y="975.36218" />
        <text
           xml:space="preserve"
           style="font-size:50px;font-style:normal;font-variant:normal;font-weight:bold;font-stretch:normal;text-align:start;line-height:125%;letter-spacing:0px;word-spacing:0px;writing-mode:lr-tb;text-anchor:start;fill:#ff0000;fill-opacity:1;stroke:none;font-family:Courier New;-inkscape-font-specification:Courier New Bold"
           x="24.973145"
           y="1028.6693"
           id="text3019-085"
           sodipodi:linespacing="125%"><tspan
             sodipodi:role="line"
             id="tspan3021-859"
             x="24.973145"
             y="1028.6693">O</tspan></text>
      </g>
      <g
         inkscape:label="Ebene 1"
         id="layer1-989"
         transform="translate(396.74453,201.93795)">
        <rect
           style="fill:#000000;fill-rule:evenodd;stroke:none"
           id="rect3850-37"
           width="80"
           height="77"
           x="0"
           y="975.36218" />
        <text
           xml:space="preserve"
           style="font-size:50px;font-style:normal;font-variant:normal;font-weight:bold;font-stretch:normal;text-align:start;line-height:125%;letter-spacing:0px;word-spacing:0px;writing-mode:lr-tb;text-anchor:start;fill:#ff0000;fill-opacity:1;stroke:none;font-family:Courier New;-inkscape-font-specification:Courier New Bold"
           x="24.973145"
           y="1028.6693"
           id="text3019-970"
           sodipodi:linespacing="125%"><tspan
             sodipodi:role="line"
             id="tspan3021-319"
             x="24.973145"
             y="1028.6693">O</tspan></text>
      </g>
      <g
         inkscape:label="Ebene 1"
         id="layer1-85"
         transform="translate(476.74453,124.93795)">
        <rect
           style="fill:#000000;fill-rule:evenodd;stroke:none"
           id="rect3850-26"
           width="80"
           height="77"
           x="0"
           y="975.36218" />
        <text
           xml:space="preserve"
           style="font-size:50px;font-style:normal;font-variant:normal;font-weight:bold;font-stretch:normal;text-align:start;line-height:125%;letter-spacing:0px;word-spacing:0px;writing-mode:lr-tb;text-anchor:start;fill:#ff0000;fill-opacity:1;stroke:none;font-family:Courier New;-inkscape-font-specification:Courier New Bold"
           x="24.973145"
           y="1028.6693"
           id="text3019-041"
           sodipodi:linespacing="125%"><tspan
             sodipodi:role="line"
             id="tspan3021-52"
             x="24.973145"
             y="1028.6693">O</tspan></text>
      </g>
      <g
         inkscape:label="Ebene 1"
         id="layer1-22"
         transform="translate(716.74453,-29.062047)">
        <rect
           style="fill:#000000;fill-rule:evenodd;stroke:none"
           id="rect3850-31"
           width="80"
           height="77"
           x="0"
           y="975.36218" />
        <text
           xml:space="preserve"
           style="font-size:50px;font-style:normal;font-variant:normal;font-weight:bold;font-stretch:normal;text-align:start;line-height:125%;letter-spacing:0px;word-spacing:0px;writing-mode:lr-tb;text-anchor:start;fill:#ff0000;fill-opacity:1;stroke:none;font-family:Courier New;-inkscape-font-specification:Courier New Bold"
           x="24.973145"
           y="1028.6693"
           id="text3019-78"
           sodipodi:linespacing="125%"><tspan
             sodipodi:role="line"
             id="tspan3021-83"
             x="24.973145"
             y="1028.6693">O</tspan></text>
      </g>
      <g
         inkscape:label="Ebene 1"
         id="layer1-07"
         transform="translate(636.74453,-29.062047)">
        <rect
           style="fill:#000000;fill-rule:evenodd;stroke:none"
           id="rect3850-96"
           width="80"
           height="77"
           x="0"
           y="975.36218" />
        <text
           xml:space="preserve"
           style="font-size:50px;font-style:normal;font-variant:normal;font-weight:bold;font-stretch:normal;text-align:start;line-height:125%;letter-spacing:0px;word-spacing:0px;writing-mode:lr-tb;text-anchor:start;fill:#ff0000;fill-opacity:1;stroke:none;font-family:Courier New;-inkscape-font-specification:Courier New Bold"
           x="24.973145"
           y="1028.6693"
           id="text3019-17"
           sodipodi:linespacing="125%"><tspan
             sodipodi:role="line"
             id="tspan3021-76"
             x="24.973145"
             y="1028.6693">O</tspan></text>
      </g>
      <g
         inkscape:label="Ebene 1"
         id="layer1-51"
         transform="translate(556.74453,-29.062047)">
        <rect
           style="fill:#000000;fill-rule:evenodd;stroke:none"
           id="rect3850-425"
           width="80"
           height="77"
           x="0"
           y="975.36218" />
        <text
           xml:space="preserve"
           style="font-size:50px;font-style:normal;font-variant:normal;font-weight:bold;font-stretch:normal;text-align:start;line-height:125%;letter-spacing:0px;word-spacing:0px;writing-mode:lr-tb;text-anchor:start;fill:#ff0000;fill-opacity:1;stroke:none;font-family:Courier New;-inkscape-font-specification:Courier New Bold"
           x="24.973145"
           y="1028.6693"
           id="text3019-070"
           sodipodi:linespacing="125%"><tspan
             sodipodi:role="line"
             id="tspan3021-19"
             x="24.973145"
             y="1028.6693">O</tspan></text>
      </g>
      <g
         inkscape:label="Ebene 1"
         id="layer1-730"
         transform="translate(476.74453,-29.062047)">
        <rect
           style="fill:#000000;fill-rule:evenodd;stroke:none"
           id="rect3850-54"
           width="80"
           height="77"
           x="0"
           y="975.36218" />
        <text
           xml:space="preserve"
           style="font-size:50px;font-style:normal;font-variant:normal;font-weight:bold;font-stretch:normal;text-align:start;line-height:125%;letter-spacing:0px;word-spacing:0px;writing-mode:lr-tb;text-anchor:start;fill:#ff0000;fill-opacity:1;stroke:none;font-family:Courier New;-inkscape-font-specification:Courier New Bold"
           x="24.973145"
           y="1028.6693"
           id="text3019-699"
           sodipodi:linespacing="125%"><tspan
             sodipodi:role="line"
             id="tspan3021-26"
             x="24.973145"
             y="1028.6693">O</tspan></text>
      </g>
      <g
         inkscape:label="Ebene 1"
         id="layer1-25"
         transform="translate(396.74453,-29.062047)">
        <rect
           style="fill:#000000;fill-rule:evenodd;stroke:none"
           id="rect3850-618"
           width="80"
           height="77"
           x="0"
           y="975.36218" />
        <text
           xml:space="preserve"
           style="font-size:50px;font-style:normal;font-variant:normal;font-weight:bold;font-stretch:normal;text-align:start;line-height:125%;letter-spacing:0px;word-spacing:0px;writing-mode:lr-tb;text-anchor:start;fill:#ff0000;fill-opacity:1;stroke:none;font-family:Courier New;-inkscape-font-specification:Courier New Bold"
           x="24.973145"
           y="1028.6693"
           id="text3019-940"
           sodipodi:linespacing="125%"><tspan
             sodipodi:role="line"
             id="tspan3021-75"
             x="24.973145"
             y="1028.6693">O</tspan></text>
      </g>
      <g
         inkscape:label="Ebene 1"
         id="layer1-74"
         transform="translate(796.74453,-29.062047)">
        <rect
           style="fill:#000000;fill-rule:evenodd;stroke:none"
           id="rect3850-319"
           width="80"
           height="77"
           x="0"
           y="975.36218" />
        <text
           xml:space="preserve"
           style="font-size:50px;font-style:normal;font-variant:normal;font-weight:bold;font-stretch:normal;text-align:start;line-height:125%;letter-spacing:0px;word-spacing:0px;writing-mode:lr-tb;text-anchor:start;fill:#ff0000;fill-opacity:1;stroke:none;font-family:Courier New;-inkscape-font-specification:Courier New Bold"
           x="24.973145"
           y="1028.6693"
           id="text3019-043"
           sodipodi:linespacing="125%"><tspan
             sodipodi:role="line"
             id="tspan3021-50"
             x="24.973145"
             y="1028.6693">O</tspan></text>
      </g>
      <g
         inkscape:label="Ebene 1"
         id="layer1-34"
         transform="translate(716.74453,47.937953)">
        <rect
           style="fill:#000000;fill-rule:evenodd;stroke:none"
           id="rect3850-80"
           width="80"
           height="77"
           x="0"
           y="975.36218" />
        <text
           xml:space="preserve"
           style="font-size:50px;font-style:normal;font-variant:normal;font-weight:bold;font-stretch:normal;text-align:start;line-height:125%;letter-spacing:0px;word-spacing:0px;writing-mode:lr-tb;text-anchor:start;fill:#ff0000;fill-opacity:1;stroke:none;font-family:Courier New;-inkscape-font-specification:Courier New Bold"
           x="24.973145"
           y="1028.6693"
           id="text3019-93"
           sodipodi:linespacing="125%"><tspan
             sodipodi:role="line"
             id="tspan3021-925"
             x="24.973145"
             y="1028.6693">O</tspan></text>
      </g>
      <g
         inkscape:label="Ebene 1"
         id="layer1-53"
         transform="translate(396.74453,47.937953)">
        <rect
           style="fill:#000000;fill-rule:evenodd;stroke:none"
           id="rect3850-177"
           width="80"
           height="77"
           x="0"
           y="975.36218" />
        <text
           xml:space="preserve"
           style="font-size:50px;font-style:normal;font-variant:normal;font-weight:bold;font-stretch:normal;text-align:start;line-height:125%;letter-spacing:0px;word-spacing:0px;writing-mode:lr-tb;text-anchor:start;fill:#ff0000;fill-opacity:1;stroke:none;font-family:Courier New;-inkscape-font-specification:Courier New Bold"
           x="24.973145"
           y="1028.6693"
           id="text3019-15"
           sodipodi:linespacing="125%"><tspan
             sodipodi:role="line"
             id="tspan3021-25"
             x="24.973145"
             y="1028.6693">O</tspan></text>
      </g>
      <g
         inkscape:label="Ebene 1"
         id="layer1-641"
         transform="translate(956.74453,124.93795)">
        <rect
           style="fill:#000000;fill-rule:evenodd;stroke:none"
           id="rect3850-15"
           width="80"
           height="77"
           x="0"
           y="975.36218" />
        <text
           xml:space="preserve"
           style="font-size:50px;font-style:normal;font-variant:normal;font-weight:bold;font-stretch:normal;text-align:start;line-height:125%;letter-spacing:0px;word-spacing:0px;writing-mode:lr-tb;text-anchor:start;fill:#ff0000;fill-opacity:1;stroke:none;font-family:Courier New;-inkscape-font-specification:Courier New Bold"
           x="24.973145"
           y="1028.6693"
           id="text3019-52"
           sodipodi:linespacing="125%"><tspan
             sodipodi:role="line"
             id="tspan3021-51"
             x="24.973145"
             y="1028.6693">O</tspan></text>
      </g>
      <g
         inkscape:label="Ebene 1"
         id="layer1-77"
         transform="translate(636.74453,124.93795)">
        <rect
           style="fill:#000000;fill-rule:evenodd;stroke:none"
           id="rect3850-663"
           width="80"
           height="77"
           x="0"
           y="975.36218" />
        <text
           xml:space="preserve"
           style="font-size:50px;font-style:normal;font-variant:normal;font-weight:bold;font-stretch:normal;text-align:start;line-height:125%;letter-spacing:0px;word-spacing:0px;writing-mode:lr-tb;text-anchor:start;fill:#ff0000;fill-opacity:1;stroke:none;font-family:Courier New;-inkscape-font-specification:Courier New Bold"
           x="24.973145"
           y="1028.6693"
           id="text3019-57"
           sodipodi:linespacing="125%"><tspan
             sodipodi:role="line"
             id="tspan3021-18"
             x="24.973145"
             y="1028.6693">O</tspan></text>
      </g>
      <g
         inkscape:label="Ebene 1"
         id="layer1-72"
         transform="translate(1036.7445,-29.062047)">
        <rect
           style="fill:#000000;fill-rule:evenodd;stroke:none"
           id="rect3850-391"
           width="80"
           height="77"
           x="0"
           y="975.36218" />
        <text
           xml:space="preserve"
           style="font-size:50px;font-style:normal;font-variant:normal;font-weight:bold;font-stretch:normal;text-align:start;line-height:125%;letter-spacing:0px;word-spacing:0px;writing-mode:lr-tb;text-anchor:start;fill:#ff0000;fill-opacity:1;stroke:none;font-family:Courier New;-inkscape-font-specification:Courier New Bold"
           x="24.973145"
           y="1028.6693"
           id="text3019-803"
           sodipodi:linespacing="125%"><tspan
             sodipodi:role="line"
             id="tspan3021-826"
             x="24.973145"
             y="1028.6693">O</tspan></text>
      </g>
      <g
         inkscape:label="Ebene 1"
         id="layer1-926"
         transform="translate(956.74453,-29.062047)">
        <rect
           style="fill:#000000;fill-rule:evenodd;stroke:none"
           id="rect3850-32"
           width="80"
           height="77"
           x="0"
           y="975.36218" />
        <text
           xml:space="preserve"
           style="font-size:50px;font-style:normal;font-variant:normal;font-weight:bold;font-stretch:normal;text-align:start;line-height:125%;letter-spacing:0px;word-spacing:0px;writing-mode:lr-tb;text-anchor:start;fill:#ff0000;fill-opacity:1;stroke:none;font-family:Courier New;-inkscape-font-specification:Courier New Bold"
           x="24.973145"
           y="1028.6693"
           id="text3019-806"
           sodipodi:linespacing="125%"><tspan
             sodipodi:role="line"
             id="tspan3021-73"
             x="24.973145"
             y="1028.6693">O</tspan></text>
      </g>
      <g
         inkscape:label="Ebene 1"
         id="layer1-82"
         transform="translate(876.74453,-29.062047)">
        <rect
           style="fill:#000000;fill-rule:evenodd;stroke:none"
           id="rect3850-022"
           width="80"
           height="77"
           x="0"
           y="975.36218" />
        <text
           xml:space="preserve"
           style="font-size:50px;font-style:normal;font-variant:normal;font-weight:bold;font-stretch:normal;text-align:start;line-height:125%;letter-spacing:0px;word-spacing:0px;writing-mode:lr-tb;text-anchor:start;fill:#ff0000;fill-opacity:1;stroke:none;font-family:Courier New;-inkscape-font-specification:Courier New Bold"
           x="24.973145"
           y="1028.6693"
           id="text3019-653"
           sodipodi:linespacing="125%"><tspan
             sodipodi:role="line"
             id="tspan3021-63"
             x="24.973145"
             y="1028.6693">O</tspan></text>
      </g>
      <g
         inkscape:label="Ebene 1"
         id="layer1-6417"
         transform="translate(236.74453,355.93795)">
        <rect
           style="fill:#000000;fill-rule:evenodd;stroke:none"
           id="rect3850-70"
           width="80"
           height="77"
           x="0"
           y="975.36218" />
        <text
           xml:space="preserve"
           style="font-size:50px;font-style:normal;font-variant:normal;font-weight:bold;font-stretch:normal;text-align:start;line-height:125%;letter-spacing:0px;word-spacing:0px;writing-mode:lr-tb;text-anchor:start;fill:#ff0000;fill-opacity:1;stroke:none;font-family:Courier New;-inkscape-font-specification:Courier New Bold"
           x="24.973145"
           y="1028.6693"
           id="text3019-12"
           sodipodi:linespacing="125%"><tspan
             sodipodi:role="line"
             id="tspan3021-201"
             x="24.973145"
             y="1028.6693">O</tspan></text>
      </g>
      <g
         inkscape:label="Ebene 1"
         id="layer1-646"
         transform="translate(1116.7445,278.93795)">
        <rect
           style="fill:#000000;fill-rule:evenodd;stroke:none"
           id="rect3850-62"
           width="80"
           height="77"
           x="0"
           y="975.36218" />
        <text
           xml:space="preserve"
           style="font-size:50px;font-style:normal;font-variant:normal;font-weight:bold;font-stretch:normal;text-align:start;line-height:125%;letter-spacing:0px;word-spacing:0px;writing-mode:lr-tb;text-anchor:start;fill:#ff0000;fill-opacity:1;stroke:none;font-family:Courier New;-inkscape-font-specification:Courier New Bold"
           x="24.973145"
           y="1028.6693"
           id="text3019-323"
           sodipodi:linespacing="125%"><tspan
             sodipodi:role="line"
             id="tspan3021-45"
             x="24.973145"
             y="1028.6693">O</tspan></text>
      </g>
      <g
         inkscape:label="Ebene 1"
         id="layer1-27"
         transform="translate(956.74453,278.93795)">
        <rect
           style="fill:#000000;fill-rule:evenodd;stroke:none"
           id="rect3850-87"
           width="80"
           height="77"
           x="0"
           y="975.36218" />
        <text
           xml:space="preserve"
           style="font-size:50px;font-style:normal;font-variant:normal;font-weight:bold;font-stretch:normal;text-align:start;line-height:125%;letter-spacing:0px;word-spacing:0px;writing-mode:lr-tb;text-anchor:start;fill:#ff0000;fill-opacity:1;stroke:none;font-family:Courier New;-inkscape-font-specification:Courier New Bold"
           x="24.973145"
           y="1028.6693"
           id="text3019-61"
           sodipodi:linespacing="125%"><tspan
             sodipodi:role="line"
             id="tspan3021-009"
             x="24.973145"
             y="1028.6693">O</tspan></text>
      </g>
      <g
         inkscape:label="Ebene 1"
         id="layer1-774"
         transform="translate(796.74453,278.93795)">
        <rect
           style="fill:#000000;fill-rule:evenodd;stroke:none"
           id="rect3850-929"
           width="80"
           height="77"
           x="0"
           y="975.36218" />
        <text
           xml:space="preserve"
           style="font-size:50px;font-style:normal;font-variant:normal;font-weight:bold;font-stretch:normal;text-align:start;line-height:125%;letter-spacing:0px;word-spacing:0px;writing-mode:lr-tb;text-anchor:start;fill:#ff0000;fill-opacity:1;stroke:none;font-family:Courier New;-inkscape-font-specification:Courier New Bold"
           x="24.973145"
           y="1028.6693"
           id="text3019-87"
           sodipodi:linespacing="125%"><tspan
             sodipodi:role="line"
             id="tspan3021-56"
             x="24.973145"
             y="1028.6693">O</tspan></text>
      </g>
      <g
         inkscape:label="Ebene 1"
         id="layer1-721"
         transform="translate(716.74453,278.93795)">
        <rect
           style="fill:#000000;fill-rule:evenodd;stroke:none"
           id="rect3850-968"
           width="80"
           height="77"
           x="0"
           y="975.36218" />
        <text
           xml:space="preserve"
           style="font-size:50px;font-style:normal;font-variant:normal;font-weight:bold;font-stretch:normal;text-align:start;line-height:125%;letter-spacing:0px;word-spacing:0px;writing-mode:lr-tb;text-anchor:start;fill:#ff0000;fill-opacity:1;stroke:none;font-family:Courier New;-inkscape-font-specification:Courier New Bold"
           x="24.973145"
           y="1028.6693"
           id="text3019-25"
           sodipodi:linespacing="125%"><tspan
             sodipodi:role="line"
             id="tspan3021-07"
             x="24.973145"
             y="1028.6693">O</tspan></text>
      </g>
      <g
         inkscape:label="Ebene 1"
         id="layer1-65"
         transform="translate(556.74453,278.93795)">
        <rect
           style="fill:#000000;fill-rule:evenodd;stroke:none"
           id="rect3850-68"
           width="80"
           height="77"
           x="0"
           y="975.36218" />
        <text
           xml:space="preserve"
           style="font-size:50px;font-style:normal;font-variant:normal;font-weight:bold;font-stretch:normal;text-align:start;line-height:125%;letter-spacing:0px;word-spacing:0px;writing-mode:lr-tb;text-anchor:start;fill:#ff0000;fill-opacity:1;stroke:none;font-family:Courier New;-inkscape-font-specification:Courier New Bold"
           x="24.973145"
           y="1028.6693"
           id="text3019-44"
           sodipodi:linespacing="125%"><tspan
             sodipodi:role="line"
             id="tspan3021-49"
             x="24.973145"
             y="1028.6693">O</tspan></text>
      </g>
      <g
         inkscape:label="Ebene 1"
         id="layer1-097"
         transform="translate(396.74453,278.93795)">
        <rect
           style="fill:#000000;fill-rule:evenodd;stroke:none"
           id="rect3850-660"
           width="80"
           height="77"
           x="0"
           y="975.36218" />
        <text
           xml:space="preserve"
           style="font-size:50px;font-style:normal;font-variant:normal;font-weight:bold;font-stretch:normal;text-align:start;line-height:125%;letter-spacing:0px;word-spacing:0px;writing-mode:lr-tb;text-anchor:start;fill:#ff0000;fill-opacity:1;stroke:none;font-family:Courier New;-inkscape-font-specification:Courier New Bold"
           x="24.973145"
           y="1028.6693"
           id="text3019-933"
           sodipodi:linespacing="125%"><tspan
             sodipodi:role="line"
             id="tspan3021-454"
             x="24.973145"
             y="1028.6693">O</tspan></text>
      </g>
    </g>
  </g>
</svg>
