<?xml version="1.0" encoding="UTF-8" standalone="no"?>
<!-- Created with Inkscape (http://www.inkscape.org/) -->

<svg
   xmlns:dc="http://purl.org/dc/elements/1.1/"
   xmlns:cc="http://creativecommons.org/ns#"
   xmlns:rdf="http://www.w3.org/1999/02/22-rdf-syntax-ns#"
   xmlns:svg="http://www.w3.org/2000/svg"
   xmlns="http://www.w3.org/2000/svg"
   xmlns:xlink="http://www.w3.org/1999/xlink"
   xmlns:sodipodi="http://sodipodi.sourceforge.net/DTD/sodipodi-0.dtd"
   xmlns:inkscape="http://www.inkscape.org/namespaces/inkscape"
   width="960"
   height="540"
   id="svg3023"
   version="1.1"
   inkscape:version="0.48.5 r10040"
   sodipodi:docname="5_1.png">
  <defs
     id="defs3025">
    <pattern
       inkscape:collect="always"
       xlink:href="#pattern11977"
       id="pattern12859"
       patternTransform="translate(559.99999,512.86217)" />
    <pattern
       inkscape:collect="always"
       xlink:href="#pattern11041"
       id="pattern11977"
       patternTransform="translate(719.70802,946.3001)" />
    <pattern
       patternUnits="userSpaceOnUse"
       width="80"
       height="77"
       patternTransform="translate(248.43796,970.98627)"
       id="pattern3436">
      <g
         inkscape:label="Ebene 1"
         id="layer1-6"
         transform="translate(0,-975.36218)">
        <rect
           style="fill:#000000;fill-rule:evenodd;stroke:none"
           id="rect3850-2"
           width="80"
           height="77"
           x="0"
           y="975.36218" />
        <text
           xml:space="preserve"
           style="font-size:50px;font-style:normal;font-variant:normal;font-weight:bold;font-stretch:normal;text-align:start;line-height:125%;letter-spacing:0px;word-spacing:0px;writing-mode:lr-tb;text-anchor:start;fill:#ff0000;fill-opacity:1;stroke:none;font-family:Courier New;-inkscape-font-specification:Courier New Bold"
           x="24.973145"
           y="1028.6693"
           id="text3019-1"
           sodipodi:linespacing="125%"><tspan
             sodipodi:role="line"
             id="tspan3021-3"
             x="24.973145"
             y="1028.6693">O</tspan></text>
      </g>
    </pattern>
    <pattern
       patternUnits="userSpaceOnUse"
       width="80"
       height="77"
       patternTransform="translate(499.19708,946.30014)"
       id="pattern11041">
      <g
         inkscape:label="Ebene 1"
         id="layer1-61"
         transform="translate(0,-975.36218)">
        <rect
           style="fill:#000000;fill-rule:evenodd;stroke:none"
           id="rect3850-6"
           width="80"
           height="77"
           x="0"
           y="975.36218" />
        <text
           xml:space="preserve"
           style="font-size:50px;font-style:normal;font-variant:normal;font-weight:bold;font-stretch:normal;text-align:start;line-height:125%;letter-spacing:0px;word-spacing:0px;writing-mode:lr-tb;text-anchor:start;fill:#ff3c46;fill-opacity:1;stroke:none;font-family:Courier New;-inkscape-font-specification:Courier New Bold"
           x="24.973145"
           y="1028.6693"
           id="text3019-6"
           sodipodi:linespacing="125%"><tspan
             sodipodi:role="line"
             id="tspan3021-36"
             x="24.973145"
             y="1028.6693">O</tspan></text>
      </g>
    </pattern>
  </defs>
  <sodipodi:namedview
     id="base"
     pagecolor="#ffffff"
     bordercolor="#666666"
     borderopacity="1.0"
     inkscape:pageopacity="0.0"
     inkscape:pageshadow="2"
     inkscape:zoom="0.76966292"
     inkscape:cx="527.77768"
     inkscape:cy="325.25127"
     inkscape:document-units="px"
     inkscape:current-layer="layer1"
     showgrid="false"
     inkscape:window-width="1313"
     inkscape:window-height="764"
     inkscape:window-x="2"
     inkscape:window-y="4"
     inkscape:window-maximized="0" />
  <metadata
     id="metadata3028">
    <rdf:RDF>
      <cc:Work
         rdf:about="">
        <dc:format>image/svg+xml</dc:format>
        <dc:type
           rdf:resource="http://purl.org/dc/dcmitype/StillImage" />
        <dc:title></dc:title>
      </cc:Work>
    </rdf:RDF>
  </metadata>
  <g
     inkscape:label="Ebene 1"
     inkscape:groupmode="layer"
     id="layer1"
     transform="translate(0,-512.36218)">
    <rect
       style="fill:#000000;fill-opacity:1;fill-rule:evenodd;stroke:none"
       id="rect10516"
       width="960"
       height="540"
       x="0"
       y="512.36218" />
    <rect
       style="fill:url(#pattern12859);stroke:none"
       width="80"
       height="77"
       x="560"
       y="512.86218"
       id="rect11047" />
    <g
       transform="translate(480,-462.5)"
       id="layer1-1"
       inkscape:label="Ebene 1">
      <rect
         y="975.36218"
         x="0"
         height="77"
         width="80"
         id="rect3850-3"
         style="fill:#000000;fill-rule:evenodd;stroke:none" />
      <text
         sodipodi:linespacing="125%"
         id="text3019-68"
         y="1028.6693"
         x="24.973145"
         style="font-size:50px;font-style:normal;font-variant:normal;font-weight:bold;font-stretch:normal;text-align:start;line-height:125%;letter-spacing:0px;word-spacing:0px;writing-mode:lr-tb;text-anchor:start;fill:#ff3c46;fill-opacity:1;stroke:none;font-family:Courier New;-inkscape-font-specification:Courier New Bold"
         xml:space="preserve"><tspan
           y="1028.6693"
           x="24.973145"
           id="tspan3021-38"
           sodipodi:role="line">O</tspan></text>
    </g>
    <g
       transform="translate(400,-462.5)"
       id="layer1-18"
       inkscape:label="Ebene 1">
      <rect
         y="975.36218"
         x="0"
         height="77"
         width="80"
         id="rect3850-31"
         style="fill:#000000;fill-rule:evenodd;stroke:none" />
      <text
         sodipodi:linespacing="125%"
         id="text3019-3"
         y="1028.6693"
         x="24.973145"
         style="font-size:50px;font-style:normal;font-variant:normal;font-weight:bold;font-stretch:normal;text-align:start;line-height:125%;letter-spacing:0px;word-spacing:0px;writing-mode:lr-tb;text-anchor:start;fill:#ff3c46;fill-opacity:1;stroke:none;font-family:Courier New;-inkscape-font-specification:Courier New Bold"
         xml:space="preserve"><tspan
           y="1028.6693"
           x="24.973145"
           id="tspan3021-30"
           sodipodi:role="line">O</tspan></text>
    </g>
    <g
       transform="translate(560,-0.5)"
       id="layer1-3"
       inkscape:label="Ebene 1">
      <rect
         y="975.36218"
         x="0"
         height="77"
         width="80"
         id="rect3850-5"
         style="fill:#000000;fill-rule:evenodd;stroke:none" />
      <text
         sodipodi:linespacing="125%"
         id="text3019-7"
         y="1028.6693"
         x="24.973145"
         style="font-size:50px;font-style:normal;font-variant:normal;font-weight:bold;font-stretch:normal;text-align:start;line-height:125%;letter-spacing:0px;word-spacing:0px;writing-mode:lr-tb;text-anchor:start;fill:#ff3c46;fill-opacity:1;stroke:none;font-family:Courier New;-inkscape-font-specification:Courier New Bold"
         xml:space="preserve"><tspan
           y="1028.6693"
           x="24.973145"
           id="tspan3021-1"
           sodipodi:role="line">O</tspan></text>
    </g>
    <g
       transform="translate(480,-0.5)"
       id="layer1-75"
       inkscape:label="Ebene 1">
      <rect
         y="975.36218"
         x="0"
         height="77"
         width="80"
         id="rect3850-25"
         style="fill:#000000;fill-rule:evenodd;stroke:none" />
      <text
         sodipodi:linespacing="125%"
         id="text3019-2"
         y="1028.6693"
         x="24.973145"
         style="font-size:50px;font-style:normal;font-variant:normal;font-weight:bold;font-stretch:normal;text-align:start;line-height:125%;letter-spacing:0px;word-spacing:0px;writing-mode:lr-tb;text-anchor:start;fill:#ff3c46;fill-opacity:1;stroke:none;font-family:Courier New;-inkscape-font-specification:Courier New Bold"
         xml:space="preserve"><tspan
           y="1028.6693"
           x="24.973145"
           id="tspan3021-5"
           sodipodi:role="line">O</tspan></text>
    </g>
    <g
       transform="translate(400,-0.5)"
       id="layer1-79"
       inkscape:label="Ebene 1">
      <rect
         y="975.36218"
         x="0"
         height="77"
         width="80"
         id="rect3850-50"
         style="fill:#000000;fill-rule:evenodd;stroke:none" />
      <text
         sodipodi:linespacing="125%"
         id="text3019-5"
         y="1028.6693"
         x="24.973145"
         style="font-size:50px;font-style:normal;font-variant:normal;font-weight:bold;font-stretch:normal;text-align:start;line-height:125%;letter-spacing:0px;word-spacing:0px;writing-mode:lr-tb;text-anchor:start;fill:#ff3c46;fill-opacity:1;stroke:none;font-family:Courier New;-inkscape-font-specification:Courier New Bold"
         xml:space="preserve"><tspan
           y="1028.6693"
           x="24.973145"
           id="tspan3021-8"
           sodipodi:role="line">O</tspan></text>
    </g>
    <g
       transform="translate(320,-0.5)"
       id="layer1-62"
       inkscape:label="Ebene 1">
      <rect
         y="975.36218"
         x="0"
         height="77"
         width="80"
         id="rect3850-312"
         style="fill:#000000;fill-rule:evenodd;stroke:none" />
      <text
         sodipodi:linespacing="125%"
         id="text3019-0"
         y="1028.6693"
         x="24.973145"
         style="font-size:50px;font-style:normal;font-variant:normal;font-weight:bold;font-stretch:normal;text-align:start;line-height:125%;letter-spacing:0px;word-spacing:0px;writing-mode:lr-tb;text-anchor:start;fill:#ff3c46;fill-opacity:1;stroke:none;font-family:Courier New;-inkscape-font-specification:Courier New Bold"
         xml:space="preserve"><tspan
           y="1028.6693"
           x="24.973145"
           id="tspan3021-87"
           sodipodi:role="line">O</tspan></text>
    </g>
    <g
       transform="translate(560,-77.5)"
       id="layer1-8"
       inkscape:label="Ebene 1">
      <rect
         y="975.36218"
         x="0"
         height="77"
         width="80"
         id="rect3850-8"
         style="fill:#000000;fill-rule:evenodd;stroke:none" />
      <text
         sodipodi:linespacing="125%"
         id="text3019-36"
         y="1028.6693"
         x="24.973145"
         style="font-size:50px;font-style:normal;font-variant:normal;font-weight:bold;font-stretch:normal;text-align:start;line-height:125%;letter-spacing:0px;word-spacing:0px;writing-mode:lr-tb;text-anchor:start;fill:#ff3c46;fill-opacity:1;stroke:none;font-family:Courier New;-inkscape-font-specification:Courier New Bold"
         xml:space="preserve"><tspan
           y="1028.6693"
           x="24.973145"
           id="tspan3021-2"
           sodipodi:role="line">O</tspan></text>
    </g>
    <g
       transform="translate(480,-308.5)"
       id="layer1-68"
       inkscape:label="Ebene 1">
      <rect
         y="975.36218"
         x="0"
         height="77"
         width="80"
         id="rect3850-68"
         style="fill:#000000;fill-rule:evenodd;stroke:none" />
      <text
         sodipodi:linespacing="125%"
         id="text3019-50"
         y="1028.6693"
         x="24.973145"
         style="font-size:50px;font-style:normal;font-variant:normal;font-weight:bold;font-stretch:normal;text-align:start;line-height:125%;letter-spacing:0px;word-spacing:0px;writing-mode:lr-tb;text-anchor:start;fill:#ff3c46;fill-opacity:1;stroke:none;font-family:Courier New;-inkscape-font-specification:Courier New Bold"
         xml:space="preserve"><tspan
           y="1028.6693"
           x="24.973145"
           id="tspan3021-57"
           sodipodi:role="line">O</tspan></text>
    </g>
    <g
       transform="translate(480,-77.5)"
       id="layer1-9"
       inkscape:label="Ebene 1">
      <rect
         y="975.36218"
         x="0"
         height="77"
         width="80"
         id="rect3850-38"
         style="fill:#000000;fill-rule:evenodd;stroke:none" />
      <text
         sodipodi:linespacing="125%"
         id="text3019-01"
         y="1028.6693"
         x="24.973145"
         style="font-size:50px;font-style:normal;font-variant:normal;font-weight:bold;font-stretch:normal;text-align:start;line-height:125%;letter-spacing:0px;word-spacing:0px;writing-mode:lr-tb;text-anchor:start;fill:#ff3c46;fill-opacity:1;stroke:none;font-family:Courier New;-inkscape-font-specification:Courier New Bold"
         xml:space="preserve"><tspan
           y="1028.6693"
           x="24.973145"
           id="tspan3021-0"
           sodipodi:role="line">O</tspan></text>
    </g>
    <g
       transform="translate(400,-77.5)"
       id="layer1-4"
       inkscape:label="Ebene 1">
      <rect
         y="975.36218"
         x="0"
         height="77"
         width="80"
         id="rect3850-0"
         style="fill:#000000;fill-rule:evenodd;stroke:none" />
      <text
         sodipodi:linespacing="125%"
         id="text3019-75"
         y="1028.6693"
         x="24.973145"
         style="font-size:50px;font-style:normal;font-variant:normal;font-weight:bold;font-stretch:normal;text-align:start;line-height:125%;letter-spacing:0px;word-spacing:0px;writing-mode:lr-tb;text-anchor:start;fill:#ff3c46;fill-opacity:1;stroke:none;font-family:Courier New;-inkscape-font-specification:Courier New Bold"
         xml:space="preserve"><tspan
           y="1028.6693"
           x="24.973145"
           id="tspan3021-11"
           sodipodi:role="line">O</tspan></text>
    </g>
    <g
       transform="translate(400,-308.5)"
       id="layer1-5"
       inkscape:label="Ebene 1">
      <rect
         y="975.36218"
         x="0"
         height="77"
         width="80"
         id="rect3850-9"
         style="fill:#000000;fill-rule:evenodd;stroke:none" />
      <text
         sodipodi:linespacing="125%"
         id="text3019-60"
         y="1028.6693"
         x="24.973145"
         style="font-size:50px;font-style:normal;font-variant:normal;font-weight:bold;font-stretch:normal;text-align:start;line-height:125%;letter-spacing:0px;word-spacing:0px;writing-mode:lr-tb;text-anchor:start;fill:#ff3c46;fill-opacity:1;stroke:none;font-family:Courier New;-inkscape-font-specification:Courier New Bold"
         xml:space="preserve"><tspan
           y="1028.6693"
           x="24.973145"
           id="tspan3021-54"
           sodipodi:role="line">O</tspan></text>
    </g>
    <g
       transform="translate(320,-308.5)"
       id="layer1-84"
       inkscape:label="Ebene 1">
      <rect
         y="975.36218"
         x="0"
         height="77"
         width="80"
         id="rect3850-318"
         style="fill:#000000;fill-rule:evenodd;stroke:none" />
      <text
         sodipodi:linespacing="125%"
         id="text3019-35"
         y="1028.6693"
         x="24.973145"
         style="font-size:50px;font-style:normal;font-variant:normal;font-weight:bold;font-stretch:normal;text-align:start;line-height:125%;letter-spacing:0px;word-spacing:0px;writing-mode:lr-tb;text-anchor:start;fill:#ff3c46;fill-opacity:1;stroke:none;font-family:Courier New;-inkscape-font-specification:Courier New Bold"
         xml:space="preserve"><tspan
           y="1028.6693"
           x="24.973145"
           id="tspan3021-6"
           sodipodi:role="line">O</tspan></text>
    </g>
    <g
       transform="translate(560,-385.5)"
       id="layer1-49"
       inkscape:label="Ebene 1">
      <rect
         y="975.36218"
         x="0"
         height="77"
         width="80"
         id="rect3850-29"
         style="fill:#000000;fill-rule:evenodd;stroke:none" />
      <text
         sodipodi:linespacing="125%"
         id="text3019-11"
         y="1028.6693"
         x="24.973145"
         style="font-size:50px;font-style:normal;font-variant:normal;font-weight:bold;font-stretch:normal;text-align:start;line-height:125%;letter-spacing:0px;word-spacing:0px;writing-mode:lr-tb;text-anchor:start;fill:#ff3c46;fill-opacity:1;stroke:none;font-family:Courier New;-inkscape-font-specification:Courier New Bold"
         xml:space="preserve"><tspan
           y="1028.6693"
           x="24.973145"
           id="tspan3021-19"
           sodipodi:role="line">O</tspan></text>
    </g>
    <g
       transform="translate(480,-385.5)"
       id="layer1-43"
       inkscape:label="Ebene 1">
      <rect
         y="975.36218"
         x="0"
         height="77"
         width="80"
         id="rect3850-4"
         style="fill:#000000;fill-rule:evenodd;stroke:none" />
      <text
         sodipodi:linespacing="125%"
         id="text3019-78"
         y="1028.6693"
         x="24.973145"
         style="font-size:50px;font-style:normal;font-variant:normal;font-weight:bold;font-stretch:normal;text-align:start;line-height:125%;letter-spacing:0px;word-spacing:0px;writing-mode:lr-tb;text-anchor:start;fill:#ff3c46;fill-opacity:1;stroke:none;font-family:Courier New;-inkscape-font-specification:Courier New Bold"
         xml:space="preserve"><tspan
           y="1028.6693"
           x="24.973145"
           id="tspan3021-01"
           sodipodi:role="line">O</tspan></text>
    </g>
    <g
       transform="translate(400,-385.5)"
       id="layer1-99"
       inkscape:label="Ebene 1">
      <rect
         y="975.36218"
         x="0"
         height="77"
         width="80"
         id="rect3850-62"
         style="fill:#000000;fill-rule:evenodd;stroke:none" />
      <text
         sodipodi:linespacing="125%"
         id="text3019-685"
         y="1028.6693"
         x="24.973145"
         style="font-size:50px;font-style:normal;font-variant:normal;font-weight:bold;font-stretch:normal;text-align:start;line-height:125%;letter-spacing:0px;word-spacing:0px;writing-mode:lr-tb;text-anchor:start;fill:#ff3c46;fill-opacity:1;stroke:none;font-family:Courier New;-inkscape-font-specification:Courier New Bold"
         xml:space="preserve"><tspan
           y="1028.6693"
           x="24.973145"
           id="tspan3021-61"
           sodipodi:role="line">O</tspan></text>
    </g>
    <g
       transform="translate(320,-385.5)"
       id="layer1-73"
       inkscape:label="Ebene 1">
      <rect
         y="975.36218"
         x="0"
         height="77"
         width="80"
         id="rect3850-683"
         style="fill:#000000;fill-rule:evenodd;stroke:none" />
      <text
         sodipodi:linespacing="125%"
         id="text3019-39"
         y="1028.6693"
         x="24.973145"
         style="font-size:50px;font-style:normal;font-variant:normal;font-weight:bold;font-stretch:normal;text-align:start;line-height:125%;letter-spacing:0px;word-spacing:0px;writing-mode:lr-tb;text-anchor:start;fill:#ff3c46;fill-opacity:1;stroke:none;font-family:Courier New;-inkscape-font-specification:Courier New Bold"
         xml:space="preserve"><tspan
           y="1028.6693"
           x="24.973145"
           id="tspan3021-03"
           sodipodi:role="line">O</tspan></text>
    </g>
    <g
       transform="translate(320,-77.5)"
       id="layer1-34"
       inkscape:label="Ebene 1">
      <rect
         y="975.36218"
         x="0"
         height="77"
         width="80"
         id="rect3850-56"
         style="fill:#000000;fill-rule:evenodd;stroke:none" />
      <text
         sodipodi:linespacing="125%"
         id="text3019-602"
         y="1028.6693"
         x="24.973145"
         style="font-size:50px;font-style:normal;font-variant:normal;font-weight:bold;font-stretch:normal;text-align:start;line-height:125%;letter-spacing:0px;word-spacing:0px;writing-mode:lr-tb;text-anchor:start;fill:#ff3c46;fill-opacity:1;stroke:none;font-family:Courier New;-inkscape-font-specification:Courier New Bold"
         xml:space="preserve"><tspan
           y="1028.6693"
           x="24.973145"
           id="tspan3021-010"
           sodipodi:role="line">O</tspan></text>
    </g>
    <g
       transform="translate(560,-154.5)"
       id="layer1-97"
       inkscape:label="Ebene 1">
      <rect
         y="975.36218"
         x="0"
         height="77"
         width="80"
         id="rect3850-55"
         style="fill:#000000;fill-rule:evenodd;stroke:none" />
      <text
         sodipodi:linespacing="125%"
         id="text3019-8"
         y="1028.6693"
         x="24.973145"
         style="font-size:50px;font-style:normal;font-variant:normal;font-weight:bold;font-stretch:normal;text-align:start;line-height:125%;letter-spacing:0px;word-spacing:0px;writing-mode:lr-tb;text-anchor:start;fill:#ff3c46;fill-opacity:1;stroke:none;font-family:Courier New;-inkscape-font-specification:Courier New Bold"
         xml:space="preserve"><tspan
           y="1028.6693"
           x="24.973145"
           id="tspan3021-4"
           sodipodi:role="line">O</tspan></text>
    </g>
    <g
       transform="translate(480,-154.5)"
       id="layer1-44"
       inkscape:label="Ebene 1">
      <rect
         y="975.36218"
         x="0"
         height="77"
         width="80"
         id="rect3850-43"
         style="fill:#000000;fill-rule:evenodd;stroke:none" />
      <text
         sodipodi:linespacing="125%"
         id="text3019-26"
         y="1028.6693"
         x="24.973145"
         style="font-size:50px;font-style:normal;font-variant:normal;font-weight:bold;font-stretch:normal;text-align:start;line-height:125%;letter-spacing:0px;word-spacing:0px;writing-mode:lr-tb;text-anchor:start;fill:#ff3c46;fill-opacity:1;stroke:none;font-family:Courier New;-inkscape-font-specification:Courier New Bold"
         xml:space="preserve"><tspan
           y="1028.6693"
           x="24.973145"
           id="tspan3021-55"
           sodipodi:role="line">O</tspan></text>
    </g>
    <g
       transform="translate(400,-154.5)"
       id="layer1-0"
       inkscape:label="Ebene 1">
      <rect
         y="975.36218"
         x="0"
         height="77"
         width="80"
         id="rect3850-1"
         style="fill:#000000;fill-rule:evenodd;stroke:none" />
      <text
         sodipodi:linespacing="125%"
         id="text3019-9"
         y="1028.6693"
         x="24.973145"
         style="font-size:50px;font-style:normal;font-variant:normal;font-weight:bold;font-stretch:normal;text-align:start;line-height:125%;letter-spacing:0px;word-spacing:0px;writing-mode:lr-tb;text-anchor:start;fill:#ff3c46;fill-opacity:1;stroke:none;font-family:Courier New;-inkscape-font-specification:Courier New Bold"
         xml:space="preserve"><tspan
           y="1028.6693"
           x="24.973145"
           id="tspan3021-58"
           sodipodi:role="line">O</tspan></text>
    </g>
    <g
       transform="translate(320,-154.5)"
       id="layer1-16"
       inkscape:label="Ebene 1">
      <rect
         y="975.36218"
         x="0"
         height="77"
         width="80"
         id="rect3850-433"
         style="fill:#000000;fill-rule:evenodd;stroke:none" />
      <text
         sodipodi:linespacing="125%"
         id="text3019-16"
         y="1028.6693"
         x="24.973145"
         style="font-size:50px;font-style:normal;font-variant:normal;font-weight:bold;font-stretch:normal;text-align:start;line-height:125%;letter-spacing:0px;word-spacing:0px;writing-mode:lr-tb;text-anchor:start;fill:#ff3c46;fill-opacity:1;stroke:none;font-family:Courier New;-inkscape-font-specification:Courier New Bold"
         xml:space="preserve"><tspan
           y="1028.6693"
           x="24.973145"
           id="tspan3021-012"
           sodipodi:role="line">O</tspan></text>
    </g>
    <g
       transform="translate(560,-231.5)"
       id="layer1-17"
       inkscape:label="Ebene 1">
      <rect
         y="975.36218"
         x="0"
         height="77"
         width="80"
         id="rect3850-7"
         style="fill:#000000;fill-rule:evenodd;stroke:none" />
      <text
         sodipodi:linespacing="125%"
         id="text3019-58"
         y="1028.6693"
         x="24.973145"
         style="font-size:50px;font-style:normal;font-variant:normal;font-weight:bold;font-stretch:normal;text-align:start;line-height:125%;letter-spacing:0px;word-spacing:0px;writing-mode:lr-tb;text-anchor:start;fill:#ff3c46;fill-opacity:1;stroke:none;font-family:Courier New;-inkscape-font-specification:Courier New Bold"
         xml:space="preserve"><tspan
           y="1028.6693"
           x="24.973145"
           id="tspan3021-34"
           sodipodi:role="line">O</tspan></text>
    </g>
    <g
       transform="translate(480,-231.5)"
       id="layer1-41"
       inkscape:label="Ebene 1">
      <rect
         y="975.36218"
         x="0"
         height="77"
         width="80"
         id="rect3850-81"
         style="fill:#000000;fill-rule:evenodd;stroke:none" />
      <text
         sodipodi:linespacing="125%"
         id="text3019-32"
         y="1028.6693"
         x="24.973145"
         style="font-size:50px;font-style:normal;font-variant:normal;font-weight:bold;font-stretch:normal;text-align:start;line-height:125%;letter-spacing:0px;word-spacing:0px;writing-mode:lr-tb;text-anchor:start;fill:#ff3c46;fill-opacity:1;stroke:none;font-family:Courier New;-inkscape-font-specification:Courier New Bold"
         xml:space="preserve"><tspan
           y="1028.6693"
           x="24.973145"
           id="tspan3021-20"
           sodipodi:role="line">O</tspan></text>
    </g>
    <g
       transform="translate(400,-231.5)"
       id="layer1-996"
       inkscape:label="Ebene 1">
      <rect
         y="975.36218"
         x="0"
         height="77"
         width="80"
         id="rect3850-63"
         style="fill:#000000;fill-rule:evenodd;stroke:none" />
      <text
         sodipodi:linespacing="125%"
         id="text3019-51"
         y="1028.6693"
         x="24.973145"
         style="font-size:50px;font-style:normal;font-variant:normal;font-weight:bold;font-stretch:normal;text-align:start;line-height:125%;letter-spacing:0px;word-spacing:0px;writing-mode:lr-tb;text-anchor:start;fill:#ff3c46;fill-opacity:1;stroke:none;font-family:Courier New;-inkscape-font-specification:Courier New Bold"
         xml:space="preserve"><tspan
           y="1028.6693"
           x="24.973145"
           id="tspan3021-362"
           sodipodi:role="line">O</tspan></text>
    </g>
    <g
       transform="translate(320,-231.5)"
       id="layer1-2"
       inkscape:label="Ebene 1">
      <rect
         y="975.36218"
         x="0"
         height="77"
         width="80"
         id="rect3850-73"
         style="fill:#000000;fill-rule:evenodd;stroke:none" />
      <text
         sodipodi:linespacing="125%"
         id="text3019-93"
         y="1028.6693"
         x="24.973145"
         style="font-size:50px;font-style:normal;font-variant:normal;font-weight:bold;font-stretch:normal;text-align:start;line-height:125%;letter-spacing:0px;word-spacing:0px;writing-mode:lr-tb;text-anchor:start;fill:#ff3c46;fill-opacity:1;stroke:none;font-family:Courier New;-inkscape-font-specification:Courier New Bold"
         xml:space="preserve"><tspan
           y="1028.6693"
           x="24.973145"
           id="tspan3021-9"
           sodipodi:role="line">O</tspan></text>
    </g>
    <g
       transform="translate(560,-308.5)"
       id="layer1-54"
       inkscape:label="Ebene 1">
      <rect
         y="975.36218"
         x="0"
         height="77"
         width="80"
         id="rect3850-39"
         style="fill:#000000;fill-rule:evenodd;stroke:none" />
      <text
         sodipodi:linespacing="125%"
         id="text3019-85"
         y="1028.6693"
         x="24.973145"
         style="font-size:50px;font-style:normal;font-variant:normal;font-weight:bold;font-stretch:normal;text-align:start;line-height:125%;letter-spacing:0px;word-spacing:0px;writing-mode:lr-tb;text-anchor:start;fill:#ff3c46;fill-opacity:1;stroke:none;font-family:Courier New;-inkscape-font-specification:Courier New Bold"
         xml:space="preserve"><tspan
           y="1028.6693"
           x="24.973145"
           id="tspan3021-90"
           sodipodi:role="line">O</tspan></text>
    </g>
    <g
       transform="translate(320,-462.5)"
       id="layer1-31"
       inkscape:label="Ebene 1">
      <rect
         y="975.36218"
         x="0"
         height="77"
         width="80"
         id="rect3061"
         style="fill:#000000;fill-rule:evenodd;stroke:none" />
      <text
         sodipodi:linespacing="125%"
         id="text3007"
         y="1029.6947"
         x="24.985352"
         style="font-size:50px;font-style:normal;font-variant:normal;font-weight:bold;font-stretch:normal;text-align:start;line-height:125%;letter-spacing:0px;word-spacing:0px;writing-mode:lr-tb;text-anchor:start;fill:#ff3c46;fill-opacity:1;stroke:none;font-family:Courier New;-inkscape-font-specification:Courier New Bold"
         xml:space="preserve"><tspan
           style="font-size:50px;fill:#ff3c46;fill-opacity:1"
           y="1029.6947"
           x="24.985352"
           id="tspan3009"
           sodipodi:role="line">0</tspan></text>
    </g>
  </g>
</svg>
