<?xml version="1.0" encoding="UTF-8" standalone="no"?>
<!-- Created with Inkscape (http://www.inkscape.org/) -->

<svg
   xmlns:dc="http://purl.org/dc/elements/1.1/"
   xmlns:cc="http://creativecommons.org/ns#"
   xmlns:rdf="http://www.w3.org/1999/02/22-rdf-syntax-ns#"
   xmlns:svg="http://www.w3.org/2000/svg"
   xmlns="http://www.w3.org/2000/svg"
   xmlns:xlink="http://www.w3.org/1999/xlink"
   xmlns:sodipodi="http://sodipodi.sourceforge.net/DTD/sodipodi-0.dtd"
   xmlns:inkscape="http://www.inkscape.org/namespaces/inkscape"
   width="1600"
   height="900"
   id="svg10877"
   version="1.1"
   inkscape:version="0.48.5 r10040"
   sodipodi:docname="ul.svg">
  <defs
     id="defs10879" />
  <sodipodi:namedview
     id="base"
     pagecolor="#00ebf4"
     bordercolor="#666666"
     borderopacity="1.0"
     inkscape:pageopacity="0"
     inkscape:pageshadow="2"
     inkscape:zoom="0.35"
     inkscape:cx="381.01742"
     inkscape:cy="577.14286"
     inkscape:document-units="px"
     inkscape:current-layer="layer1"
     showgrid="false"
     units="cm"
     inkscape:showpageshadow="false"
     inkscape:window-width="1063"
     inkscape:window-height="714"
     inkscape:window-x="32"
     inkscape:window-y="42"
     inkscape:window-maximized="0" />
  <metadata
     id="metadata10882">
    <rdf:RDF>
      <cc:Work
         rdf:about="">
        <dc:format>image/svg+xml</dc:format>
        <dc:type
           rdf:resource="http://purl.org/dc/dcmitype/StillImage" />
        <dc:title />
      </cc:Work>
    </rdf:RDF>
  </metadata>
  <g
     inkscape:label="Ebene 1"
     inkscape:groupmode="layer"
     id="layer1"
     transform="translate(0,-152.36467)">
    <rect
       style="fill:#000000;fill-rule:evenodd;stroke:#000000;stroke-width:0.99999987999999995px;stroke-linecap:butt;stroke-linejoin:miter;stroke-opacity:1"
       id="rect11736"
       width="1599.1575"
       height="899"
       x="-1599.5787"
       y="-1051.8646"
       transform="scale(-1,-1)" />
    <image
       y="581.52014"
       x="779.15552"
       id="image11951"
       xlink:href="data:image/png;base64,iVBORw0KGgoAAAANSUhEUgAABCcAAAQnCAYAAADINQakAAAABHNCSVQICAgIfAhkiAAAIABJREFU eJzs3Wd4F+T9tvErm4QtBghbASEsJQESMYJSiChDhqCEIaDiaBFHRdQqICogoICAiCzZS0BkgyxZ CXsElL1kBBkJhOzkefFveWodrCTf3zg/x5ED2xf1PLS15Mp93z+PrKysLAEAAAAAANjI8rQuAAAA AAAA7o1xAgAAAAAAmGKcAAAAAAAAphgnAAAAAACAKcYJAAAAAABginECAAAAAACYYpwAAAAAAACm GCcAAAAAAIApxgkAAAAAAGCKcQIAAAAAAJhinAAAAAAAAKYYJwAAAAAAgCnGCQAAAAAAYIpxAgAA AAAAmGKcAAAAAAAAphgnAAAAAACAKcYJAAAAAABginECAAAAAACYYpwAAAAAAACmGCcAAAAAAIAp xgkAAAAAAGCKcQIAAAAAAJhinAAAAAAAAKYYJwAAAAAAgCnGCQAAAAAAYIpxAgAAAAAAmGKcAAAA AAAAphgnAAAAAACAKcYJAAAAAABginECAAAAAACYYpwAAAAAAACmGCcAAAAAAIApxgkAAAAAAGCK cQIAAAAAAJhinAAAAAAAAKYYJwAAAAAAgCnGCQAAAAAAYIpxAgAAAAAAmGKcAAAAAAAAphgnAAAA AACAKcYJAAAAAABginECAAAAAACYYpwAAAAAAACmGCcAAAAAAIApxgkAAAAAAGCKcQIAAAAAAJhi nAAAAAAAAKYYJwAAAAAAgCnGCQAAAAAAYIpxAgAAAAAAmGKcAAAAAAAAphgnAAAAAACAKcYJAAAA AABginECAAAAAACYYpwAAAAAAACmGCcAAAAAAIApxgkAAAAAAGCKcQIAAAAAAJhinAAAAAAAAKYY JwAAAAAAgCnGCQAAAAAAYIpxAgAAAAAAmGKcAAAAAAAAphgnAAAAAACAKcYJAAAAAABginECAAAA AACYYpwAAAAAAACmGCcAAAAAAIApxgkAAAAAAGCKcQIAAAAAAJhinAAAAAAAAKYYJwAAAAAAgCnG CQAAAAAAYIpxAgAAAAAAmGKcAAAAAAAAphgnAAAAAACAKcYJAAAAAABginECAAAAAACYYpwAAAAA AACmGCcAAAAAAIApxgkAAAAAAGCKcQIAAAAAAJhinAAAAAAAAKYYJwAAAAAAgCnGCQAAAAAAYIpx AgAAAAAAmGKcAAAAAAAAphgnAAAAAACAKcYJAAAAAABginECAAAAAACYYpwAAAAAAACmvK0DAABA zklNTVV8fPz1r6SkJCUnJys+Pl4pKSm6evWqEhMTlZKSosuXLys5OVlJSUlKSEhQRkbGb/6zMjIy lJCQcNN/7gIFCsjLy+s3/56Xl5cKFCiggIAA+fn5qVChQvLz81PevHmVP39++fr6qmDBgvL391ee PHlUsGDB61++vr7Z8tcEAAA4HsYJAACcQFJSks6fP6/Tp0/r/PnziouL05kzZ66PDpcvX9bly5d/ M0T8Z4xwFf7+/r8ZKwoWLKhChQqpUKFC1/91iRIlFBgYqKJFi17/4zx58linAwCAG/DIysrKso4A AMBdJScn68SJEzp58qROnTql48ePXx8e4uLirg8SV65csU51WgUKFFBQUJCKFi2qokWLKigoSIGB gSpbtqxKly59/YsRAwAAM1mMEwAA5KC4uDgdOnTodwPEf/44Li7OOhH/VqxYMZUqVUqlS5dWmTJl ro8WZcqUUYUKFRQYGGidCACAq2KcAADgTiQlJWnfvn06cuTI775OnjyptLQ060RkE19fX5UqVUr3 3nvv776qVq3KyQsAAG4f4wQAADcjOTlZ+/fv1/79+xUbG6v9+/fr4MGDOnz4sEu964DbExAQoPLl y6tixYoKDg5WtWrVVLlyZQUHB8vPz886DwAAR8c4AQDAf0tKStL+/fu1b9++61+xsbE6evTo7z69 ArgRLy8v3XvvvapWrZqCg4NVtWpVBQcHKzg4mJMWAAD8f4wTAAD3de7cOe3YseM3X0eOHFFmZqZ1 Glycl5eXypcvr5o1a/7mi3ctAABuinECAOAejh49+rsh4vTp09ZZwG+ULFnyd4NFuXLlrLMAAMhp jBMAANfz66+/avPmzYqOjtbmzZu1detWXb582ToLuC2FCxdWrVq1FB4errCwMIWHh6tIkSLWWQAA ZCfGCQCAc7t27Zo2btyo9evXa9u2bdq2bZvOnDljnQXkqKCgIIWGhio0NFQRERF66KGH5O/vb50F AMDtYpwAADiXixcvav369Vq3bp02b96s7du382kZcHsBAQEKDQ1VeHi4IiIiFBERobvuuss6CwCA m8U4AQBwbOfPn9e6deu0bt06rVmzRnv37uXBSuAGPDw8VLVqVdWrV08RERGqV6+eSpYsaZ0FAMCf YZwAADiW2NhYbdiwQStXrtT69eu5ogFkk2LFiql27dqKiIhQw4YNVbNmTXl6elpnAQAgMU4AAKzF x8dr9erVWrlypVauXKmff/7ZOglwC0FBQYqMjFSjRo3UqFEjFS1a1DoJAOC+GCcAALkrNTVVmzdv vj5GbNmyRenp6dZZgFvz8PDQAw88cH2siIiIkJ+fn3UWAMB9ME4AAHLenj17ro8R69at09WrV62T APyFgIAA1a9fX5GRkYqMjFSVKlWskwAAro1xAgCQ/ZKSkrRq1SotXLhQixYt0smTJ62TANyBcuXK qUmTJmratKkeeeQR5cmTxzoJAOBaGCcAANlj3759+v777/X9999r8+bNysjIsE4CkAO8vb0VFham Zs2aqXnz5goODrZOAgA4P8YJAMDtycjIUExMzPXTEbt27bJOApDL/vNWxX9OVdSuXZtPAAEA3A7G CQDAzUtMTNTixYuvn5C4fPmydRIAB1K4cGE1bdpUbdq0UWRkJI9qAgBuFuMEAOCvXblyRfPmzdPs 2bO1atUqXbt2zToJgBMICAhQgwYN1KZNG7Vq1Ur58uWzTgIAOC7GCQDA7127dk1Lly7Vt99+q4UL FyohIcE6CYATK1SokJo1a6bWrVvrscce40FNAMD/YpwAAPyflJQULVmyRNOmTdOiRYs4IQEgR+TL l09NmzZVVFSUHnvsMfn6+lonAQDsMU4AgDtLS0vT0qVLNXnyZC1cuFBJSUnWSQDciL+/v5o2baqO HTuqcePG8vHxsU4CANhgnAAAd7Rr1y5NnTpV06dP16lTp6xzAEBly5ZVu3bt1L59e1WrVs06BwCQ uxgnAMBdHDt2TNOmTdO0adMUGxtrnQMAf6pGjRqKiopSVFSUSpcubZ0DAMh5jBMA4MouXLigKVOm aPLkydq2bZt1DgDcstDQUHXr1k3t2rVT/vz5rXMAADmDcQIAXNGGDRs0YcIEzZ49m0/aAOASChYs qGeeeUadO3dWeHi4dQ4AIHsxTgCAqzh06JDGjh2rKVOm6JdffrHOAYAcU7p0aUVFRalbt2669957 rXMAAHeOcQIAnFlqaqq+++47TZgwQcuXL1dGRoZ1EgDkGm9vbzVu3Fhdu3ZVs2bN5O3tbZ0EALg9 jBMA4IxiY2M1fPhwzZw5U/Hx8dY5AGCuUKFC6tSpk1599VWVL1/eOgcAcGsYJwDAWWRmZmrZsmX6 8ssvtXjxYk5JAMAf8Pb2VtOmTfXyyy+rYcOG8vT0tE4CANwY4wQAOLrjx4/ryy+/1DfffKOzZ89a 5wCA0wgKClKnTp3097//nY8kBQDHxjgBAI5q/fr1+vLLL/Xtt98qJSXFOgcAnFaePHnUpk0bvfzy y3rwwQetcwAAv8c4AQCOJDExUWPHjtXIkSN18OBB6xwAcDmVKlXSyy+/rBdeeEEBAQHWOQCA/8M4 AQCOIC4uTqNHj9aXX37J1Q0AyAUlSpTQK6+8ohdffFF33323dQ4AuDvGCQCwtHLlSg0bNkyLFy9W ZmamdQ4AuB0fHx+1aNFCr732murWrWudAwDuinECAHJbWlqapk+fruHDh2vbtm3WOQCAfwsNDdWr r76qdu3aycfHxzoHANwJ4wQA5Jbk5GR98803GjRokA4fPmydAwD4E/fdd5/eeustdezYUX5+ftY5 AOAOGCcAIKfFx8dr9OjRGjp0KO9JAIATKVGihN544w1169ZN+fPnt84BAFfGOAEAOeXEiRMaMmSI xo0bp8TEROscAMBtypcvn7p27aq33npLpUqVss4BAFfEOAEA2S02NlYDBw7UjBkzlJaWZp0DAMgm vr6+evrpp/XOO+8oODjYOgcAXAnjBABklz179uiTTz7R7NmzlZGRYZ0DAMgh3t7eeuaZZ/TOO++o SpUq1jkA4AoYJwDgTu3atUsffvih5s2bJ/6RCgDuw9PTU23atNH777+vqlWrWucAgDNjnACA27Vm zRr961//0oYNG6xTAADGGjZsqI8//lh16tSxTgEAZ5TlaV0AAM5m9erVioiI0KOPPsowAQCQJK1c uVJhYWFq1KiRoqOjrXMAwOkwTgDATVq1apUiIiLUoEEDRgkAwB9auXKlwsPD1ahRI23evNk6BwCc Btc6AOAGdu7cqffff18LFy60TgEAOBEPDw+1aNFC/fr1400KAPhrvDkBAH9m586deuutt7Ry5Urr FACAE/Pw8FCTJk308ccfq0aNGtY5AOCIGCcA4H8dPHhQ7733nr799ltlZmZa5wAAXISnp6dat26t /v37q3z58tY5AOBIGCcA4D9++eUXffjhh5owYYLS0tKscwAALsrHx0ddunRRnz59FBQUZJ0DAI6A cQIAzp07pw8++EATJ05UamqqdQ4AwE0EBASoe/fuevvtt1W4cGHrHACwxDgBwH2lpaVp1KhR6tev ny5cuGCdAwBwU4GBgerdu7defPFFeXt7W+cAgAXGCQDuJzMzU2PHjlW/fv106tQp6xwAACRJZcqU Ub9+/dSxY0d5eHhY5wBAbmKcAOBe1q1bpzfffFNbt261TgEA4A/VqVNHn332mR566CHrFADILVme 1gUAkBsOHz6sZs2aqX79+gwTAACHFhMTo4cfflht27bV0aNHrXMAIFcwTgBwaZcvX1aPHj0UHBys hQsXWucAAHBTsrKyNHv2bFWuXFk9evRQfHy8dRIA5CiudQBwSVlZWZo4caLee+89nTlzxjoHAIA7 UqpUKQ0YMEBRUVG8RwHAFfHmBADX8+OPP+rVV1/Vzp07rVMAAMhWISEh+uKLL1S3bl3rFADITrw5 AcB1nDx5Us2aNVO9evUYJgAALmn79u2KiIhQp06ddO7cOescAMg2jBMAnF5KSor69OnDuxIAALeQ lZWlyZMnq3Llyho4cKBSU1OtkwDgjnGtA4BTW7JkiXr06KGDBw9apwAAYKJSpUoaPny4IiMjrVMA 4HZxrQOAczp9+rTat2+vJk2aMEwAANzazz//rMaNG6tLly5c9QDgtDg5AcCppKam6pNPPtGnn36q pKQk6xwAABxKQECAPvjgA/3zn/+Ul5eXdQ4A3Cw+rQOA89i0aZNeeukl7d692zoFAACH9sADD+ir r75SnTp1rFMA4GZwrQOA47tw4YI6deqkhx56iGECAICbsHPnTj344IN68cUXlZCQYJ0DADfEOAHA oU2aNEnVqlXT5MmTxUEvAABuXmZmpsaMGaPKlStr0qRJ1jkA8Je41gHAIZ06dUrdu3fX/PnzrVMA AHAJbdu21dChQxUUFGSdAgD/i2sdABxLZmamhg8fripVqjBMAACQjWbNmqXg4GCNHj2a04gAHA4n JwA4jO3bt6tr167atWuXdQoAAC4tPDxc48aNU5UqVaxTAEDi5AQAR5CamqpevXopPDycYQIAgFyw efNmPfDAA+rVq5dSU1OtcwCAkxMAbG3ZskVdu3bV3r17rVMAAHBLNWrU0Pjx4xUaGmqdAsB9cXIC gI3k5GT16tVLdevWZZgAAMDQ7t27FR4erl69eiklJcU6B4Cb4uQEgFzH2xIAADimkJAQTZgwQTVq 1LBOAeBeODkBIPekpaXpgw8+UFhYGMMEAAAOaPv27apVq5b69eun9PR06xwAboSTEwByxc6dO9Wh QwfFxsZapwAAgJtQvXp1TZkyhVMUAHIDJycA5KzMzEwNHDhQ4eHhDBMAADiRPXv2KCwsTAMHDlRm ZqZ1DgAXx8kJADnmyJEj6tixozZu3GidAgAA7kDDhg01YcIElSpVyjoFgGvi5ASAnDFmzBjVrFmT YQIAABewcuVKVa9eXVOnTrVOAeCiODkBIFslJCSoR48emjhxonUKAADIAd26ddNnn32mvHnzWqcA cB1ZjBMAss2mTZvUvn17HT161DoFAADkoIoVK2ratGmqVauWdQoA18C1DgB3Li0tTT169NBDDz3E MAEAgBs4ePCgwsPD1adPH2VkZFjnAHABnJwAcEcOHz6sqKgoxcTEWKcAAAAD9evX15QpU3gsE8Cd 4OQEgNs3bdo0hYSEMEwAAODG1q5dq2rVqmnmzJnWKQCcGOMEgFt29epVderUSe3bt1dCQoJ1DgAA MBYfH69nnnlGnTp10rVr16xzADghrnUAuCX79u1Tu3bttHv3busUAADggEJDQzV9+nRVrFjROgWA 8+BaB4CbN27cONWuXZthAgAA/Klt27YpJCREkydPtk4B4EQ4OQHghuLj49W5c2fNnz/fOgUAADiR Dh06aPTo0cqbN691CgDHlsU4AeAv7d69W23atNGBAwesUwAAgBOqXLmyZs+erWrVqlmnAHBcXOsA 8OfGjh2rsLAwhgkAAHDbfvrpJz344IOaPn26dQoAB8Y4AeB3rl27pk6dOumFF15QcnKydQ4AAHBy V69eVVRUlF588UWlpKRY5wBwQFzrAPAbJ06cUNu2bRUdHW2dAgAAXFBERIRmzJihkiVLWqcAcBxc 6wDw/y1ZskQhISEMEwAAIMesX79eISEh+uGHH6xTADgQxgkAyszMVK9evdSkSRNduHDBOgcAALi4 uLg4NWrUSL169VJmZqZ1DgAHwLUOwM3Fx8crKipKixcvtk4BAABuqFmzZpoyZYoKFChgnQLADh8l Crizn376SU8++SSfxgEAAExVr15d3333ne655x7rFAA2eHMCcFfff/89HxMKAAAcwp49e1S7dm2t XLnSOgWAEcYJwA2NHDlSrVu3VkJCgnUKAACAJOnChQtq0qSJvv76a+sUAAa41gG4kWvXrum5557T jBkzrFMAAAD+VPv27fX111/L39/fOgVA7uDNCcBdnDt3Tq1bt9aGDRusUwAAAG6ofv36mjNnju6+ +27rFAA5j3ECcAdbt25V8+bNdebMGesUAACAm1ayZEktWLBAISEh1ikAchYPYgKubt68eXrkkUcY JgAAgNP55ZdfVL9+fX333XfWKQByGOME4ML69Omj1q1bKzEx0ToFAADgtly9elWtW7fWwIEDrVMA 5CCudQAuKDk5WV26dOHhSwAA4FKef/55jRo1Sj4+PtYpALIXb04Aruby5ctq27atVqxYYZ0CAACQ 7Zo0aaLp06crf/781ikAsg/jBOBK9u/fr6ZNm+rIkSPWKQAAADmmQoUKWrhwoSpVqmSdAiB78CAm 4Co2btyoevXqMUwAAACXd+jQIdWvX19bt261TgGQTRgnABcwbdo0Pfroo/r111+tUwAAAHLFuXPn FBERoVmzZlmnAMgGjBOAk+vTp486dOig1NRU6xQAAIBclZKSoqioKI0cOdI6BcAd4s0JwEllZmbq 9ddf1/Dhw61TAAAAzL366qv6/PPP5enJz18BJ8SDmIAzSktL03PPPafJkydbpwAAADiM5557TqNH j5a3t7d1CoBbwzgBOJtff/1VzZs316ZNm6xTAAAAHE6DBg00d+5cFSxY0DoFwM1jnACcyYkTJ/T4 449r37591ikAAAAOq1q1alq8eLFKly5tnQLg5jBOAM7iwIEDeuyxx3Ts2DHrFAAAAIdXvnx5LVu2 TOXLl7dOAXBjWbwWAziBjRs3Kjw8nGECAADgJh0+fFh16tTR5s2brVMA3ATGCcDBLV26VJGRkbp0 6ZJ1CgAAgFO5ePGiGjVqpBUrVlinALgBxgnAgc2aNUtPPvmkEhMTrVMAAACc0tWrV9WsWTPNmTPH OgXAX2CcABzUpEmT1L59e6WmplqnAAAAOLWUlBRFRUVpxowZ1ikA/gTjBOCAevXqpWeffVbp6enW KQAAAC4hLS1NUVFRGjRokHUKgD/Ap3UADiQzM1OvvfaavvjiC+sUAAAAl/X222+rf//+8vDwsE4B 8H/4KFHAUWRlZekf//iHRo0aZZ0CAADg8l5//XUNGTKEgQJwDIwTgCNIT09Xx44duQcJAACQi7p2 7aqvv/5anp7cdgeMMU4A1tLT09W+fXvNmjXLOgUAAMDtPPPMM5o8ebK8vb2tUwB3xjgBWPrPw0x8 tBUAAICdtm3baurUqQwUgJ0szi8BRtLT09WpUyeGCQAAAGOzZs1S165dlZGRYZ0CuC1OTgAGkpOT 1apVKy1ZssQ6BQAAAP/WtGlTzZkzR35+ftYpgLvh5ASQ25KSktSyZUuGCQAAAAezcOFCtWrVSsnJ ydYpgNthnAByUUpKitq2baulS5dapwAAAOAPLF68WFFRUUpNTbVOAdwK1zqAXJKcnKzmzZtrxYoV 1ikAAAC4gcjISH333XfKkyePdQrgDrjWAeSG5ORktWjRgmECAADASSxfvlytWrVSSkqKdQrgFhgn gByWkpKiVq1aadmyZdYpAAAAuAVLlixRVFSU0tPTrVMAl8c4AeSg9PR0RUVF8fglAACAk5o7d67a tWvHQAHkMMYJIIdkZmbq+eef19y5c61TAAAAcAfmzJmjV155RTzXB+QcHsQEckBGRoaioqI0a9Ys 6xQAAABkk86dO2vcuHHy9ORnvEA240FMILv958QEwwQAAIBrmThxorp168YJCiAHME4A2ezNN9/U xIkTrTMAAACQA8aNG6d33nnHOgNwOYwTQDZ67733NHToUOsMAAAA5KCBAweqb9++1hmAS+HNCSCb DBo0SD179rTOAAAAQC757LPP9Prrr1tnAK4gi3ECyAZjx47l/iEAAICb8fDw0Lhx49SlSxfrFMDZ MU4Ad2rRokVq2bKl0tLSrFMAAACQy3x9ffX9998rMjLSOgVwZowTwJ1YtmyZmjdvrtTUVOsUAAAA GPH399eSJUtUv3596xTAWTFOALdr48aNatSoka5du2adAgAAAGMFChTQqlWrFBoaap0COCPGCeB2 7Nu3T/Xq1dOFCxesUwAAAOAgAgMDtW7dOlWuXNk6BXA2jBPArTpz5ozq1q2rY8eOWacAAADAwVSo UEEbNmxQ0aJFrVMAZ5LlaV0AOJNLly6pYcOGDBMAAAD4Q4cOHdLf/vY3Xb582ToFcCqME8BNSk5O VosWLbRv3z7rFAAAADiwvXv3qmXLlkpJSbFOAZwG4wRwEzIyMvT0009r3bp11ikAAABwAmvWrFHn zp2VmZlpnQI4BcYJ4Ca8++67WrBggXUGAAAAnMiMGTPUt29f6wzAKfAgJnADgwYNUs+ePa0zAAAA 4KSGDh2qHj16WGcAjoxP6wD+yqRJk9S5c2fxPxMAAADcLk9PT82cOVNPPfWUdQrgqBgngD+zYsUK NWnSRGlpadYpAAAAcHJ58uTR8uXL9fDDD1unAI6IcQL4IwcPHlR4eLguXrxonQIAAAAXERgYqOjo aN1zzz3WKYCjyeJBTOB/xMXFKTIykmECAAAA2er8+fNq2LChfv31V+sUwOEwTgD/JSUlRa1atdKx Y8esUwAAAOCCjhw5otatWys1NdU6BXAojBPAf/nHP/6hDRs2WGcAAADAha1bt05vvvmmdQbgUBgn gH/7+OOPNXbsWOsMAAAAuIERI0ZoyJAh1hmAw+BBTEDS9OnT1b59ez4yFAAAALnG09NTc+fO1ZNP PmmdAljj0zqA6OhoPfroo0pKSrJOAQAAgJvJly+f1q9fr/vvv986BbDEOAH3dvLkSdWpU0dnz561 TgEAAICbKlGihGJiYlSyZEnrFMAKHyUK95WSkqI2bdowTAAAAMDU6dOn1a5dO6WlpVmnAGYYJ+C2 unbtqujoaOsMAAAAQD/++KOef/556wzADOME3NLgwYM1bdo06wwAAADgukmTJmnEiBHWGYAJ3pyA 21mzZo0iIyM5NgcAAACH4+vrq9WrV6tu3brWKUBu4kFMuJdDhw6pTp06unTpknUKAAAA8IeKFCmi LVu26J577rFOAXILD2LCfSQkJKhZs2YMEwAAAHBoFy5cUKtWrXTt2jXrFCDXME7ALWRlZenZZ5/V Tz/9ZJ0CAAAA3NDOnTv1wgsvWGcAuYZxAm7ho48+0vz5860zAAAAgJs2bdo0DR482DoDyBW8OQGX t2LFCj3++OPKyMiwTgEAAABuiY+Pj1auXKl69epZpwA5iQcx4dqOHj2q0NBQ3pkAAACA0ypatKi2 b9+ukiVLWqcAOYUHMeG6UlJS9PTTTzNMAAAAwKnFxcXpqaeeUmpqqnUKkGMYJ+Cy3n33XW3ZssU6 AwAAALhjmzdvVt++fa0zgBzDtQ64pMmTJ6tTp07WGQAAAEC28fDw0Jw5c9SqVSvrFCC78eYEXM++ ffsUFhamq1evWqcAAAAA2apQoULaunWrypcvb50CZCfenIBrSUxMVNu2bRkmAAAA4JIuX76sVq1a KSkpyToFyFacnIBLiYqK0vTp060zAMAh5M+fXyVKlFDRokVVsGBBFSpU6He/FipUSH5+fgoICFD+ /Pnl6+urggULyt/fX3ny5LmlP19aWpquXr2qxMREpaam6tKlS0pJSdG1a9d05coVxcfH6/Lly7/7 NS4uTufOndOFCxdy6K8EALieF154QWPGjLHOALIL1zrgOr755ht17tzZOgMAcpyPj49KliypUqVK qWzZsipVqpRKlSql0qVLKzAwUEFBQSpevLj8/f2tU29Jamqq4uLidOZTg0fYAAAgAElEQVTMGZ07 d05nzpzRqVOndPz4cZ08eVKnTp3SiRMnlJycbJ0KAA5h+vTpeuaZZ6wzgOzAOAHXsGvXLoWHh/Mb VgAuw8/PT+XLl9d9992nihUr/uYrKChInp7uezMzLi5OR44c0c8//6yDBw/+5otrfQDcSd68ebV1 61ZVrlzZOgW4U4wTcH7Xrl1T7dq1tW/fPusUALhlfn5+qly5sqpUqaJq1apd//Wee+6Rl5eXdZ7T OXnypPbt26e9e/f+5ldGCwCuqnr16oqJibnlq3iAg2GcgPN76aWX9NVXX1lnAMANBQQE6IEHHlBo aKhq1aqlWrVq6b777pO3t7d1mkvLysrSsWPHtG3bNm3duvX6r5cvX7ZOA4Bs0aNHDw0dOtQ6A7gT jBNwbgsWLFCLFi3Ef40BOBpvb29Vq1ZN4eHhqlOnjmrVqqXg4GCGCAdy+PBhbd26VTExMYqOjtb2 7dt5/R6AU/L09NSSJUsUGRlpnQLcLsYJOK9jx46pZs2a/OQLgEMoXry4Hn74YYWFhSksLEwhISEK CAiwzsItSE9P1+7duxUdHa3o6GitX79ehw8fts4CgJty9913a9euXSpRooR1CnA7GCfgnNLS0hQR EaGYmBjrFABuKigoSPXr17/+FRwcbJ2EHHDq1CmtWbNGa9as0dq1a3Xo0CHrJAD4U/Xr19cPP/zA m0VwRowTcE7vv/++PvroI+sMAG4kICBAjzzyiBo3bqxGjRrxMrqb+uWXX7Ry5UotWbJEK1as0MWL F62TAOA3PvroI7333nvWGcCtYpyA8/nhhx8UGRmpzMxM6xQALq5SpUp6/PHH1bhxY9WvX5+X0PEb GRkZiomJ0ZIlS7RkyRJt376d/28CYM7b21tr1qzRQw89ZJ0C3ArGCTiX+Ph43X///Tp+/Lh1CgAX lD9/fjVu3FhNmzZV48aNVbRoUeskOJHExEStWrVKCxcu1IIFC3T27FnrJABuqkKFCtqxY4fy5ctn nQLcLMYJOJfWrVtr7ty51hkAXEiRIkXUtGlTNW3aVJGRkSpQoIB1ElxASkqK1q5de32oYFQHkNs6 d+6sCRMmWGcAN4txAs5j2rRpat++vXUGABdQokQJPfXUU2rTpo3q1q0rT09P6yS4uNjYWM2ePVsz Z87UTz/9ZJ0DwE3MmjVLbdq0sc4AbgbjBJzDmTNnVL16dV24cME6BYCTKly4sFq1aqU2bdqoQYMG 8vHxsU6CG8rKylJ0dLRmzZql2bNn69SpU9ZJAFxYsWLFtGfPHgUGBlqnADfCOAHHl5mZqcjISP3w ww/WKQCcTL58+dSyZUt16tRJjz76KB+tBoezbds2TZo0STNmzFBcXJx1DgAXFBkZqaVLl8rDw8M6 BfgrjBNwfEOHDtXrr79unQHASXh4eKhu3brq0KGD2rZtq7vuuss6CbihpKQkLViwQFOnTtXSpUuV lpZmnQTAhYwaNUovv/yydQbwVxgn4Nj27Nmj2rVrKyUlxToFgIMLCgrSs88+qy5duui+++6zzgFu 27lz5zRp0iSNHz+e9ykAZIuAgABt375dlSpVsk4B/gzjBBxXamqqwsPDtWPHDusUAA4qICBAHTp0 UMeOHXnYEi4pNjZWkydP1tixY3l3CcAdCQ0N1aZNm3hzCY6KcQKOq2/fvurTp491BgAHVLp0aXXr 1k3PP/+8ihcvbp0D5LgrV65oypQp+vLLL7Vnzx7rHABO6pNPPtE777xjnQH8EcYJOKYtW7bowQcf VEZGhnUKAAfh7e2tli1bqlu3bmrQoAGnJOC2tm3bpjFjxmjq1KlKTEy0zgHgRLy9vbV582aFhoZa pwD/i3ECjiclJUU1a9bU/v37rVMAOID8+fOrS5cueuWVV7grC/yXc+fOaezYsRo1apROnz5tnQPA Sdx///3asmUL1zvgaLL4sRMcTv/+/RkmAKhcuXIaMmSITp48qWHDhjFMAP+jWLFieu+993T06FFN mjRJNWvWtE4C4AR27dqlQYMGWWcAv8PJCTiUffv2KSQkhE/nANyUh4eHmjRpoh49euhvf/sbn8kO 3KLt27dr6NChmjFjBh9HCuBP+fv7a+fOnXy6FRwJ1zrgONLS0lSnTh3t3LnTOgWAgSeeeELvvfee 6tata50COL2ff/5ZAwYM0NSpUxkpAPyhsLAwbdiwQV5eXtYpgMS1DjiSwYMHM0wAbsbT01MtW7bU tm3btGjRIoYJIJtUqlRJEyZM0IEDB/TSSy/Jz8/POgmAg4mOjtawYcOsM4DrODkBhxAbG6vQ0FCu cwBuwsvLS08//bTeffddVa1a1ToHcHm//PKLBg8erDFjxujatWvWOQAcREBAgHbu3KmKFStapwBc 64C9jIwMPfTQQ4qOjrZOAZDD/Pz89OKLL+qNN95Q2bJlrXMAt3Px4kUNHz5cQ4cOVXx8vHUOAAdQ v359rV69mneeYI1rHbA3evRohgnAxXl6eqpdu3basWOHhg0bxjABGLnrrrvUp08f7d+/Xz169JC/ v791EgBja9eu1fjx460zAK51wNbRo0dVrVo1jpgCLsrDw0Nt2rRRnz59FBwcbJ0D4H+cPn1aAwYM 0FdffaXU1FTrHABGChQooH379qlkyZLWKXBfnJyArb///e8ME4CLatOmjWJjYzVz5kyGCcBBlShR QsOHD9eRI0fUrVs3Xu0H3FRCQoJee+016wy4OU5OwMz8+fPVsmVL6wwA2axq1aoaMGCAmjZtap0C 4BZt3bpVPXv21OrVq61TABhYunSpHnvsMesMuCcexISNy5cvKzg4WGfPnrVOAZBNSpQooQ8//FCd O3fmp6+Ak1u8eLF69uyp2NhY6xQAuahMmTKKjY1Vvnz5rFPgfrjWARvvvvsuwwTgIgoUKKChQ4fq 6NGjeu655xgmABfwxBNPaM+ePZo1axYP2AJu5MSJE+rdu7d1BtwUJyeQ6zZs2KB69eopMzPTOgXA HfDw8FD79u31ySefqHTp0tY5AHJIfHy8Pv74Yw0fPlwpKSnWOQBymJeXl2JiYhQSEmKdAvfCtQ7k rrS0NIWEhGjv3r3WKQDuQN26dTV06FDVrl3bOgVALjly5Ih69uypb7/91joFQA6rVauWNm/ezGlI 5CaudSB3DR48mGECcGJlypTRggULtGHDBoYJwM3ce++9mjNnjtatW6caNWpY5wDIQVu3btWIESOs M+BmODmBXHP8+HFVrVpViYmJ1ikAbpGfn5969eqlnj17KiAgwDoHgLH09HSNHDlSvXv3Vnx8vHUO gBxQsGBB7d+/X0FBQdYpcA+cnEDu6d69O8ME4ITq1q2rTZs2qU+fPgwTACRJ3t7e6tGjh/bs2aOn nnrKOgdADoiPj9frr79unQE3wskJ5IrFixerSZMm1hkAbkGRIkX05Zdfqk2bNtYpABzcunXr9MIL L+jAgQPWKQCy2apVq/Too49aZ8D18SAmcl5aWpruv/9+7d+/3zoFwE3q2LGjBg0apGLFilmnAHAS SUlJ6tu3rwYPHqyMjAzrHADZpGbNmtqyZQuPYyKnca0DOW/IkCEME4CTuPvuuzVlyhRNmjSJYQLA LfH399eAAQO0atUqVaxY0ToHQDbZsWOHRo4caZ0BN8DJCeSoEydOKDg4WNeuXbNOAXADTz/9tL74 4gsFBgZapwBwcklJSerdu7c+++wzTlEALqBAgQL6+eefVbx4cesUuC5OTiBn9erVi2ECcHClSpXS kiVLNGPGDIYJANnC399fn376qbZv366QkBDrHAB3KCEhQf/617+sM+DiODmBHLNmzRoezwEcXLdu 3fTpp5+qYMGC1ikAXFRaWpo+++wzffDBB0pNTbXOAXCbPD09tXHjRoWFhVmnwDXxICZyRnp6uh54 4AHFxsZapwD4A0WKFNGIESP0zDPPWKcAcBMbN25Uly5d+EQPwImFhoYqJiZGnp4cwEe241oHcsa4 ceMYJgAH1bx5c+3fv59hAkCuqlu3rnbt2qW3336bb2wAJ7Vt2zZNnTrVOgMuipMTyHYXL15UhQoV dOnSJesUAP8lX758GjlypDp16mSdAsDNrVy5Us8++6xOnz5tnQLgFhUtWlQHDx5UgQIFrFPgWjg5 gez3ySefMEwADiY0NFRbt25lmADgEBo2bKhdu3bpySeftE4BcIvi4uI0ePBg6wy4IE5OIFsdP35c lStXVnJysnUKgH/r3r27Pv30U+XJk8c6BQB+IysrS0OHDlWvXr14LBNwIvny5dOBAwcUFBRknQLX wckJZK+33nqLYQJwEMWKFdOKFSs0fPhwhgkADsnDw0Ovv/66duzYoapVq1rnALhJV69eVa9evawz 4GI4OYFss379ej388MPWGQAkRUREaPr06SpVqpR1CgDclCtXrujll1/msT3ASXh6eio6Olq1atWy ToFr4OQEskdWVpbefPNN6wzA7Xl6eqp3795avXo1wwQAp5I/f35NmTJF33zzjQICAqxzANxAZmam /vnPf1pnwIVwcgLZYsaMGWrXrp11BuDWChQooAkTJqhVq1bWKQBwR7Zs2aI2bdro+PHj1ikAbmD+ /Pk8bovskMU4gTuWnJys4OBgHTt2zDoFcFthYWGaPXu2SpcubZ0CANkiISFBzz33nObMmWOdAuAv lC9fXvv27ZOvr691Cpwb1zpw54YPH84wARh69dVXtXbtWoYJAC6lQIECmjVrloYOHSofHx/rHAB/ 4vDhwxo9erR1BlwAJydwRy5fvqzy5cvr4sWL1imA2/H19dXnn3+uV155xToFAHLUkiVL1KFDB36/ ATiookWL6vDhw8qXL591CpwXJydwZ/r3789vFAADgYGB+uGHHxgmALiFxx9/XDExMapSpYp1CoA/ EBcXp0GDBllnwMlxcgK37dy5cypfvrwSExOtUwC3Urt2bc2fP18lSpSwTgGAXJWYmKiOHTtq3rx5 1ikA/kfBggV1+PBhFSlSxDoFzomTE7h9ffr0YZgAcln79u21bt06hgkAbilv3rz69ttv1bt3b3l4 eFjnAPgv8fHx+uijj6wz4MQ4OYHbcujQIVWpUkVpaWnWKYDb6Nmzp/r37y9PT3ZlABg3bpxeeeUV paamWqcA+Dc/Pz8dOHBAZcqUsU6B8+HkBG5P7969GSaAXOLj46OxY8dq4MCBDBMA8G/PPfecli1b psKFC1unAPi3lJQU9e3b1zoDToqTE7hlO3fuVGhoqDIzM61TAJcXGBio7777Tg8++KB1CgA4pCNH jqhJkyb66aefrFMASPLy8tKePXsUHBxsnQLnwskJ3Lr333+fYQLIBZUqVdKmTZsYJgDgL9x7773a uHGjHnnkEesUAJIyMjL0wQcfWGfACXFyArdkw4YNioiIsM4AXF6dOnW0YMECFStWzDoFAJxCUlKS OnXqpDlz5linAG7Pw8NDmzZtUlhYmHUKnAcnJ3Br+vTpY50AuLwnnnhCq1evZpgAgFvg7++vmTNn 6tVXX7VOAdxeVlYWn9yBW8Y4gZu2evVqrVy50joDcGkvvviiFixYoICAAOsUAHA6np6eGjZsmIYP H84DwoCxhQsXav369dYZcCL8Uxs3jZd3gZw1YMAAjR49Wl5eXtYpAODUunfvrsmTJ8vX19c6BXBr H3/8sXUCnAhvTuCm8NYEkHM8PT01fPhw/f3vf7dOAQCXsmrVKrVs2VIJCQnWKYBb8vDw0JYtWxQa GmqdAsfHmxO4Oe+//751AuCSPD09NWbMGIYJAMgBDRo00MKFC1WwYEHrFMAtZWVl8ckduGmcnMAN rV27lo/nAnKAt7e3Jk6cqPbt21unAIBL27Ztmxo3bqxff/3VOgVwS9HR0apTp451BhwbJydwYx9+ +KF1AuBy8uTJo++++45hAgByQWhoqGJiYlS+fHnrFMAt8f0EbgYnJ/CX1q1bp/r161tnAC7F399f 8+bN02OPPWadAgBu5cyZM2rUqJFiY2OtUwC3w+kJ3AAnJ/DX+vXrZ50AuBR/f3/NnTuXYQIADAQF BWn58uWqXLmydQrgdvi+AjfCyQn8qR9//FH16tWzzgBcRt68ebVgwQI1aNDAOgUA3NrZs2fVoEED 7d+/3zoFcCsxMTGqXbu2dQYcEycn8OcGDx5snQC4jCJFimjt2rUMEwDgAIoXL64NGzaoVq1a1imA W+H7C/wVTk7gD+3YsUMhISHWGYBLCAwM1PLly/XAAw9YpwAA/sulS5cUGRmprVu3WqcAbsHDw0N7 9+5VlSpVrFPgeDg5gT82bNgw6wTAJRQpUkTLli1jmAAAB1S4cGEtWrRIVatWtU4B3EJWVpaGDx9u nQEHxckJ/M7hw4dVqVIlZWRkWKcATu2uu+7SmjVrVL16desUAMBf+PXXX1WvXj3eoABygY+Pjw4f PqzSpUtbp8CxcHICvzd06FCGCeAO5cuXT4sXL2aYAAAncPfdd2vFihUqV66cdQrg8tLS0jg9gT/E yQn8xvnz51WuXDldu3bNOgVwWnny5NGiRYt4/BIAnMyhQ4f08MMP6+zZs9YpgEvLnz+/jh8/rsKF C1unwHFwcgK/9cUXXzBMAHfA29tbM2bMYJgAACdUoUIFLV++XHfddZd1CuDSrly5olGjRllnwMFw cgLXXblyRWXLltWlS5esUwCn5OnpqYkTJ6pjx47WKQCAO7B582Y1atRIV69etU4BXFbRokV17Ngx +fv7W6fAMXByAv/f119/zTAB3IFhw4YxTACACwgPD9e8efPk5+dnnQK4rLi4OE2YMME6Aw6EkxOQ JKWnp6tChQo6fvy4dQrglN5++20NGDDAOgMAkI2mTJmiZ599VpmZmdYpgEuqWLGifvrpJ3l68jNz cHIC/zZr1iyGCeA2vfnmmwwTAOCCOnTooPHjx8vDw8M6BXBJBw8e1Lx586wz4CAYJyBJ+uyzz6wT AKfUrl07ffrpp9YZAIAc8uyzz+rDDz+0zgBc1rBhw6wT4CC41gHFxMQoLCzMOgNwOs2bN9fcuXPl 5eVlnQIAyGFvvPGGPv/8c+sMwCXt3LlT999/v3UGbHGtA9KQIUOsEwCnU7VqVX3zzTcMEwDgJgYN GqQmTZpYZwAuie9HIHFywu2dOHFC5cuXV3p6unUK4DTKlCmjTZs2qUSJEtYpAIBclJSUpL/97W/a tGmTdQrgUnx8fHT06FGVLFnSOgV2ODnh7kaNGsUwAdyCQoUKafHixQwTAOCG/P39tWDBAlWoUME6 BXApaWlp+uqrr6wzYIyTE24sMTFRpUuX1qVLl6xTAKfg5eWlefPmqVmzZtYpAABDe/bsUUREhBIS EqxTAJcRGBio48ePy9/f3zoFNjg54c4mTZrEMAHcgiFDhjBMAABUvXp1zZkzR97e3tYpgMs4f/68 pk2bZp0BQ5yccFOZmZkKDg7WgQMHrFMAp9ChQwdNnjzZOgMA4EAGDBigd955xzoDcBnVqlXT7t27 5eHhYZ2C3MfJCXe1evVqhgngJtWvX1/jx4+3zgAAOJhevXrphRdesM4AXMbevXv1448/WmfACOOE m/riiy+sEwCnUKZMGc2cOVM+Pj7WKQAABzRy5EjVr1/fOgNwGSNGjLBOgBGudbih06dPq2zZsnxK B3ADfn5+WrdunerUqWOdAgBwYL/88otq166tM2fOWKcATs/X11cnT55U0aJFrVOQu7jW4Y6++uor hgngJowfP55hAgBwQyVLltT8+fPl5+dnnQI4vdTUVI0ZM8Y6AwY4OeFm0tLSVLZsWZZ94Aa6devG 520DAG7JiBEj1L17d+sMwOmVLl1aR48elZeXl3UKcg8nJ9zNggULGCaAG6hXrx73HQEAt+wf//iH nn/+eesMwOmdPHlSS5Yssc5ALmOccDOjR4+2TgAcWsmSJTVr1iwewAQA3JYRI0aodu3a1hmA0+P7 FvfDtQ43cuDAAVWuXFn8LQf+mLe3t1asWKFHHnnEOgUA4MSOHj2q0NBQXbp0yToFcFqenp46fPiw ypUrZ52C3MG1DncyZswYhgngL/Tv359hAgBwx+655x5NnTpVnp78Vhu4XZmZmRo7dqx1BnIRJyfc RHJyskqVKqULFy5YpwAOqUWLFpo7d648PDysUwAALuLdd99V//79rTMAp1W8eHEdP35cvr6+1inI eZyccBfz5s1jmAD+RKlSpTRmzBiGCQBAturbt68efPBB6wzAaZ09e1aLFi2yzkAuYZxwE19//bV1 AuCQfH19NXfuXAUGBlqnAABcjI+Pj+bNm6fixYtbpwBOi+9j3AfjhBs4fvy41q5da50BOKS+ffvy qjoAIMcUK1ZMY8eO5XQecJtWrFihM2fOWGcgFzBOuIHx48crMzPTOgNwOE888YTefvtt6wwAgItr 0qSJ3njjDesMwCmlp6drwoQJ1hnIBTyI6eIyMjJUrlw5nTp1yjoFcCjFihXT7t27VbRoUesUAIAb SElJUXh4uHbu3GmdAjidihUr6ueff+YEkmvjQUxXt2rVKoYJ4A+MGDGCYQIAkGv8/Pz0zTffKE+e PNYpgNM5ePCgfvzxR+sM5DDGCRfHESjg91566SU99dRT1hkAADdTo0YNDRkyxDoDcEp8X+P6uNbh wi5duqQSJUooOTnZOgVwGBUqVNCOHTuUL18+6xQAgBvKysrS448/rmXLllmnAE4lb968OnPmjPLn z2+dgpzBtQ5XNn36dIYJ4L/4+Pho5syZDBMAADMeHh6aPHkyVwuBW5SYmKhZs2ZZZyAHMU64MI4+ Ab/19ttvKyQkxDoDAODmAgMDNXr0aOsMwOnw/Y1r41qHi9q/f7+qVKlinQE4jKpVq2rbtm3y8/Oz TgEAQJLUunVrzZ071zoDcBoeHh46dOiQ7r33XusUZD+udbiqKVOmWCcADsPX11fTpk1jmAAAOJRx 48apVKlS1hmA08jKytLkyZOtM5BDGCdcUFZWlmbOnGmdATiMd955RzVq1LDOAADgNwoVKqThw4db ZwBOhXcnXBfXOlzQpk2bVLduXesMwCGEhoZq8+bN8vb2tk4BAOAPderUiZ8GA7dg27ZtvCPmerjW 4YqmT59unQA4BB8fH40fP55hAgDg0D7//HMVK1bMOgNwGny/45oYJ1xMenq6ZsyYYZ0BOITXXnuN 6xwAAIdXpEgRDRo0yDoDcBrTpk1TZmamdQayGeOEi/nhhx90/vx56wzAXNWqVdWvXz/rDAAAbkrH jh3VokUL6wzAKZw+fVo//vijdQayGeOEi+GIEyB5eXlp3LhxfDoHAMCpjBo1SoULF7bOAJwC3/e4 HsYJF5KUlKR58+ZZZwDmunTporCwMOsMAABuSVBQkHr37m2dATiFWbNmKTU11ToD2YhxwoUsWrRI CQkJ1hmAqaCgIA0ZMsQ6AwCA29K9e3eFh4dbZwAO79KlS1q+fLl1BrIR44QL4TN/AWnAgAEqUKCA dQYAALfF09NTI0aMkJeXl3UK4PD4/se1eGRlZWVZR+DOJSYmKjAwUElJSdYpgJm6detq/fr18vDw sE4BAPw/9u40Pqry7OP4NZOFJARIgAQwEJYgSwCJQEAQtIBQECSgsu9FBUFBccOd1rqDW60VLWjd EHGtqJWIgAqCCgHZJSxhJ0BYEsk+87zQ+lBETMjMuc459+/7pv30aeXXpxPn3P+cM4MKue666+TF F1/UzgBsrUqVKpKdnS0RERHaKag4P3dOuMTChQsZJmC0sLAwefHFFxkmAACuMGPGDDnvvPO0MwBb y83Nlc8//1w7AwHCOOES3NIE002aNEmSk5O1MwAACIiqVavyldhAGcyfP187AQHCYx0uUFBQIHFx cZKXl6edAqioU6eObNmyRapUqaKdAgBAwPj9funSpYssW7ZMOwWwrZiYGDl48KCEh4drp6BieKzD DdLT0xkmYLQHHniAYQIA4Doej0dmzpzJI4vAWRw7dkyWLFminYEAYJxwgXfeeUc7AVDTrl07GTt2 rHYGAABB0aFDBxk2bJh2BmBrnIfcgcc6HK6oqEhq1aolx44d004BVHz22WfSvXt37QwAAIImKytL mjdvzoefA78hPj5e9u3bx1fwOhuPdTjdkiVLGCZgrIEDBzJMAABcr379+jJt2jTtDMC2srOz5auv vtLOQAUxTjgctzDBVGFhYfLggw9qZwAAYImpU6dK7dq1tTMA2+Jc5HyMEw7m8/nkww8/1M4AVNxw ww1y/vnna2cAAGCJ6OhoRnngLD744APhEwucjc+ccLBly5ZJ586dtTMAy1WvXl0yMzMlNjZWOwUA AMv4fD5p166dZGRkaKcAtvTNN99IamqqdgbODZ854WSffPKJdgKg4pZbbmGYAAAYx+v1yp///Gft DMC2OB85G3dOOFirVq1k/fr12hmAperXry+bN2+WiIgI7RQAAFT07NlT0tPTtTMA22nTpo2sWrVK OwPnhjsnnGrHjh0MEzDS/fffzzABADDaQw89JB6PRzsDsJ2MjAzZs2ePdgbOEeOEQ3300UfaCYDl LrjgAhk9erR2BgAAqtq1aycDBw7UzgBsx+/3y8cff6ydgXPEOOFQCxYs0E4ALHffffeJ18vftgAA eOCBByQ0NFQ7A7AdzknOxWdOOFBubq7ExcVJYWGhdgpgmdTUVFm5ciW3sQIA8LNRo0bJq6++qp0B 2EpkZKQcPnxYoqKitFNQPnzmhBOlp6czTMA4d999N8MEAACnuPvuuyUkJEQ7A7CV/Px8Wbx4sXYG zgHjhANxqxJM07FjR0lLS9POAADAVpo2bSpjx47VzgBsh/OSM/FYh8P4fD6pU6eOZGdna6cAlvn4 44+ld+/e2hkAANjO9u3bpWnTplJSUqKdAthG3bp1ZdeuXdx16yw81uE0a9asYZiAUTp16sQwAQDA b2jUqJGMGjVKOwOwlT179siGDRu0M1BOjBMOs3DhQu0EwFLTpmjrl54AACAASURBVE3TTgAAwNbu uusuvrkDOE16erp2AsqJccJhPv30U+0EwDJt27aVK664QjsDAABbS0pKksGDB2tnALbCucl5+MwJ B8nLy5MaNWpIUVGRdgpgiblz58qQIUO0MwAAsL1169ZJ69athUt74CcRERGSk5MjkZGR2ikoGz5z wkm++OILhgkYo0mTJjJw4EDtDAAAHKFVq1Z8sxVwioKCAlm+fLl2BsqBccJBeG4KJrnzzjv57nYA AMph+vTpfDsBcArOT87COOEg/HDBFPXq1ZPhw4drZwAA4CitW7eWrl27amcAtsGXCTgL44RD8HU4 MMmNN94oYWFh2hkAADjObbfdpp0A2MaaNWskOztbOwNlxDjhEIsWLdJOACwRExMjEyZM0M4AAMCR evXqJSkpKdoZgC34/X7OUQ7COOEQPNIBU4wdO1aqVKminQEAgGNNnjxZOwGwDc5RzsFXiTqA3++X hIQE2b9/v3YKEFRhYWGSmZkpiYmJ2ikAADhWUVGRNGzYUPbt26edAqhLTEyUrKws7Qz8Pr5K1Ak2 b97MMAEjDBw4kGECAIAKCg8PlxtvvFE7A7CFXbt2ybZt27QzUAaMEw7w5ZdfaicAluBCCgCAwBg/ frxERUVpZwC28NVXX2knoAwYJxxgyZIl2glA0LVv314uuugi7QwAAFwhNjZWhg0bpp0B2ALnKWdg nHCAL774QjsBCLobbrhBOwEAAFeZMmWKeDwe7QxA3dKlS7UTUAZ8IKbNbdu2TRo3bqydAQRVXFyc 7Nq1SyIiIrRTAABwlS5dunBLOyAiWVlZfLaZvfGBmHbHygcTXHPNNQwTAAAEAV8rCvyEz/GzP8YJ m+OHCG4XEhIiEydO1M4AAMCVBgwYIAkJCdoZgDoelbc/xgmb484JuF3v3r2lbt262hkAALhSaGio jB07VjsDUMc4YX985oSN7dq1S+rXr6+dAQTVhx9+KH379tXOAADAtXbt2iWNGjWS0tJS7RRAjcfj kf3790utWrW0U3BmfOaEnfFIB9yufv36cvnll2tnAADgaomJidKzZ0/tDECV3+/n7gmbY5ywsWXL lmknAEE1evRo8Xr52xAAAME2btw47QRA3fLly7UTcBacCmxs5cqV2glA0Hi9Xi6UAACwSL9+/bid HcZbsWKFdgLOgnHCpvLy8mTt2rXaGUDQ9OzZk++aBgDAImFhYTJq1CjtDEDV6tWrpaCgQDsDv4Fx wqZWrVrFhxbB1bhAAgDAWmPGjNFOAFQVFRVJRkaGdgZ+A+OETXHLEdwsJiZGBgwYoJ0BAIBRkpOT pU2bNtoZgCrOWfbFOGFTfN4E3Ozqq6+WiIgI7QwAAIwzevRo7QRAFecs+2KcsCkWPbjZ8OHDtRMA ADDS4MGDJTQ0VDsDUMM5y74YJ2xo165dsn//fu0MICgaNGggl156qXYGAABGqlWrlvzxj3/UzgDU ZGVlyb59+7QzcAaMEzbEmgc3Gz58uHg8Hu0MAACMNWLECO0EQNU333yjnYAzYJywIZ6DgpsNGTJE OwEAAKP169dPoqOjtTMANZy37IlxwoZY8uBWLVu2lJYtW2pnAABgtKioKLniiiu0MwA1jBP2xDhh MyUlJbJq1SrtDCAohg4dqp0AAACEOxlhtu+++058Pp92Bk7DOGEzmZmZkp+fr50BBMXAgQO1EwAA gIj07NlTqlWrpp0BqMjNzZUdO3ZoZ+A0jBM2w10TcKu2bdvK+eefr50BAABEJCIiQvr376+dAahZ vXq1dgJOwzhhM2vWrNFOAIKCuyYAALCXQYMGaScAajIyMrQTcBrGCZvhhwRudeWVV2onAACAU3Tv 3l2qVq2qnQGo4JfC9sM4YTP8kMCNkpOTeaQDAACbqVSpkvTu3Vs7A1DBL4Xth3HCRnbt2iVHjhzR zgACbsCAAdoJAADgDHiPhqkOHDggBw4c0M7AKRgnbIT1Dm7Vr18/7QQAAHAGvXr1kvDwcO0MQAXn L3thnLARfjjgRgkJCZKamqqdAQAAzqBatWrSrVs37QxABY/U2wvjhI0wTsCN0tLSxOPxaGcAAIDf wFeKwlScv+yFccJGvv/+e+0EIOD69OmjnQAAAM6iT58+/CIBRlq7dq12Ak7h8fv9fu0IiJw4cUJi YmKE/zngJlFRUXL48GGJjIzUTgEAAGfRunVrflEG44SEhEhubi7Xqvbg584Jm9iwYQPDBFyna9eu /M0eAAAH4E5HmKi0tFQ2bdqknYGfMU7YxMaNG7UTgIDjQgcAAGfgPRum4hxmH4wTNrFhwwbtBCDg evXqpZ0AAADKoEOHDhIbG6udAViOc5h9ME7YBIsd3KZZs2bSsGFD7QwAAFAGoaGhctlll2lnAJbj HGYfjBM2wWIHt+nZs6d2AgAAKAfeu2EizmH2wThhA8eOHZM9e/ZoZwAB1b17d+0EAABQDj169NBO ACy3Y8cO+fHHH7UzIIwTtsAnxMJtwsLCpGvXrtoZAACgHOrXry+NGzfWzgAs5fP5ZMuWLdoZEMYJ W+A5J7hN+/btpUqVKtoZAACgnPjcCZiI85g9ME7YAM85wW24awIAAGfq1q2bdgJgOc5j9sA4YQOb N2/WTgACigsbAACcqWvXruLxeLQzAEtxHrMHxgkb2Lp1q3YCEDARERHSqVMn7QwAAHAOatasKS1a tNDOACzFecweGCeUFRcXy86dO7UzgIBp27atVKpUSTsDAACcoy5dumgnAJbatm2b+Hw+7QzjMU4o y8rKkpKSEu0MIGA6d+6snQAAACqA93KYpqCgQPbu3audYTzGCWWZmZnaCUBAcUEDAICz8V4OE3Eu 08c4oYwfAriJx+ORjh07amcAAIAKSExMlHr16mlnAJbatm2bdoLxGCeU8UMAN0lOTpYaNWpoZwAA gAri7gmYhnOZPsYJZdw5ATfhWzoAAHAH3tNhGs5l+hgnlLHQwU3at2+vnQAAAAKgQ4cO2gmApRgn 9Hn8fr9fO8JUpaWlUrlyZSksLNROAQLi+++/l1atWmlnAACACioqKpJq1apJQUGBdgpgiejoaMnN zdXOMJmfOycU7d27l2ECrhEdHS3JycnaGQAAIADCw8MlJSVFOwOwTF5enmRnZ2tnGI1xQtH27du1 E4CAadu2rYSEhGhnAACAAOHRDpiG85kuxglFu3bt0k4AAiY1NVU7AQAABFC7du20EwBLZWVlaScY jXFCEeME3IQLGAAA3IVfPMA0nM90MU4o2r17t3YCEDBt2rTRTgAAAAF0/vnnS3R0tHYGYBnOZ7oY JxSxzMEtqlSpIklJSdoZAAAggLxer1xwwQXaGYBlOJ/pYpxQxDIHt7jgggvE6+VvJwAAuA3f2AGT cD7TxWlCES9+uAUXLgAAuFPr1q21EwDLcOeELsYJJSdOnJATJ05oZwABwS2fAAC4E+/xMMmRI0ck Pz9fO8NYjBNKWOXgJtw5AQCAO/HoJkzi9/u5u10Rf6dRwosebuHxeKRFixbaGQAAIAiioqKkUaNG 2hmAZTin6WGcUMKLHm6RmJgolStX1s4AAABB0rx5c+0EwDLc4a6HcULJnj17tBOAgEhOTtZOAAAA QcR7PUzCOU0P44SSgwcPaicAAcFvUwAAcDfe62ESzml6GCeUHDhwQDsBCAguWAAAcDfe62ESzml6 GCeUsMjBLZo1a6adAAAAgqhp06baCYBlsrOztROMxTihhBc93IILFgAA3K1atWpSp04d7QzAEvwS WQ/jhBJe9HCDmJgYiYuL084AAABB1rhxY+0EwBKc0/QwTijIy8uTkydPamcAFcb3ngMAYIakpCTt BMASx48fl4KCAu0MIzFOKGCNg1twoQIAgBl4z4dJDh06pJ1gJMYJBYwTcAtu8QQAwAyMEzAJ5zUd jBMKeLHDLbhQAQDADPxCAibhvKaDcUIB39QBt2jYsKF2AgAAsADv+TAJ44QOxgkFjBNwiwYNGmgn AAAAC9SsWVOio6O1MwBL8JkTOhgnFOTk5GgnABXm8XgkISFBOwMAAFikbt262gmAJTiv6WCcUHDs 2DHtBKDC4uLipFKlStoZAADAIvXq1dNOACzBeU0H44QCXuxwAy5QAAAwC+/9MMXRo0e1E4zEOKGA FzvcgFs7AQAwC+/9MAW/TNbBOKGAFzvcgN+eAABgFt77YQrOazoYJxTwYocb1KlTRzsBAABY6Lzz ztNOACzBeU0H44QCXuxwg1q1amknAAAAC/HeD1PwGL4OxgmLlZaWyokTJ7QzgArjAgUAALPEx8dr JwCWOHbsmPj9fu0M4zBOWOzEiRO80OEKXKAAAGAW3vthipKSEvnxxx+1M4zDOGExHumAW3CBAgCA WSpVqiTVqlXTzgAswbnNeowTFuNFDrdgnAAAwDy8/8MUnNusxzhhsby8PO0EoMIqV64sUVFR2hkA AMBicXFx2gmAJTi3WY9xwmInT57UTgAqrGbNmtoJAABAAdcAMAXnNusxTliMFzncICYmRjsBAAAo 4BoApuDcZj3GCYvl5+drJwAVxoUJAABm4hoApuDcZj3GCYuxwMENuDABAMBMXAPAFJzbrMc4YTFe 5HADLkwAADATXyUKU3Busx7jhMV4kcMNGCcAADAT1wAwBec26zFOWIxnl+AGVatW1U4AAAAKuHMC puDcZj3GCYvxIocbREdHaycAAAAFXAPAFJzbrMc4YTFuD4IbREVFaScAAAAFXAPAFJzbrMc4YTFe 5HCDyMhI7QQAAKCAcQKm4NxmPcYJixUWFmonABXGhQkAAGbiFxQwBec26zFOWKy0tFQ7AagwLkwA ADATv6CAKTi3WY9xwmK8yOEGXJgAAGAmrgFgipKSEu0E4zBOWIwXOdyAOycAADBTRESEdgJgCX6p bD3GCYvxIocbhIaGaicAAAAFYWFh2gmAJTi3WY9xwmK8yOEGISEh2gkAAEAB1wAwBXe8W49xwmKM E3ADLkwAADATd0/CFJzbrMc4YTFe5HADxgkAAMzk9XrF4/FoZwBBx50T1mOcsBjjBNyAcQIAAHNx HQATcG6zHuOExVjg4AZclAAAYC6uA2ACxgnrMU5YjBc53MDr5W8dAACYinECJuCXytbjhGExn8+n nQBUGCMbAADm4tAGE3Busx7jhMX4jTPcgHECAABzcR0AE3CHkPU4KVuMr1+CG3BRAgCAmfx+P9cB MALjhPUYJyzGixxuwEUJAABm4lZ3mIJzm/UYJyzGixxuwDgBAICZuAaAKbjj3XqMExZjnIAbcGEC AICZ+DBMmIJzm/UYJyzGixxuUFxcrJ0AAAAUcA0AU3Busx7jhMV4kcMNTp48qZ0AAAAUcA0AU/BY h/UYJyzGixxuwIUJAABm4hoApuCXytZjnLAYL3K4QX5+vnYCAABQwDUATMG5zXqMExbjRQ434Lcm AACYiWsAmII73q3HOGExxgm4Ab81AQDATFwDwBSc26zHOGGxiIgI7QSgwvitCQAAZuIaAKbg3GY9 xgmLRUVFaScAFZaXl6edAAAAFOTm5monAJbg3GY9xgmLRUZGaicAFXbs2DHtBAAAoIBrAJiCc5v1 GCcsxgIHN+DCBAAAM3ENAFMwTliPccJivMjhBlyYAABgpuPHj2snAJbgl8rWY5ywGC9yuAHjBAAA ZuIaAKbg3GY9xgmLcecE3IDfmgAAYCbGCZiCc5v1GCcsxgIHN+DCBAAAM3ENAFNwbrMe44TFeJHD DQ4dOiR+v187AwAAWOzQoUPaCYAlOLdZj3HCYrzI4QZFRUU82gEAgIGys7O1EwBLcG6zHuOExXh2 CW5x8OBB7QQAAGAxxgmYgnOb9RgnLBYdHa2dAAQEFycAAJglNzdX8vPztTMAS3Busx7jhMViY2O1 E4CAYJwAAMAs3DUJk3Busx7jhMViYmK0E4CA4AIFAACz8IsJmIRzm/UYJyxWtWpV8Xr5fzucjwsU AADMwns/TBEeHi6VK1fWzjAOp2SLeb1eqVq1qnYGUGG7d+/WTgAAABbivR+mqFatmnaCkRgnFHCL ENxgz5492gkAAMBCvPfDFHzehA7GCQWME3ADLlAAADALd07AFJzXdDBOKGCJgxswTgAAYBbe+2EK xgkdjBMKeLHDDU6cOCEnTpzQzgAAABbhzgmYgvOaDsYJBbzY4Rb8BgUAADP4fD7Zu3evdgZgCe50 18E4oYBPf4VbZGVlaScAAAAL7N+/X4qLi7UzAEtwXtPBOKGgevXq2glAQGRmZmonAAAAC/CeD5Nw XtPBOKGgVq1a2glAQGzbtk07AQAAWID3fJiE85oOxgkFvNjhFlyoAABgBt7zYRLOazoYJxTwYodb cKECAIAZeM+HSTiv6WCcUMCLHW6xY8cO8fl82hkAACDIGCdgEs5rOhgnFPBih1sUFBTIvn37tDMA AECQbd++XTsBsITH45H4+HjtDCMxTiiIioqS6Oho7QwgIDZv3qydAAAAgig7O1tycnK0MwBLxMbG SlhYmHaGkRgnlHD3BNxiw4YN2gkAACCIeK+HSbhrQg/jhBLGCbjFpk2btBMAAEAQbdy4UTsBsAzn ND2ME0p40cMtuGABAMDd+EUETMI5TQ/jhBJuF4JbcMECAIC78V4Pk3BO08M4oaR27draCUBAHD58 WA4dOqSdAQAAgoRxAibhnKaHcUJJYmKidgIQMDzaAQCAO+Xk5Mj+/fu1MwDLcE7TwzihpF69etoJ QMCsXr1aOwEAAARBRkaGdgJgKc5pehgnlPCih5usWbNGOwEAAAQB7/EwDXdO6GGcUMI4ATfhwgUA AHdau3atdgJgGY/HIwkJCdoZxmKcUFK5cmWJjY3VzgACYuPGjVJQUKCdAQAAAoxfQMAk8fHxUqlS Je0MYzFOKOLuCbhFSUkJH4oJAIDLFBQU8E0dMAqPdOhinFDEOAE34bZPAADcZdOmTVJSUqKdAViG 85kuxglFvPjhJt9++612AgAACKBvvvlGOwGwFOczXYwTinjxw01WrFihnQAAAAKI93aYhvOZLsYJ RXXr1tVOAAJm3bp1cvLkSe0MAAAQICtXrtROACzF+UwX44QiPnAFblJSUiKrV6/WzgAAAAFw7Ngx 2bx5s3YGYKn69etrJxiNcUJR48aNtROAgOLZVAAA3OG7774Tv9+vnQFYivOZLsYJRQkJCRIZGamd AQQMt38CAOAOvKfDNLGxsVKzZk3tDKMxTijyeDySlJSknQEEDBcyAAC4A+/pMA3nMn2ME8q4dQhu kpWVJTt37tTOAAAAFVBaWipffPGFdgZgKcYJfYwTyhgn4DZffvmldgIAAKiA9evXy/Hjx7UzAEtx LtPHOKGMhQ5uwzgBAICzcdcETMS5TB/jhDIWOrgNFzQAADgbv2iAiTiX6WOcUMYPAdzmhx9+kOzs bO0MAABwjhgnYCLOZfoYJ5QlJiZKpUqVtDOAgPH7/bJs2TLtDAAAcA4yMzPlwIED2hmApapUqSJ1 6tTRzjAe44Qyr9cr9evX184AAmrRokXaCQAA4BzwHg4TNWjQQDsBwjhhC+eff752AhBQCxcu1E4A AADnID09XTsBsBznMXtgnLCBli1baicAAbV161bZuXOndgYAACiH0tJS7pyAkTiP2QPjhA0kJydr JwABt3jxYu0EAABQDhkZGXLs2DHtDMBynMfsgXHCBvhhgBvxmxcAAJyF926YivOYPTBO2EDz5s3F 4/FoZwABtXjxYvH7/doZAACgjLjrESYKDQ2Vpk2bamdAGCdsoXLlynxjB1xn3759snbtWu0MAABQ BidPnpSlS5dqZwCWS0pKkvDwcO0MCOOEbbRo0UI7AQi4Dz/8UDsBAACUQXp6uhQUFGhnAJbjHGYf jBM2wXNOcKOPPvpIOwEAAJQB79kwFecw+2CcsAl+KOBG3377rRw8eFA7AwAAnIXf75cFCxZoZwAq OIfZB+OETXA7EdzI5/PJp59+qp0BAADOYu3atbJ//37tDEAF5zD7YJywiWbNmvGNHXCl//znP9oJ AADgLHivhqlCQkKkSZMm2hn4GeOETVSpUoVv7IArffzxx1JUVKSdAQAAfsN7772nnQCoSEpKkoiI CO0M/IxxwkbatGmjnQAE3PHjx2XJkiXaGQAA4Az27dsn3333nXYGoILzl70wTthISkqKdgIQFO+8 8452AgAAOIN3331XfD6fdgag4sILL9ROwCkYJ2yEHw641QcffCClpaXaGQAA4DQ80gGTcf6yF8YJ G+GHA2518OBBWbFihXYGAAA4xeHDh2Xp0qXaGYAa7ly3F8YJG0lISJBatWppZwBBwW9mAACwlwUL FnBnI4yVkJAgcXFx2hk4BeOEzbRu3Vo7AQiK9957T/x+v3YGAAD4Gb84gMm4a91+GCdshh8SuNX2 7dvlm2++0c4AAAAicvToUfnPf/6jnQGo4dxlP4wTNsMPCdzs9ddf104AAAAiMn/+fCkqKtLOANTw eRP2wzhhMzzWATebN2+elJSUaGcAAGC8N998UzsBUMW5y348fh4CtxWfzycxMTGSm5urnQIERXp6 ulx22WXaGQAAGGvv3r2SmJgoPp9POwVQERsbK0eOHBGPx6Odgv/n584Jm/F6vax4cLW5c+dqJwAA YLS3336bYQJGS0lJYZiwIcYJG+rUqZN2AhA077//vhQWFmpnAABgLB7pgOk4b9kT44QNdejQQTsB CJqcnBz597//rZ0BAICRtmzZIitWrNDOAFRx3rInxgkb6tixo3YCEFRz5szRTgAAwEi8BwMiF110 kXYCzoAPxLSpxMRE2b17t3YGEBRer1eysrKkbt262ikAABijpKRE6tatKwcPHtROAdQkJSVJZmam dgZ+jQ/EtCvWPLiZz+eT119/XTsDAACjLFy4kGECxuOcZV+MEzbFc1BwO24rBQDAWv/617+0EwB1 nLPsi3HCpvihgdv98MMP8u2332pnAABghKNHj8qHH36onQGo484J+2KcsKm2bdtKeHi4dgYQVC+8 8IJ2AgAARnjttdckPz9fOwNQFRkZKSkpKdoZ+A2MEzYVGRkpLVu21M4Agur111+XY8eOaWcAAOBq fr9fnnvuOe0MQF3r1q0lLCxMOwO/gXHCxni0A26Xn58vb7zxhnYGAACutnz5ctm8ebN2BqCORzrs jXHCxi699FLtBCDoZs2apZ0AAICrvfjii9oJgC1wvrI3j9/v92tH4MwOHDggderU0c4Agm7lypXS vn177QwAAFzn6NGjkpCQwOdNwHher1cOHTok1atX107Bmfm5c8LGateuLU2aNNHOAIKO3+gAABAc b7zxBsMEICItWrRgmLA5xgmb49YjmOCNN96QnJwc7QwAAFzF7/fLs88+q50B2ALnKvtjnLA5fohg gpMnT8rzzz+vnQEAgKt8/PHHfBAm8LNLLrlEOwG/g8+csLk9e/ZIvXr1tDOAoDvvvPNk586dfL0T AAAB0qtXL/n000+1MwB1Ho9HDhw4IPHx8dop+G185oTd1a1bVxo1aqSdAQTdvn375P3339fOAADA FTZt2iQLFy7UzgBsoWnTpgwTDsA44QDcggRT/O1vf9NOAADAFf7+978LN0gDP+FReWdgnHCALl26 aCcAlvjyyy9lzZo12hkAADjasWPH5JVXXtHOAGyjc+fO2gkoA8YJB+jatat2AmCZxx9/XDsBAABH e/755yU3N1c7A7ANzlPOwAdiOkRiYqLs3r1bOwMIupCQENm9e7fUqVNHOwUAAMfJz8+XBg0aSHZ2 tnYKYAtJSUmSmZmpnYHfxwdiOsUf//hH7QTAEpdffjkfWAQAwDl65ZVXGCaAU3COcg7GCYfo0aOH dgIQdP369ZO3335bQkJCtFMAAHCc0tJSeeyxx7QzAFvhHOUcPNbhEEeOHJH4+Hjx+XzaKUBQ9OvX T+bPny/h4eHaKQAAONK///1vSUtL084AbCMsLEyOHDkiVapU0U7B7+OxDqeoUaOGtGnTRjsDCAqG CQAAKsbv98v06dO1MwBbSU1NZZhwEMYJB+GWJLgRwwQAABX32WefSUZGhnYGYCucn5yFccJB+OGC 26SlpTFMAAAQAPfdd592AmA7PXv21E5AOfCZEw5SVFQkNWrUkLy8PO0UoMLS0tLkrbfeYpgAAKCC Pv/8c+nevbt2BmAr1apVk8OHD0toaKh2CsqGz5xwkvDwcOnSpYt2BlBh/fv3Z5gAACBA/vrXv2on ALbTtWtXhgmHYZxwGFZxOF3//v1l3rx5DBMAAATAihUrZPHixdoZgO1wbnIepiSH4XMn4GT/vWMi LCxMOwUAAFe46667tBMAW+Lc5Dx85oQDNWzYUHbu3KmdAZQLwwQAAIH15ZdfyiWXXKKdAdhOkyZN ZMuWLdoZKB8+c8KJ+vTpo50AlMuAAQMYJgAACLBp06ZpJwC21LdvX+0EnAPGCQdinICTDBgwQObN m8cwAQBAAH3yySeyfPly7QzAljgvOROPdThQYWGh1KxZk68Uhe1deeWV8uabbzJMAAAQQH6/X1JT U2XVqlXaKYDtxMTESHZ2NtefzsNjHU5UqVIlPn0WtjdkyBAe5QAAIAg+/PBDhgngN/To0YPrT4di nHAoblWCnQ0dOlRee+01CQkJ0U4BAMBVioqK5Oabb9bOAGyLc5JzMU44VN++fcXj8WhnAL8ydOhQ efXVVxkmAAAIgjlz5sj27du1MwBbCgkJkcsvv1w7A+eIccKh6tSpI23atNHOAP7HsGHDGCYAAAiS 48ePy7333qudAdhW+/btJS4uTjsD54hxwsF69+6tnQD8YtiwYfLKK68wTAAAECSPPPKIHD58WDsD sC3OR87Gt3U42DfffCMdOnTQzgAYJgAACLJ9+/ZJkyZN5Mcff9ROAWxrzZo10rp1a+0MnBu+rcPJ 2rVrJ3Xq1NHOgOGGDx/OMAEAQJDdcsstDBPAWSQmJsoFHg9XvwAAIABJREFUF1ygnYEKYJxwMK/X K1dddZV2Bgw2fPhw+de//sUwAQBAEK1YsULmzZunnQHY2tVXX80XBjgc44TDMU5Ay4gRIxgmAAAI stLSUpk4caLwJDZwdpyLnI9xwuG6dOki8fHx2hkwzIgRI+Tll19mmAAAIMjmzJkjGRkZ2hmArSUk JMhFF12knYEKYpxwuJCQEElLS9POgEEYJgAAsMaxY8fknnvu0c4AbG/AgAHi9XK0dTr+F3QBbmGC VRgmAACwzoMPPijZ2dnaGYDtcR5yB75K1AWKi4uldu3akpOTo50CFxs5cqS89NJLDBMAAFggIyND UlNTpbS0VDsFsLX4+HjZt28f16jOx1eJukFYWJj07dtXOwMuxjABAIB1/H6/TJkyhWECKIO0tDSu UV2CccIl+vfvr50Al2KYAADAWv/85z/lyy+/1M4AHIFzkHvwWIdLFBYWSnx8vJw4cUI7BS4yatQo mTNnDsMEAAAWOXTokDRr1ozHdYEyqF69uhw4cEDCwsK0U1BxPNbhFpUqVZJevXppZ8BFGCYAALDe vffeyzABlFHfvn0ZJlyEccJFRowYoZ0Alxg9ejTDBAAAFvvss8/khRde0M4AHIPzj7vwWIeLFBcX S506deTIkSPaKXCw/w4TfFc0AADWKSwslJSUFNm8ebN2CuAItWvXlj179vDLNPfgsQ43CQsLk6uv vlo7Aw7GMAEAgI7p06czTADlMHjwYIYJl+EE4jLDhg3TToBDMUwAAKBj9erVMmPGDO0MwFGGDh2q nYAA47EOl/H7/dKoUSPZuXOndgocZMyYMTJ79myGCQAALObz+eTiiy+WFStWaKcAjtGkSRPZsmWL dgYCi8c63Mbj8cigQYO0M+AgEyZM4I4JAACUPProowwTQDkNGTJEOwFBwJ0TLrR27VpJSUnRzoAD TJgwQZ577jnxeDzaKQAAGOf777+X1NRUKSoq0k4BHGXTpk3SrFkz7QwEFndOuFHr1q35YcXvYpgA AEBPcXGxjBs3jmECKCfOOu7FOOFSfOcvzub6669nmAAAQNH06dPlu+++084AHIdzjnvxWIdLZWZm SpMmTYT/eXG666+/Xv7+978zTAAAoGTlypVy8cUXS2lpqXYK4Cher1d27NghiYmJ2ikIPB7rcKvG jRvLpZdeqp0Bm5k4cSLDBAAAivLz8+VPf/oTwwRwDnr06MEw4WKMEy42duxY7QTYyMSJE+XZZ59l mAAAQNGUKVNk48aN2hmAI3G+cTce63CxH3/8Uc477zw5ceKEdgqUMUwAAKBvwYIF0q9fPx67Bc5B bGys7Nu3TyIiIrRTEBw81uFmlStXloEDB2pnQBnDBAAA+nbt2iWjRo1imADO0dChQxkmXI5xwuW4 9clskyZNYpgAAECZz+eTUaNGydGjR7VTAMfiXON+jBMud/HFF/M9wIaaNGmS/O1vf2OYAABA2dNP Py1Lly7VzgAcq3Xr1tKuXTvtDAQZ44QBRo0apZ0Ai91www0MEwAA2EB6errcdttt2hmAo40ePVo7 ARbgAzENsGvXLmnYsKH4fD7tFFjghhtukGeeeYZhAgAAZdnZ2dKmTRvZu3evdgrgWKGhobJ7926p Xbu2dgqCiw/ENEFiYqL07NlTOwMWYJgAAMAeioqKpH///gwTQAX17duXYcIQjBOG4NEO97vxxhsZ JgAAsIm77rpLvv76a+0MwPE4x5iDxzoMUVxcLA0aNJB9+/ZppyAIbrzxRnn66acZJgAAsIG3335b Bg0axNeGAhVUv3592bZtm4SEhGinIPh4rMMUYWFhfP2OS02ePJlhAgAAm9i0aZOMHTuWYQIIgHHj xjFMGIQ7Jwyye/duadiwoZSWlmqnIEAmT54sTz31FMMEAAA2cPLkSenQoYOsX79eOwVwvLCwMNm1 axefN2EO7pwwSb169aRPnz7aGQgQhgkAAOzl2muvZZgAAiQtLY1hwjCME4a5/vrrtRMQAFOmTGGY AADARmbNmiVvvPGGdgbgGpxbzMNjHYbx+/3StGlT2bp1q3YKztGUKVPkySefZJgAAMAmvv32W7n0 0kslPz9fOwVwhaZNm8qmTZu43jULj3WYxuPxyDXXXKOdgXN0xx13cMcEAAA2kpmZKb1792aYAAJo woQJXO8aiDsnDJSdnS316tWToqIi7RSUw7Rp0+Thhx/WzgAAAD/Lzc2Vzp07y/fff6+dArhGRESE 7NmzR2rUqKGdAmtx54SJ4uPjZdCgQdoZKAeGCQAA7KWoqEiuuOIKhgkgwIYOHcowYSjGCUONHz9e OwFldOeddzJMAABgM9dff70sXbpUOwNwHc4p5mKcMFTnzp2lQ4cO2hn4HXfeeac89NBD2hkAAOAU M2fOlDlz5mhnAK7DGcVsjBMGmzx5snYCzoJhAgAA+3n//ffl9ttv184AXGnKlCnaCVDEB2IarLi4 WBo1aiR79uzRTsFp7rrrLnnwwQe1MwAAwCm++eYb+cMf/sA3cwBB0LBhQ9m6dauEhIRop0AHH4hp srCwMJkwYYJ2Bk7DMAEAgP3s3r1b+vfvzzABBMnEiRMZJgzHnROGy8nJkXr16snJkye1UyAid999 t/z1r3/VzgAAAKfIz8+Xrl27ysqVK7VTAFeKjo6W3bt3S0xMjHYK9HDnhOmqV68uw4YN086AMEwA AGBHhYWF0rdvX4YJIIjGjBnDMAHunIDImjVr5MILL9TOMBrDBAAA9uPz+WTEiBEyd+5c7RTAtTwe j2zYsEGaN2+unQJd3DkBkZSUFLnsssu0M4x1zz33MEwAAGBD9913H8MEEGR9+vRhmICI8FWi+Blf 26PjnnvukQceeEA7AwAAnGbmzJl8QDVgAc4h+C8e64CIiJSWlkqzZs0kMzNTO8UY9957r/zlL3/R zgAAAKeZN2+eDBs2THw+n3YK4GotWrSQdevWicfj0U6BPh7rwE9CQkJk2rRp2hnGYJgAAMCe5s2b J8OHD2eYACxw1113MUzgF9w5gV8UFxdLUlKS7N69WzvF1RgmAACwp48++kgGDBggxcXF2imA6yUl JcmWLVskJCREOwX2wJ0T+H9hYWEyefJk7QxXu++++xgmAACwoeXLl8uQIUMYJgCL3HzzzQwT+B/c OYH/kZubK/Xr15ejR49qp7jOfffdJ3/+85+1MwAAwGkyMjKkW7ducuzYMe0UwAi1a9eWHTt2SERE hHYK7IM7J/C/qlSpIhMnTtTOcJ3777+fYQIAABtauXKldO3alWECsNCkSZMYJvAr3DmBX8nOzpYG DRpIfn6+door3H///TJ9+nTtDAAAcJoVK1ZIr1695Pjx49opgDGqVKkiWVlZEhsbq50Ce+HOCfxa fHy8jBw5UjvDFRgmAACwp1WrVkmfPn0YJgCLjR07lmECZ8SdEzijHTt2SJMmTaSkpEQ7xbGmT58u 999/v3YGAAA4zdKlS6VPnz7y448/aqcARgkPD5ft27dLQkKCdgrshzsncGYNGzaUK6+8UjvDsR55 5BGGCQAAbGjFihXSv39/hglAwZAhQxgm8Ju4cwK/aePGjdKqVSvx+XzaKY7yyCOPyB133KGdAQAA TvPJJ5/I1VdfLSdPntROAYwTGhoqmzZtksaNG2unwJ64cwK/LTk5Wa666irtDEd59NFHGSYAALCh +fPnS//+/RkmACVDhw5lmMBZcecEzmrDhg1ywQUXcPdEGTz66KNy++23a2cAAIDTzJ07V0aPHi3F xcXaKYCRuGsCZcCdEzi7Fi1ayIABA7QzbI9hAgAAe5o1a5aMGDGCYQJQNGTIEIYJ/C7unMDv4u6J s3vsscfktttu084AAACn8Pv9ctNNN8kzzzyjnQIYLTQ0VDZu3Cjnn3++dgrsjTsn8PtatGgh/fv3 186wJYYJAADsp7i4WMaMGcMwAdjA4MGDGSZQJtw5gTJZtWqVpKamCi+X//f444/Lrbfeqp0BAABO UVhYKCNHjpT58+drpwDG83q9snbtWmnZsqV2CuyPOydQNm3btpW0tDTtDNtgmAAAwH5OnDghl19+ OcMEYBODBw9mmECZcecEymzNmjXSpk0b4++eYJgAAMB+fvjhB+nTp49kZmZqpwCQn+6aWL9+vTRv 3lw7Bc7AnRMou5SUFOnTp492hqoZM2YwTAAAYDNfffWVdOrUiWECsJGrrrqKYQLlwp0TKJcNGzZI 69atpbS0VDvFcjNmzJBbbrlFOwMAAJxi7ty5MnbsWCksLNROAfCzsLAw2bBhAx+EifLgzgmUT4sW LWT48OHaGZabOXMmwwQAADbz7LPPysiRIxkmAJsZO3YswwTKjTsnUG5ZWVnStGlTYy4EZs6cKVOn TtXOAAAAPysoKJBx48bJG2+8oZ0C4DRRUVGydetWOe+887RT4CzcOYHyq1+/vlx77bXaGZZgmAAA wF4OHjwo3bt3Z5gAbGrixIkMEzgn3DmBc3Lo0CFJSkqS3Nxc7ZSgeeKJJ+Tmm2/WzgAAAD9bvXq1 pKWlyZ49e7RTAJxBtWrVZNu2bVKjRg3tFDgPd07g3MTFxcmNN96onRE0DBMAANjLp59+Kt27d2eY AGzslltuYZjAOePOCZyznJwcadSokRw/flw7JaCefPJJuemmm7QzAACAiJSWlsrdd98tjz32mHDZ CthXjRo1ZPv27VK1alXtFDgTd07g3FWvXl3uvPNO7YyAYpgAAMA+Dh48KJdddpk8+uijDBOAzd17 770ME6gQ7pxAheTl5Unjxo3l4MGD2ikV4vF45IknnmCYAADAJlasWCEDBw7kMQ7AAerWrSs//PCD REZGaqfAubhzAhUTHR0tDz74oHZGhTBMAABgLy+99JJ069aNYQJwiEceeYRhAhXGnROoMJ/PJ6mp qbJ69WrtlHLzeDzyj3/8Q8aPH6+dAgCA8XJycmTcuHHy/vvva6cAKKP27dvLihUrxOPxaKfA2bhz AhXn9Xrl8ccf184oN4YJAADs44svvpCUlBSGCcBBPB6PPPXUUwwTCAjGCQREt27dpHfv3toZZcYw AQCAPZSWlsr06dOlW7dusnv3bu0cAOUwYMAA6dixo3YGXILHOhAwmzZtkgsuuEBKSkq0U37XY489 Jrfddpt2BgAARjtw4ICMGjVK0tPTtVMAlFOlSpVk48aN0qhRI+0UuAOPdSBwmjdvLtdcc412xll5 PB6ZNWsWwwQAAMrmzZsnzZo1Y5gAHGrixIkMEwgo7pxAQO3fv1+aNGkieXl52im/8t9h4tprr9VO AQDAWCdPnpQJEybIq6++qp0C4BzFxMTI1q1bpWbNmtopcA/unEBg1alTR+666y7tjF9hmAAAQN/3 338v7dq1Y5gAHO7+++9nmEDAcecEAq6goECaNWsmWVlZ2iki8tO3iTz//PMMEwAAKPH7/fKPf/xD 7rjjDlveXQmg7Jo0aSLr16+XsLAw7RS4C3dOIPAiIiLkgQce0M4QEYYJAAC0bd68WTp16iSTJk1i mABc4KGHHmKYQFBw5wSCplu3brJ48WK1P9/r9cqsWbNs/yGdAAC4UWlpqcyYMUP+/Oc/S35+vnYO gAC4/PLL5aOPPtLOgDv5GScQNBs2bJALL7xQiouLLf+zGSYAANCzfft2GT9+vHz22WfaKQACpFKl SrJ+/Xpp3Lixdgrcicc6EDwtWrSQCRMmWP7ner1eeeGFFxgmAACwWGFhoUybNk2aNWvGMAG4zE03 3cQwgaDizgkE1dGjR6Vp06Zy6NAhS/68/w4T48aNs+TPAwAAP1m8eLGMHz9etm7dqp0CIMASEhJk 8+bNEh0drZ0C9+LOCQRXbGysPPTQQ5b8WQwTAABYLy8vT6ZOnSo9evRgmABc6rHHHmOYQNBx5wSC rrS0VFJTUyUjIyNof4bX65UXX3xR/vSnPwXtzwAAAP/r3XfflZtuukl2796tnQIgSDp27CjLli0T j8ejnQJ34wMxYY1Vq1ZJ+/btxefzBfyvzTABAIC1NmzYIJMmTZKlS5dqpwAIotDQUMnIyJCWLVtq p8D9eKwD1mjbtq2MHj064H9dhgkAAKyTl5cnU6ZMkQsvvJBhAjDAddddxzABy3DnBCyzf/9+ad68 uRw/fjwgfz2GCQAArPPBBx/IbbfdxudKAIaoUaOGbN68WWrWrKmdAjNw5wSsU6dOHXn88ccD8tfy er3yz3/+k2ECAIAgW7ZsmbRv31769+/PMAEY5KmnnmKYgKW4cwKW8vv90q1bN1myZMk5/zX+O0yM HTs2cGEAAOB/7Ny5U26//XZ5++23hctFwCyXXXaZpKena2fALHwgJqy3YcMGufDCC6W4uLjc/1mv 1yuzZ8+WMWPGBD4MAABIbm6uPPHEEzJz5kzJzc3VzgFgsYiICFm3bp00btxYOwVm4bEOWK9FixZy 6623lvs/xzABAEDwFBUVyTPPPCONGzeW6dOnM0wAhrrzzjsZJqCCOyegIj8/X1q1aiXbtm0r078/ JCREXnvtNRkyZEiQywAAMEtJSYnMmTNH/vKXv8jevXu1cwAoat68uaxZs0bCw8O1U2Ae7pyAjsjI SHnyySfL9O8NDQ1lmAAAIMD8fr+89957cuGFF8r48eMZJgDIM888wzABNYwTUHPFFVfI4MGDz/rv CQ0NlVdffZVhAgCAAPr4448lNTVVrrzySlm/fr12DgAbGDNmjFx22WXaGTAYj3VA1YEDByQ5OVmO Hj36q//bf++Y+L0BAwAAlM3nn38u9957ryxfvlw7BYCNxMXFyaZNm6RGjRraKTAXj3VAV+3ateUv f/nLr/51hgkAAAKjtLRUXnnlFUlJSZHu3bszTAD4lYcffphhAuq4cwLq/H6//PGPf/zlu5QZJgCz PPzwwxIVFSXXXHONVK5cWTsHcI2SkhJ566235NFHH5Xvv/9eOweATaWlpcn777+vnQH4GSdgCzt3 7pRWrVpJQUGBvP766zJo0CDtJAAWuOOOO+Sxxx4TEZGaNWvK5MmTZeLEifz2BqiA/Px8efnll2XG jBmyfft27RwANhYTEyMbNmyQ8847TzsFYJyAfTz77LMSHx/PMAEY4vbbb5fHH3/8V/96eHi4DB48 WO644w5p0aKFQhngTHv27JHHH39cXn75ZTlx4oR2DgAHmDVrllx33XXaGYAI4wTsxO/3i8fj0c4A YIHfGiZOFRISIgMGDJBbb71VOnToYFEZ4Dzbtm2TJ554Ql5++WU5efKkdg4Ah+jZs6f85z//4fob dsE4AQCwVlmGidNdfPHFMmnSJLnqqqv4/nVAfhr0Fy1aJM8995x88MEH4vP5tJMAOEhkZKSsXbtW zj//fO0U4L8YJwAA1rnttttkxowZ5/yfr1atmgwePFimTJkiycnJASwDnCE7O1uee+45efHFF2Xf vn3aOQAc6umnn5bJkydrZwCnYpwAAFijosPEqUJCQqRfv34yfvx46dGjh3i9fDM23O3bb7+VWbNm ydy5c3l0A0CFdOnSRZYsWcJ7J+yGcQIAEHy33nqrzJw5Myh/7dq1a8ugQYPkmmuukVatWgXlzwA0 7Nq1S+bMmSNvvPGGbN26VTsHgAtERkbKmjVrpEmTJtopwOkYJwAAwRXMYeJUXq9XunfvLuPGjZO0 tDSJiIgI+p8JBJrP55NFixbJ7Nmz5f3335fCwkLtJAAu8vDDD8u0adO0M4AzYZwAAASPVcPE6SIj I6Vv374ycuRI6dWrl4SFhVneAJSV3++XZcuWyauvvipvv/225OTkaCcBcKFu3bpJeno6j3PArhgn AADBccstt8gTTzyhnSE1atSQq666SkaOHCmdO3fWzgF+sXXrVpk9e7a8+eabkpWVpZ0DwMViY2Nl 3bp1kpCQoJ0C/BbGCQBA4NllmDhd69atZdCgQTJw4EC+Pg0qDhw4IO+884689dZb8tVXX/EVoAAs 8eqrr8qIESO0M4CzYZwAAATW1KlT5cknn9TO+F0NGzaUK664QgYOHMgdFQiqzMxMee2112T+/Pmy ceNG7RwAhhk8eLC8+eab2hnA72GcAAAEjlOGidO1bNlS+vbtK3379pWLLrpIQkJCtJPgcOvWrZOP PvpIFixYICtWrJDS0lLtJAAGqlWrlqxbt07i4uK0U4DfwzgBAAgMpw4Tp6tZs6b07t1b+vbtKz17 9pSYmBjtJDhAfn6+LF26VBYsWCALFizgMyQAqPN4PPLpp59Kjx49tFOAsmCcAABU3M033yxPPfWU dkbAhYSESPv27aVHjx7Ss2dP6dChg4SGhmpnwQb8fr+sW7dOFi5cKAsXLpSvvvpK8vPztbMA4Bc3 3HCD/O1vf9POAMqKcQIAcO78fr9MnTrVlcPEmVStWlW6desm3bt3lz/84Q/SokUL8Xg82lmwyM6d O2Xp0qWyaNEiSU9PlwMHDmgnAcAZNW7cWDIyMiQ6Olo7BSgrxgkAwLkxbZg4k7i4OLnkkkvk0ksv la5duzJWuMyOHTtk6dKlsnjxYlm6dCmPagBwhMjISFm5cqW0atVKOwUoD8YJAED5MUycWfXq1aVj x47SsWNH6dSpk6SmpvJbK4coLi6W1atXy9dffy1ff/21LF++XPbs2aOdBQDl9vTTT8vkyZO1M4Dy YpwAAJSP3++X66+/XmbNmqWdYnuhoaHSqlUr6dSpk7Rr107atm0rycnJfBuIDWzbtk1WrVol3333 nXz99deyatUqPjMCgOOlpaXJe++9x118cCLGCQBA2TFMVFxUVJSkpKT8Mla0atVKkpOTpVKlStpp rlRSUiKZmZmyfv16+e6772TVqlWyatUqOXr0qHYaAARUYmKirFmzRmJjY7VTgHPBOAEAKBu/3y8T JkyQF154QTvFdUJCQiQpKUlatmwpycnJ0rJlS2nWrJk0atRIqlSpop3nCIWFhbJ9+3bZsmWLbNy4 UdavXy8bN26UTZs2SVFRkXYeAASV1+uVTz75RHr27KmdApwrxgkAwO9jmNATHx8vSUlJ0qhRo1/+ sWHDhlK/fn2pW7euUY+I7N+/X3bu3Ck7d+6U7du3y/bt22Xbtm2ybds22bt3r3BJA8BU99xzjzzw wAPaGUBFME4AAM6OYcK+QkNDpV69elK/fn1p0KCBJCQkSM2aNSUuLk5q1qwptWrV+uWf2/WxkZKS Ejl8+LAcPnxYDh06JAcPHvzlnx84cECysrJk586dkpWVJQUFBdq5AGA7F198sSxZskRCQ0O1U4CK YJwAAPw2v98v48ePlxdffFE7BRVUuXJlqV69ulSvXl1q1Kjxyz/GxMRIpUqVJCoqSqpUqSLh4eFS rVo1iYiIkMjIyHL9GcXFxZKXlyc//vijFBUVydGjR6WwsFBOnjwpubm5kpOTIzk5OXLkyBE5cuSI 5OTkyIkTJ4L03xgA3K969eqyZs0aqVevnnYKUFGMEwCAM/P5fDJhwgSGCQAAbGru3LkyZMgQ7Qwg EPxe7QIAgP0wTAAAYG9Tp05lmICrcOcEAOB/+Hw+GT9+vPzzn//UTgEAAGfQpUsX+fzzz/mcCbgJ j3UAAP4fwwQAAPZWu3ZtycjIkNq1a2unAIHEYx0AgJ8wTAAAYG9er1dmz57NMAFXYpwAAIjf75ep U6cyTAAAYGP33XefXH755doZQFDwWAcAGM7n88l1110ns2fP1k4BAAC/oVevXvLRRx+J18vvl+FK fOYEAJjM5/PJtddeK3PmzNFOAQAAv6FBgwayatUqqV69unYKECx85gQAmIphAgAA+wsLC5N//etf DBNwPcYJADAQwwQAAM7wwgsvyCWXXKKdAQQd4wQAGIZhAgAAZ5gwYYKMGTNGOwOwBJ85AQAG8fl8 cs0118hLL72knQIAAM7i0ksvlfT0dAkLC9NOAazAB2ICgCkYJgAAcIZ69erJt99+K7Vq1dJOAazC B2ICgAkYJgAAcIbw8HB58803GSZgnFDtAABAcPl8Phk3bpy8/PLL2ikAAOB3zJ49Wzp16qSdAViO cQIAXKy0tFRGjBghb775pnYKAAD4HTfddJOMGDFCOwNQwWdOAIBLMUwAAOAcXbp0kUWLFvEBmDAV H4gJAG5UUlIiI0eOZJgAAMABmjRpIl9//bVUr15dOwXQwjgBAG7DMAEAgHPUrFlTVq5cKY0aNdJO ATT5+cwJAHCRkpISGTFihMybN087BQAA/I7w8HB55513GCYAEeGrRAHAJRgmAABwlueff14uueQS 7QzAFrhzAgBcoKSkRIYPHy5vvfWWdgoAACiDG264QcaOHaudAdgGnzkBAA7HMAEAgLOkpaXJu+++ K14vN7IDP+MDMQHAyRgmAABwlpSUFPnyyy8lOjpaOwWwE8YJAHAqhgkAAJwlLi5OVq5cKQ0bNtRO AeyGb+sAACcqKSmRYcOGyfz587VTAABAGVSrVk0WLVrEMAH8Bh5yAgCHYZgAAMBZwsPD5d1335VW rVpppwC2xTgBAA7CMAEAgLN4PB556aWXpFu3btopgK3xWAcAOERJSYkMHTpU3n77be0UAABQRvfe e68MGzZMOwOwPT4QEwAcoLi4WIYNG8YwAQCAg0yePFmefvpp7QzACfi2DgCwO4YJAACc58orr5T5 8+eL18uT9EAZME4AgJ0VFxfL0KFD5Z133tFOAQAAZdS5c2dZuHChREZGaqfg/9q789gu6PuP4+8e UkQQUCyCoFDEUTEuBA+U0wleyLiGdl5RnDhkY8uMY+o2pjMOjUsYLitkIjgvRodVwQPRCRU2DEoR B7goHptTLrkEKWjh98d+EN3UgVA+32+/j0fS5At/vUJSSJ58Pp+SLcQJgEwlTABA9jn++ONjwYIF UVxcnHoKZJNdzhgBZCBhAgCyT7t27eL5558XJuAr8NM6ADLMxx9/HGVlZfHII4+kngIA7KWWLVvG nDlzok2bNqmnQFZycgIggwgTAJB9mjVrFrNnz47LrYOwAAAXlklEQVTjjz8+9RTIWuIEQIYQJgAg +zRo0CD++Mc/xte//vXUUyCrudYBkAG2b98eQ4cOjSeeeCL1FABgLxUWFsaf/vSnOOecc1JPgazn 5ARAYsIEAGSf/Pz8mDp1agwYMCD1FKgXnJwASGj79u0xZMiQePLJJ1NPAQD2wYQJE+LSSy9NPQPq DScnABIRJgAgO40ZMyZGjRqVegbUK+IEQALbt2+PwYMHCxMAkGVuuummGDduXOoZUO/k7dq1a1fq EQC5ZHeYeOqpp1JPAQD2wZgxY4QJqBu7xAmAg6impiaGDBkiTABAlrnmmmti0qRJkZeXl3oK1Ee7 XOsAOEiECQDITtddd50wAXXMyQmAg6CmpiYGDx4cTz/9dOopAMA+uPbaa6O8vFyYgLrlWgdAXRMm ACA7XX755TF16tTIz3fgHOqYax0AdUmYAIDsdOmll8aUKVOECThInJwAqCPCBABkp8GDB8e0adOi QYMGqadArnByAqAu1NTUxKBBg4QJAMgyV111VVRUVAgTcJCJEwAH2O4wMXv27NRTAIB9MGrUqJg8 eXIUFBSkngI5x7UOgANImACA7PSd73wnJk2a5I0JSMO1DoADpaamJgYOHChMAECWufnmm+P3v/+9 MAEJ+e4DOAC2bdsWAwcOjGeeeSb1FABgH4wdOzZuu+221DMg5xWmHgCQ7bZt2xaDBg0SJgAgy4wb Ny7GjBmTegYQ4gTAftl9YmLOnDmppwAA++CWW24RJiCDiBMAX5EwAQDZp7CwMCZPnhxXXHFF6inA p4gTAF+BMAEA2aeoqCimTZsWgwYNSj0F+A/iBMA+2rp1a1xwwQVRVVWVegoAsJeECchs4gTAPtiy ZUv0799fmACALHLEEUfEk08+GaeffnrqKcAXECcA9pIwAQDZp3Xr1jF79uw46aSTUk8BvoQ4AbAX hAkAyD4lJSUxZ86cKCkpST0F+B/yUw8AyHRbtmzxxgQAZJkOHToIE5BFxAmAL7E7TLzwwguppwAA e6lnz56xaNEiYQKyiDgB8AWECQDIPhdddFHMmTMnmjdvnnoKsA/ECYDPsWXLljj//POFCQDIIldf fXU8+OCDUVRUlHoKsI/ECYD/sDtMzJ8/P/UUAGAv5Ofnx/jx4+Oee+6JwkJv/kM28p0L8Ckffvhh XHDBBcIEAGSJhg0bxv333x/f+ta3Uk8B9oM4AfD/hAkAyC5NmzaNysrKOOuss1JPAfaTOAEQ/w4T 559/fixYsCD1FABgL7Rs2TJmzZoVp5xySuopwAHgzQkg5wkTAJBdTj311KiurhYmoB4RJ4CcJkwA QHbp379/PPfcc9GqVavUU4ADSJwAcpYwAQDZZezYsTFz5sxo0qRJ6inAAebNCSAnffjhh3HeeefF X/7yl9RTAID/oWHDhjFlypQoKytLPQWoI+IEkHM2b94c559/vjABAFmguLg4Kisr48wzz0w9BahD 4gSQU4QJAMgepaWlMWvWrCgpKUk9Bahj3pwAcoYwAQDZo3fv3lFVVSVMQI4QJ4CcsHnzZm9MAEAW yMvLizFjxsRzzz0XLVq0SD0HOEhc6wDqvd1h4q9//WvqKQDAl2jYsGGUl5fHlVdemXoKcJCJE0C9 tmHDhujXr1+8/PLLqacAAF+iffv28eijj8bJJ5+cegqQgGsdQL0lTABAdujXr18sWrRImIAcJk4A 9ZIwAQDZYcyYMfHUU0/FkUcemXoKkJBrHUC9s379+jjnnHOECQDIYI0aNYrJkydHWVlZ6ilABhAn gHpl/fr10a9fv1i8eHHqKQDAFzj22GOjoqIiTjvttNRTgAzhWgdQbwgTAJD5zj333Hj55ZeFCeAz xAmgXhAmACCzHXLIITF+/Ph46qmnokWLFqnnABnGtQ4g6wkTAJDZWrVqFdOmTYtevXqlngJkKHEC yGrr16+Pvn37RnV1deopAMDn6N69e0yfPj1at26degqQwVzrALLWBx98IEwAQIbKy8uLMWPGxNy5 c4UJ4H9ycgLISh988EH069dPmACADNS4ceMoLy+Pyy67LPUUIEuIE0DWESYAIHN17do1Hn744ejY sWPqKUAWca0DyCqucgBAZiooKIixY8fGwoULhQlgnzk5AWSN3WFiyZIlqacAAJ9yzDHHxAMPPBB9 +vRJPQXIUk5OAFlBmACAzPTNb34zlixZIkwA+0WcADKeMAEAmadRo0Zx3333xWOPPRYtWrRIPQfI cq51ABlt3bp10a9fP2ECADJIx44d48EHH4xTTz019RSgnnByAshY69atc2ICADJIXl5efPe7343q 6mphAjignJwAMtLuMPHKK6+kngIARESHDh3iD3/4Q5x55pmppwD1kJMTQMYRJgAgs4wYMSIWL14s TAB1xskJIKOsW7cuzj777Fi6dGnqKQCQ81q1ahX33HNPXHDBBamnAPWckxNAxhAmACBzDBw4MJYs WSJMAAeFOAFkhFWrVkWvXr2ECQBIrFGjRnH33XdHZWVlFBcXp54D5AjXOoDkVq1aFd/4xjdixYoV qacAQE7r1atX3HvvvdGhQ4fUU4Ac4+QEkNTq1avjrLPOEiYAIKEjjjgipk+fHvPmzRMmgCTECSCp 2traaNOmTeoZAJCzBg4cGH/7299i2LBhqacAOUycAJJq3bp1PPPMMzFp0qRo0qRJ6jkAkDN2n5Z4 9NFHo1WrVqnnADkub9euXbtSjwCIiHjnnXfimmuuiTlz5qSeAgD12qBBg6K8vDyOPvro1FMAIiJ2 OTkBZIzjjjsunn766ZgwYYJTFABQB5o2bRoTJ06MRx55RJgAMoqTE0BGevfdd+P73/9+PProo6mn AEC9cNFFF8X48eNd4QAy0S5xAshoc+fOjZEjR8Zrr72WegoAZKUTTzwxJk6cGD179kw9BeCLuNYB ZLY+ffrE4sWLY+zYsVFUVJR6DgBkjYYNG8a4ceNiyZIlwgSQ8ZycALLG66+/HiNHjoznnnsu9RQA yGjnnHNO/O53v4sOHTqkngKwN5ycALJHx44dY86cOXHfffdFixYtUs8BgIxTXFwc06dPj9mzZwsT QFYRJ4CskpeXF1dccUW88sorcdlll0VeXl7qSQCQXH5+fgwfPjyWLl0aw4YNSz0HYJ+51gFkterq 6hg9enTMnz8/9RQASOLcc8+N8ePHR6dOnVJPAfiqXOsAsluXLl2iqqoqpk+fHscee2zqOQBw0LRr 1y4ef/zxePrpp4UJIOs5OQHUGx999FHceeedcccdd0RNTU3qOQBQJxo3bhw//elPY/To0XHooYem ngNwIOwSJ4B6Z+XKlXHjjTdGRUVF6ikAcEBdfvnlcfvtt0ebNm1STwE4kMQJoP6qrKyMG264IVau XJl6CgDsl06dOsVdd90V/fv3Tz0FoC54cwKovwYPHhyvvfZaTJo0KVq2bJl6DgDss1atWsV9990X y5YtEyaAes3JCSAnbNmyJe666y7vUQCQFXa/K/G9730vDjvssNRzAOqaax1Abnn33Xfjpptuigce eCD89QdApikoKIirr746fv7zn8cxxxyTeg7AwSJOALlp0aJFcf3118cLL7yQegoARERE796949e/ /nV07do19RSAg82bE0BuOvXUU2Pu3LkxderUaNu2beo5AOSw4447Lh588MF4/vnnhQkgZzk5AeS8 jz/+OKZMmRK/+MUv4v333089B4Ac0a5du7jlllvikksuicLCwtRzAFJyrQNgt48++ijuvvvuGDdu XGzcuDH1HADqqeLi4vjlL38ZV155ZTRo0CD1HIBMIE4A/Kf169fHnXfeGRMmTIht27alngNAPdGk SZO4+eabY9SoUdG4cePUcwAyiTgB8EX+9a9/xa233hr33ntvfPLJJ6nnAJClioqK4oc//GFcf/31 cdRRR6WeA5CJxAmA/2Xp0qVx8803x6xZs1JPASCL5OXlxaBBg+K2226LE088MfUcgEwmTgDsrWXL lsUdd9wRDz30UNTW1qaeA0CGKiwsjOHDh8eYMWOipKQk9RyAbCBOAOyr5cuXx7hx40QKAD5jd5T4 yU9+Eu3bt089ByCbiBMAX9WKFSviV7/6lUgBkONECYD9Jk4A7K9XXnklbr311qisrAx/pQLkjvz8 /Bg2bFj87Gc/i86dO6eeA5DNxAmAA+XVV1+N22+/PSoqKpykAKjHCgsLo6ysLG688UYPXQIcGOIE wIG2atWqmDhxYowfPz42bdqUeg4AB0izZs3iBz/4QVx33XVRXFyceg5AfSJOANSVzZs3x5QpU2Lc uHGxatWq1HMA+Ipat24dP/7xj2P48OHRpEmT1HMA6iNxAqCubdq0KcrLy+M3v/mNSAGQRVq3bh0/ +tGPYsSIEaIEQN0SJwAOlpqampg6dWrcddddsXLlytRzAPgCJ5xwQtxwww1x+eWXR1FRUeo5ALlA nABIYf78+XHHHXfEE0884Sd8AGSAgoKCGDJkSIwePTp69OiReg5ArhEnAFJ644034u67747JkyfH 1q1bU88ByDnNmjWLa6+9Nq655pro0KFD6jkAuUqcAMgEq1evjkmTJkV5ebl3KQAOgtatW8d1110X 1157bbRo0SL1HIBcJ04AZJKdO3fGE088ERMmTIhnn3029RyAeqdv374xevTo6N+/f+Tn56eeA8C/ iRMAmWr+/PlRXl4eM2bMiO3bt6eeA5C1GjZsGMOGDYuRI0fGGWeckXoOAP9NnADIdJs3b45p06bF b3/723j11VdTzwHIGieffHKMGjUqysrK4vDDD089B4AvJk4AZIudO3fG7Nmzo7y8PJ588smora1N PQkg4xQWFsaFF14YI0eOjL59+7q6AZAdxAmAbLR69eqYOnVqTJw4Md5+++3UcwCSKykpiREjRsRV V10VxcXFqecAsG/ECYBstmPHjnjsscdiypQp8cwzzzhNAeSUwsLCOO+882L48OExYMCAKCwsTD0J gK9GnACoLzZs2BAVFRUxadKkWLx4ceo5AHWme/fuccUVV8RFF10UzZo1Sz0HgP0nTgDURwsWLIgp U6ZERUVFbN68OfUcgP3WtGnTKCsriyuvvDK6deuWeg4AB5Y4AVCf7dixI2bPnh33339/VFZWxief fJJ6EsBeO+SQQ2LQoEExYsSIOOuss6KgoCD1JADqhjgBkCvefvvtmDZtWjz88MOxdOnS1HMAvlCX Ll3ikksuiYsvvjjatm2beg4AdU+cAMhFy5Yt2xMqVq5cmXoOQJxwwgnx7W9/O8rKyqJTp06p5wBw cIkTALlu2bJlUVFREQ899FC8/vrrqecAOWR3kLj44oujtLQ09RwA0hEnAPi3nTt3xrx582LatGlR WVkZa9euTT0JqIdatmwZQ4YMibKysujRo0fk5+enngRAeuIEAP+ttrY2qqqqYsaMGVFZWRnvvfde 6klAFmvTpk0MGTIkhg4dKkgA8HnECQD+t91XPyoqKmL58uWp5wBZoGvXrnHhhRfGsGHDonPnzqnn AJDZxAkA9s1LL70UM2bMiBkzZnijAviMTp06xdChQ2Po0KHRpUuX1HMAyB7iBABf3fLly2PmzJkx c+bMWLhwYdTW1qaeBBxEBQUF0b179xgwYEAMGDAgvva1r6WeBEB2EicAODC2bt0af/7zn2PWrFnx +OOPx6pVq1JPAupAq1atYsCAAXHhhRfG2WefHY0aNUo9CYDsJ04AcOBt37495s6dGzNnzoxZs2bF O++8k3oSsB/at2+/53REr169okGDBqknAVC/iBMA1L1XX301nn322Xj22WejqqoqtmzZknoS8CWa NGkSffr0ib59+0a/fv2itLQ09SQA6jdxAoCDa8eOHbFw4cI9sWLRokXxySefpJ4FOa2wsDBOP/30 6Nu3b/Tt2ze6desWhYWFqWcBkDvECQDS2rRpUzz//PN7YsXf//731JMgJ5x44olx9tlnR79+/aJP nz7RpEmT1JMAyF3iBACZ5f3334958+ZFVVVVzJs3L1asWBH+qYL9k5eXF507d47evXtH7969o1ev XtGyZcvUswBgN3ECgMy2ZcuWWLhwYcyfPz8WLFgQVVVVsWPHjtSzIKMVFRVFz549o3v37tGjR484 44wz4rDDDks9CwC+iDgBQHZZv359zJ8/P6qqqmLhwoWxePHi2LZtW+pZkFSjRo2ia9eu0a1bt+jZ s2f07NkzmjVrlnoWAOwtcQKA7Pfmm2/G/Pnz4+WXX44FCxZEdXV17Ny5M/UsqBOHHHJInHbaadG1 a9fo2rVr9OjRI0pKSlLPAoD9IU4AUP+sXbs2XnzxxXjxxRdj4cKF8dJLL8XGjRtTz4KvpHnz5nHK KadEt27d4vTTT49u3brFkUcemXoWABxI4gQAueGtt96K6urqz3y99957qWfBZxxzzDHRpUuXz3y1 a9cu9SwAqGviBAC5a/Xq1VFdXR1LliyJxYsXR3V1dbz55puuhFDnCgoKokOHDv8VIo466qjU0wAg BXECAD5t27ZtsWLFilixYkUsW7Ysli9fHsuWLYu33noramtrU88jyxQUFERJSUmcdNJJUVpaGp07 d47S0tIoLS2Nhg0bpp4HAJlCnACAvVFTU/OZaLFixYp4/fXXY+XKlX5aCNGoUaPo0KFDdOzYMUpL S+Okk06KTp06RWlpaRQVFaWeBwCZTpwAgP21YcOGePPNNz/366233gr/1Ga/vLy8aN++fZSUlHzu V/PmzVNPBIBsJk4AQF1as2ZNvPHGG/GPf/wj/vnPf8a7774b77zzzp7Pa9asST2R/9eyZcto06ZN tG3bNo499tho27btns/HH3+89yAAoO6IEwCQUk1NzX+Fi7Vr18batWtj9erVsXbt2li3bl2sXbvW Q51fQUFBQbRo0SKOOuqoaNGiRRx99NF7Ph933HF7AkTbtm29AQEA6YgTAJANdu3a9ZlQsWbNmliz Zk1s2LAhNmzYEBs3btzz+dO/3rx5c+rpB0zTpk2jWbNm0bx582jevPnnfm7ZsmUUFxd/Jkjk5eWl ng4AfDlxAgDqs9ra2j2hYtOmTbFt27aoqamJTZs2xfbt22PLli2xdevW2L59e2zcuDFqampi27Zt sXnz5v/66SS1tbX7FDsOP/zwKCgo+MzvFRQUxOGHHx6NGjWKoqKiaNasWRQVFcVhhx0WjRs3jqKi omjatGkceuih0bBhw2jatOmeAJGfn39A/kwAgIwjTgAAAABJ7fJfEAAAAEBS4gQAAACQlDgBAAAA JCVOAAAAAEmJEwAAAEBS4gQAAACQlDgBAAAAJCVOAAAAAEmJEwAAAEBS4gQAAACQlDgBAAAAJCVO AAAAAEmJEwAAAEBS4gQAAACQlDgBAAAAJCVOAAAAAEmJEwAAAEBS4gQAAACQlDgBAAAAJCVOAAAA AEmJEwAAAEBS4gQAAACQlDgBAAAAJCVOAAAAAEmJEwAAAEBS4gQAAACQlDgBAAAAJCVOAAAAAEmJ EwAAAEBS4gQAAACQlDgBAAAAJCVOAAAAAEmJEwAAAEBS4gQAAACQlDgBAAAAJCVOAAAAAEmJEwAA AEBS4gQAAACQlDgBAAAAJCVOAAAAAEmJEwAAAEBS4gQAAACQlDgBAAAAJCVOAAAAAEmJEwAAAEBS 4gQAAACQlDgBAAAAJCVOAAAAAEmJEwAAAEBS4gQAAACQlDgBAAAAJCVOAAAAAEmJEwAAAEBS4gQA AACQlDgBAAAAJCVOAAAAAEmJEwAAAEBS4gQAAACQlDgBAAAAJCVOAAAAAEmJEwAAAEBS4gQAAACQ lDgBAAAAJCVOAAAAAEmJEwAAAEBS4gQAAACQlDgBAAAAJCVOAAAAAEmJEwAAAEBS4gQAAACQlDgB AAAAJCVOAAAAAEmJEwAAAEBS4gQAAACQlDgBAAAAJCVOAAAAAEmJEwAAAEBS4gQAAACQlDgBAAAA JCVOAAAAAEmJEwAAAEBS4gQAAACQlDgBAAAAJCVOAAAAAEmJEwAAAEBS4gQAAACQlDgBAAAAJCVO AAAAAEmJEwAAAEBS4gQAAACQVGFE7Eo9AgAAAMhZO/8PTpXbtgYr4d0AAAAASUVORK5CYII= "
       height="41.688999"
       width="41.688999" />
  </g>
</svg>
