<?xml version="1.0" encoding="UTF-8" standalone="no"?>
<!-- Created with Inkscape (http://www.inkscape.org/) -->

<svg
   xmlns:dc="http://purl.org/dc/elements/1.1/"
   xmlns:cc="http://creativecommons.org/ns#"
   xmlns:rdf="http://www.w3.org/1999/02/22-rdf-syntax-ns#"
   xmlns:svg="http://www.w3.org/2000/svg"
   xmlns="http://www.w3.org/2000/svg"
   xmlns:xlink="http://www.w3.org/1999/xlink"
   xmlns:sodipodi="http://sodipodi.sourceforge.net/DTD/sodipodi-0.dtd"
   xmlns:inkscape="http://www.inkscape.org/namespaces/inkscape"
   width="1600"
   height="900"
   id="svg10877"
   version="1.1"
   inkscape:version="0.48.5 r10040"
   sodipodi:docname="ur.svg">
  <defs
     id="defs10879" />
  <sodipodi:namedview
     id="base"
     pagecolor="#00ebf4"
     bordercolor="#666666"
     borderopacity="1.0"
     inkscape:pageopacity="0"
     inkscape:pageshadow="2"
     inkscape:zoom="0.35"
     inkscape:cx="529.62079"
     inkscape:cy="577.14286"
     inkscape:document-units="px"
     inkscape:current-layer="layer1"
     showgrid="false"
     units="cm"
     inkscape:showpageshadow="false"
     inkscape:window-width="1063"
     inkscape:window-height="714"
     inkscape:window-x="32"
     inkscape:window-y="42"
     inkscape:window-maximized="0" />
  <metadata
     id="metadata10882">
    <rdf:RDF>
      <cc:Work
         rdf:about="">
        <dc:format>image/svg+xml</dc:format>
        <dc:type
           rdf:resource="http://purl.org/dc/dcmitype/StillImage" />
        <dc:title />
      </cc:Work>
    </rdf:RDF>
  </metadata>
  <g
     inkscape:label="Ebene 1"
     inkscape:groupmode="layer"
     id="layer1"
     transform="translate(0,-152.36467)">
    <rect
       style="fill:#000000;fill-rule:evenodd;stroke:#000000;stroke-width:0.99999987999999995px;stroke-linecap:butt;stroke-linejoin:miter;stroke-opacity:1"
       id="rect11736"
       width="1599.1575"
       height="899"
       x="-1599.5787"
       y="-1051.8646"
       transform="scale(-1,-1)" />
    <image
       y="581.51624"
       x="779.15552"
       id="image10965"
       xlink:href="data:image/png;base64,iVBORw0KGgoAAAANSUhEUgAABCcAAAQnCAYAAADINQakAAAABHNCSVQICAgIfAhkiAAAIABJREFU eJzs3Wd4F+T9tvErm4QtBghbASEsJQESMYJSiChDhqCEIaDiaBFHRdQqICogoICAiCzZS0BkgyxZ CXsElL1kBBkJhOzkefFveWodrCTf3zg/x5ED2xf1PLS15Mp93z+PrKysLAEAAAAAANjI8rQuAAAA AAAA7o1xAgAAAAAAmGKcAAAAAAAAphgnAAAAAACAKcYJAAAAAABginECAAAAAACYYpwAAAAAAACm GCcAAAAAAIApxgkAAAAAAGCKcQIAAAAAAJhinAAAAAAAAKYYJwAAAAAAgCnGCQAAAAAAYIpxAgAA AAAAmGKcAAAAAAAAphgnAAAAAACAKcYJAAAAAABginECAAAAAACYYpwAAAAAAACmGCcAAAAAAIAp xgkAAAAAAGCKcQIAAAAAAJhinAAAAAAAAKYYJwAAAAAAgCnGCQAAAAAAYIpxAgAAAAAAmGKcAAAA AAAAphgnAAAAAACAKcYJAAAAAABginECAAAAAACYYpwAAAAAAACmGCcAAAAAAIApxgkAAAAAAGCK cQIAAAAAAJhinAAAAAAAAKYYJwAAAAAAgCnGCQAAAAAAYIpxAgAAAAAAmGKcAAAAAAAAphgnAAAA AACAKcYJAAAAAABginECAAAAAACYYpwAAAAAAACmGCcAAAAAAIApxgkAAAAAAGCKcQIAAAAAAJhi nAAAAAAAAKYYJwAAAAAAgCnGCQAAAAAAYIpxAgAAAAAAmGKcAAAAAAAAphgnAAAAAACAKcYJAAAA AABginECAAAAAACYYpwAAAAAAACmGCcAAAAAAIApxgkAAAAAAGCKcQIAAAAAAJhinAAAAAAAAKYY JwAAAAAAgCnGCQAAAAAAYIpxAgAAAAAAmGKcAAAAAAAAphgnAAAAAACAKcYJAAAAAABginECAAAA AACYYpwAAAAAAACmGCcAAAAAAIApxgkAAAAAAGCKcQIAAAAAAJhinAAAAAAAAKYYJwAAAAAAgCnG CQAAAAAAYIpxAgAAAAAAmGKcAAAAAAAAphgnAAAAAACAKcYJAAAAAABginECAAAAAACYYpwAAAAA AACmGCcAAAAAAIApxgkAAAAAAGCKcQIAAAAAAJhinAAAAAAAAKYYJwAAAAAAgCnGCQAAAAAAYIpx AgAAAAAAmGKcAAAAAAAAphgnAAAAAACAKcYJAAAAAABginECAAAAAACYYpwAAAAAAACmvK0DAABA zklNTVV8fPz1r6SkJCUnJys+Pl4pKSm6evWqEhMTlZKSosuXLys5OVlJSUlKSEhQRkbGb/6zMjIy lJCQcNN/7gIFCsjLy+s3/56Xl5cKFCiggIAA+fn5qVChQvLz81PevHmVP39++fr6qmDBgvL391ee PHlUsGDB61++vr7Z8tcEAAA4HsYJAACcQFJSks6fP6/Tp0/r/PnziouL05kzZ66PDpcvX9bly5d/ M0T8Z4xwFf7+/r8ZKwoWLKhChQqpUKFC1/91iRIlFBgYqKJFi17/4zx58linAwCAG/DIysrKso4A AMBdJScn68SJEzp58qROnTql48ePXx8e4uLirg8SV65csU51WgUKFFBQUJCKFi2qokWLKigoSIGB gSpbtqxKly59/YsRAwAAM1mMEwAA5KC4uDgdOnTodwPEf/44Li7OOhH/VqxYMZUqVUqlS5dWmTJl ro8WZcqUUYUKFRQYGGidCACAq2KcAADgTiQlJWnfvn06cuTI775OnjyptLQ060RkE19fX5UqVUr3 3nvv776qVq3KyQsAAG4f4wQAADcjOTlZ+/fv1/79+xUbG6v9+/fr4MGDOnz4sEu964DbExAQoPLl y6tixYoKDg5WtWrVVLlyZQUHB8vPz886DwAAR8c4AQDAf0tKStL+/fu1b9++61+xsbE6evTo7z69 ArgRLy8v3XvvvapWrZqCg4NVtWpVBQcHKzg4mJMWAAD8f4wTAAD3de7cOe3YseM3X0eOHFFmZqZ1 Glycl5eXypcvr5o1a/7mi3ctAABuinECAOAejh49+rsh4vTp09ZZwG+ULFnyd4NFuXLlrLMAAMhp jBMAANfz66+/avPmzYqOjtbmzZu1detWXb582ToLuC2FCxdWrVq1FB4errCwMIWHh6tIkSLWWQAA ZCfGCQCAc7t27Zo2btyo9evXa9u2bdq2bZvOnDljnQXkqKCgIIWGhio0NFQRERF66KGH5O/vb50F AMDtYpwAADiXixcvav369Vq3bp02b96s7du382kZcHsBAQEKDQ1VeHi4IiIiFBERobvuuss6CwCA m8U4AQBwbOfPn9e6deu0bt06rVmzRnv37uXBSuAGPDw8VLVqVdWrV08RERGqV6+eSpYsaZ0FAMCf YZwAADiW2NhYbdiwQStXrtT69eu5ogFkk2LFiql27dqKiIhQw4YNVbNmTXl6elpnAQAgMU4AAKzF x8dr9erVWrlypVauXKmff/7ZOglwC0FBQYqMjFSjRo3UqFEjFS1a1DoJAOC+GCcAALkrNTVVmzdv vj5GbNmyRenp6dZZgFvz8PDQAw88cH2siIiIkJ+fn3UWAMB9ME4AAHLenj17ro8R69at09WrV62T APyFgIAA1a9fX5GRkYqMjFSVKlWskwAAro1xAgCQ/ZKSkrRq1SotXLhQixYt0smTJ62TANyBcuXK qUmTJmratKkeeeQR5cmTxzoJAOBaGCcAANlj3759+v777/X9999r8+bNysjIsE4CkAO8vb0VFham Zs2aqXnz5goODrZOAgA4P8YJAMDtycjIUExMzPXTEbt27bJOApDL/vNWxX9OVdSuXZtPAAEA3A7G CQDAzUtMTNTixYuvn5C4fPmydRIAB1K4cGE1bdpUbdq0UWRkJI9qAgBuFuMEAOCvXblyRfPmzdPs 2bO1atUqXbt2zToJgBMICAhQgwYN1KZNG7Vq1Ur58uWzTgIAOC7GCQDA7127dk1Lly7Vt99+q4UL FyohIcE6CYATK1SokJo1a6bWrVvrscce40FNAMD/YpwAAPyflJQULVmyRNOmTdOiRYs4IQEgR+TL l09NmzZVVFSUHnvsMfn6+lonAQDsMU4AgDtLS0vT0qVLNXnyZC1cuFBJSUnWSQDciL+/v5o2baqO HTuqcePG8vHxsU4CANhgnAAAd7Rr1y5NnTpV06dP16lTp6xzAEBly5ZVu3bt1L59e1WrVs06BwCQ uxgnAMBdHDt2TNOmTdO0adMUGxtrnQMAf6pGjRqKiopSVFSUSpcubZ0DAMh5jBMA4MouXLigKVOm aPLkydq2bZt1DgDcstDQUHXr1k3t2rVT/vz5rXMAADmDcQIAXNGGDRs0YcIEzZ49m0/aAOASChYs qGeeeUadO3dWeHi4dQ4AIHsxTgCAqzh06JDGjh2rKVOm6JdffrHOAYAcU7p0aUVFRalbt2669957 rXMAAHeOcQIAnFlqaqq+++47TZgwQcuXL1dGRoZ1EgDkGm9vbzVu3Fhdu3ZVs2bN5O3tbZ0EALg9 jBMA4IxiY2M1fPhwzZw5U/Hx8dY5AGCuUKFC6tSpk1599VWVL1/eOgcAcGsYJwDAWWRmZmrZsmX6 8ssvtXjxYk5JAMAf8Pb2VtOmTfXyyy+rYcOG8vT0tE4CANwY4wQAOLrjx4/ryy+/1DfffKOzZ89a 5wCA0wgKClKnTp3097//nY8kBQDHxjgBAI5q/fr1+vLLL/Xtt98qJSXFOgcAnFaePHnUpk0bvfzy y3rwwQetcwAAv8c4AQCOJDExUWPHjtXIkSN18OBB6xwAcDmVKlXSyy+/rBdeeEEBAQHWOQCA/8M4 AQCOIC4uTqNHj9aXX37J1Q0AyAUlSpTQK6+8ohdffFF33323dQ4AuDvGCQCwtHLlSg0bNkyLFy9W ZmamdQ4AuB0fHx+1aNFCr732murWrWudAwDuinECAHJbWlqapk+fruHDh2vbtm3WOQCAfwsNDdWr r76qdu3aycfHxzoHANwJ4wQA5Jbk5GR98803GjRokA4fPmydAwD4E/fdd5/eeustdezYUX5+ftY5 AOAOGCcAIKfFx8dr9OjRGjp0KO9JAIATKVGihN544w1169ZN+fPnt84BAFfGOAEAOeXEiRMaMmSI xo0bp8TEROscAMBtypcvn7p27aq33npLpUqVss4BAFfEOAEA2S02NlYDBw7UjBkzlJaWZp0DAMgm vr6+evrpp/XOO+8oODjYOgcAXAnjBABklz179uiTTz7R7NmzlZGRYZ0DAMgh3t7eeuaZZ/TOO++o SpUq1jkA4AoYJwDgTu3atUsffvih5s2bJ/6RCgDuw9PTU23atNH777+vqlWrWucAgDNjnACA27Vm zRr961//0oYNG6xTAADGGjZsqI8//lh16tSxTgEAZ5TlaV0AAM5m9erVioiI0KOPPsowAQCQJK1c uVJhYWFq1KiRoqOjrXMAwOkwTgDATVq1apUiIiLUoEEDRgkAwB9auXKlwsPD1ahRI23evNk6BwCc Btc6AOAGdu7cqffff18LFy60TgEAOBEPDw+1aNFC/fr1400KAPhrvDkBAH9m586deuutt7Ry5Urr FACAE/Pw8FCTJk308ccfq0aNGtY5AOCIGCcA4H8dPHhQ7733nr799ltlZmZa5wAAXISnp6dat26t /v37q3z58tY5AOBIGCcA4D9++eUXffjhh5owYYLS0tKscwAALsrHx0ddunRRnz59FBQUZJ0DAI6A cQIAzp07pw8++EATJ05UamqqdQ4AwE0EBASoe/fuevvtt1W4cGHrHACwxDgBwH2lpaVp1KhR6tev ny5cuGCdAwBwU4GBgerdu7defPFFeXt7W+cAgAXGCQDuJzMzU2PHjlW/fv106tQp6xwAACRJZcqU Ub9+/dSxY0d5eHhY5wBAbmKcAOBe1q1bpzfffFNbt261TgEA4A/VqVNHn332mR566CHrFADILVme 1gUAkBsOHz6sZs2aqX79+gwTAACHFhMTo4cfflht27bV0aNHrXMAIFcwTgBwaZcvX1aPHj0UHBys hQsXWucAAHBTsrKyNHv2bFWuXFk9evRQfHy8dRIA5CiudQBwSVlZWZo4caLee+89nTlzxjoHAIA7 UqpUKQ0YMEBRUVG8RwHAFfHmBADX8+OPP+rVV1/Vzp07rVMAAMhWISEh+uKLL1S3bl3rFADITrw5 AcB1nDx5Us2aNVO9evUYJgAALmn79u2KiIhQp06ddO7cOescAMg2jBMAnF5KSor69OnDuxIAALeQ lZWlyZMnq3Llyho4cKBSU1OtkwDgjnGtA4BTW7JkiXr06KGDBw9apwAAYKJSpUoaPny4IiMjrVMA 4HZxrQOAczp9+rTat2+vJk2aMEwAANzazz//rMaNG6tLly5c9QDgtDg5AcCppKam6pNPPtGnn36q pKQk6xwAABxKQECAPvjgA/3zn/+Ul5eXdQ4A3Cw+rQOA89i0aZNeeukl7d692zoFAACH9sADD+ir r75SnTp1rFMA4GZwrQOA47tw4YI6deqkhx56iGECAICbsHPnTj344IN68cUXlZCQYJ0DADfEOAHA oU2aNEnVqlXT5MmTxUEvAABuXmZmpsaMGaPKlStr0qRJ1jkA8Je41gHAIZ06dUrdu3fX/PnzrVMA AHAJbdu21dChQxUUFGSdAgD/i2sdABxLZmamhg8fripVqjBMAACQjWbNmqXg4GCNHj2a04gAHA4n JwA4jO3bt6tr167atWuXdQoAAC4tPDxc48aNU5UqVaxTAEDi5AQAR5CamqpevXopPDycYQIAgFyw efNmPfDAA+rVq5dSU1OtcwCAkxMAbG3ZskVdu3bV3r17rVMAAHBLNWrU0Pjx4xUaGmqdAsB9cXIC gI3k5GT16tVLdevWZZgAAMDQ7t27FR4erl69eiklJcU6B4Cb4uQEgFzH2xIAADimkJAQTZgwQTVq 1LBOAeBeODkBIPekpaXpgw8+UFhYGMMEAAAOaPv27apVq5b69eun9PR06xwAboSTEwByxc6dO9Wh QwfFxsZapwAAgJtQvXp1TZkyhVMUAHIDJycA5KzMzEwNHDhQ4eHhDBMAADiRPXv2KCwsTAMHDlRm ZqZ1DgAXx8kJADnmyJEj6tixozZu3GidAgAA7kDDhg01YcIElSpVyjoFgGvi5ASAnDFmzBjVrFmT YQIAABewcuVKVa9eXVOnTrVOAeCiODkBIFslJCSoR48emjhxonUKAADIAd26ddNnn32mvHnzWqcA cB1ZjBMAss2mTZvUvn17HT161DoFAADkoIoVK2ratGmqVauWdQoA18C1DgB3Li0tTT169NBDDz3E MAEAgBs4ePCgwsPD1adPH2VkZFjnAHABnJwAcEcOHz6sqKgoxcTEWKcAAAAD9evX15QpU3gsE8Cd 4OQEgNs3bdo0hYSEMEwAAODG1q5dq2rVqmnmzJnWKQCcGOMEgFt29epVderUSe3bt1dCQoJ1DgAA MBYfH69nnnlGnTp10rVr16xzADghrnUAuCX79u1Tu3bttHv3busUAADggEJDQzV9+nRVrFjROgWA 8+BaB4CbN27cONWuXZthAgAA/Klt27YpJCREkydPtk4B4EQ4OQHghuLj49W5c2fNnz/fOgUAADiR Dh06aPTo0cqbN691CgDHlsU4AeAv7d69W23atNGBAwesUwAAgBOqXLmyZs+erWrVqlmnAHBcXOsA 8OfGjh2rsLAwhgkAAHDbfvrpJz344IOaPn26dQoAB8Y4AeB3rl27pk6dOumFF15QcnKydQ4AAHBy V69eVVRUlF588UWlpKRY5wBwQFzrAPAbJ06cUNu2bRUdHW2dAgAAXFBERIRmzJihkiVLWqcAcBxc 6wDw/y1ZskQhISEMEwAAIMesX79eISEh+uGHH6xTADgQxgkAyszMVK9evdSkSRNduHDBOgcAALi4 uLg4NWrUSL169VJmZqZ1DgAHwLUOwM3Fx8crKipKixcvtk4BAABuqFmzZpoyZYoKFChgnQLADh8l Crizn376SU8++SSfxgEAAExVr15d3333ne655x7rFAA2eHMCcFfff/89HxMKAAAcwp49e1S7dm2t XLnSOgWAEcYJwA2NHDlSrVu3VkJCgnUKAACAJOnChQtq0qSJvv76a+sUAAa41gG4kWvXrum5557T jBkzrFMAAAD+VPv27fX111/L39/fOgVA7uDNCcBdnDt3Tq1bt9aGDRusUwAAAG6ofv36mjNnju6+ +27rFAA5j3ECcAdbt25V8+bNdebMGesUAACAm1ayZEktWLBAISEh1ikAchYPYgKubt68eXrkkUcY JgAAgNP55ZdfVL9+fX333XfWKQByGOME4ML69Omj1q1bKzEx0ToFAADgtly9elWtW7fWwIEDrVMA 5CCudQAuKDk5WV26dOHhSwAA4FKef/55jRo1Sj4+PtYpALIXb04Aruby5ctq27atVqxYYZ0CAACQ 7Zo0aaLp06crf/781ikAsg/jBOBK9u/fr6ZNm+rIkSPWKQAAADmmQoUKWrhwoSpVqmSdAiB78CAm 4Co2btyoevXqMUwAAACXd+jQIdWvX19bt261TgGQTRgnABcwbdo0Pfroo/r111+tUwAAAHLFuXPn FBERoVmzZlmnAMgGjBOAk+vTp486dOig1NRU6xQAAIBclZKSoqioKI0cOdI6BcAd4s0JwEllZmbq 9ddf1/Dhw61TAAAAzL366qv6/PPP5enJz18BJ8SDmIAzSktL03PPPafJkydbpwAAADiM5557TqNH j5a3t7d1CoBbwzgBOJtff/1VzZs316ZNm6xTAAAAHE6DBg00d+5cFSxY0DoFwM1jnACcyYkTJ/T4 449r37591ikAAAAOq1q1alq8eLFKly5tnQLg5jBOAM7iwIEDeuyxx3Ts2DHrFAAAAIdXvnx5LVu2 TOXLl7dOAXBjWbwWAziBjRs3Kjw8nGECAADgJh0+fFh16tTR5s2brVMA3ATGCcDBLV26VJGRkbp0 6ZJ1CgAAgFO5ePGiGjVqpBUrVlinALgBxgnAgc2aNUtPPvmkEhMTrVMAAACc0tWrV9WsWTPNmTPH OgXAX2CcABzUpEmT1L59e6WmplqnAAAAOLWUlBRFRUVpxowZ1ikA/gTjBOCAevXqpWeffVbp6enW KQAAAC4hLS1NUVFRGjRokHUKgD/Ap3UADiQzM1OvvfaavvjiC+sUAAAAl/X222+rf//+8vDwsE4B 8H/4KFHAUWRlZekf//iHRo0aZZ0CAADg8l5//XUNGTKEgQJwDIwTgCNIT09Xx44duQcJAACQi7p2 7aqvv/5anp7cdgeMMU4A1tLT09W+fXvNmjXLOgUAAMDtPPPMM5o8ebK8vb2tUwB3xjgBWPrPw0x8 tBUAAICdtm3baurUqQwUgJ0szi8BRtLT09WpUyeGCQAAAGOzZs1S165dlZGRYZ0CuC1OTgAGkpOT 1apVKy1ZssQ6BQAAAP/WtGlTzZkzR35+ftYpgLvh5ASQ25KSktSyZUuGCQAAAAezcOFCtWrVSsnJ ydYpgNthnAByUUpKitq2baulS5dapwAAAOAPLF68WFFRUUpNTbVOAdwK1zqAXJKcnKzmzZtrxYoV 1ikAAAC4gcjISH333XfKkyePdQrgDrjWAeSG5ORktWjRgmECAADASSxfvlytWrVSSkqKdQrgFhgn gByWkpKiVq1aadmyZdYpAAAAuAVLlixRVFSU0tPTrVMAl8c4AeSg9PR0RUVF8fglAACAk5o7d67a tWvHQAHkMMYJIIdkZmbq+eef19y5c61TAAAAcAfmzJmjV155RTzXB+QcHsQEckBGRoaioqI0a9Ys 6xQAAABkk86dO2vcuHHy9ORnvEA240FMILv958QEwwQAAIBrmThxorp168YJCiAHME4A2ezNN9/U xIkTrTMAAACQA8aNG6d33nnHOgNwOYwTQDZ67733NHToUOsMAAAA5KCBAweqb9++1hmAS+HNCSCb DBo0SD179rTOAAAAQC757LPP9Prrr1tnAK4gi3ECyAZjx47l/iEAAICb8fDw0Lhx49SlSxfrFMDZ MU4Ad2rRokVq2bKl0tLSrFMAAACQy3x9ffX9998rMjLSOgVwZowTwJ1YtmyZmjdvrtTUVOsUAAAA GPH399eSJUtUv3596xTAWTFOALdr48aNatSoka5du2adAgAAAGMFChTQqlWrFBoaap0COCPGCeB2 7Nu3T/Xq1dOFCxesUwAAAOAgAgMDtW7dOlWuXNk6BXA2jBPArTpz5ozq1q2rY8eOWacAAADAwVSo UEEbNmxQ0aJFrVMAZ5LlaV0AOJNLly6pYcOGDBMAAAD4Q4cOHdLf/vY3Xb582ToFcCqME8BNSk5O VosWLbRv3z7rFAAAADiwvXv3qmXLlkpJSbFOAZwG4wRwEzIyMvT0009r3bp11ikAAABwAmvWrFHn zp2VmZlpnQI4BcYJ4Ca8++67WrBggXUGAAAAnMiMGTPUt29f6wzAKfAgJnADgwYNUs+ePa0zAAAA 4KSGDh2qHj16WGcAjoxP6wD+yqRJk9S5c2fxPxMAAADcLk9PT82cOVNPPfWUdQrgqBgngD+zYsUK NWnSRGlpadYpAAAAcHJ58uTR8uXL9fDDD1unAI6IcQL4IwcPHlR4eLguXrxonQIAAAAXERgYqOjo aN1zzz3WKYCjyeJBTOB/xMXFKTIykmECAAAA2er8+fNq2LChfv31V+sUwOEwTgD/JSUlRa1atdKx Y8esUwAAAOCCjhw5otatWys1NdU6BXAojBPAf/nHP/6hDRs2WGcAAADAha1bt05vvvmmdQbgUBgn gH/7+OOPNXbsWOsMAAAAuIERI0ZoyJAh1hmAw+BBTEDS9OnT1b59ez4yFAAAALnG09NTc+fO1ZNP PmmdAljj0zqA6OhoPfroo0pKSrJOAQAAgJvJly+f1q9fr/vvv986BbDEOAH3dvLkSdWpU0dnz561 TgEAAICbKlGihGJiYlSyZEnrFMAKHyUK95WSkqI2bdowTAAAAMDU6dOn1a5dO6WlpVmnAGYYJ+C2 unbtqujoaOsMAAAAQD/++KOef/556wzADOME3NLgwYM1bdo06wwAAADgukmTJmnEiBHWGYAJ3pyA 21mzZo0iIyM5NgcAAACH4+vrq9WrV6tu3brWKUBu4kFMuJdDhw6pTp06unTpknUKAAAA8IeKFCmi LVu26J577rFOAXILD2LCfSQkJKhZs2YMEwAAAHBoFy5cUKtWrXTt2jXrFCDXME7ALWRlZenZZ5/V Tz/9ZJ0CAAAA3NDOnTv1wgsvWGcAuYZxAm7ho48+0vz5860zAAAAgJs2bdo0DR482DoDyBW8OQGX t2LFCj3++OPKyMiwTgEAAABuiY+Pj1auXKl69epZpwA5iQcx4dqOHj2q0NBQ3pkAAACA0ypatKi2 b9+ukiVLWqcAOYUHMeG6UlJS9PTTTzNMAAAAwKnFxcXpqaeeUmpqqnUKkGMYJ+Cy3n33XW3ZssU6 AwAAALhjmzdvVt++fa0zgBzDtQ64pMmTJ6tTp07WGQAAAEC28fDw0Jw5c9SqVSvrFCC78eYEXM++ ffsUFhamq1evWqcAAAAA2apQoULaunWrypcvb50CZCfenIBrSUxMVNu2bRkmAAAA4JIuX76sVq1a KSkpyToFyFacnIBLiYqK0vTp060zAMAh5M+fXyVKlFDRokVVsGBBFSpU6He/FipUSH5+fgoICFD+ /Pnl6+urggULyt/fX3ny5LmlP19aWpquXr2qxMREpaam6tKlS0pJSdG1a9d05coVxcfH6/Lly7/7 NS4uTufOndOFCxdy6K8EALieF154QWPGjLHOALIL1zrgOr755ht17tzZOgMAcpyPj49KliypUqVK qWzZsipVqpRKlSql0qVLKzAwUEFBQSpevLj8/f2tU29Jamqq4uLidOZTg0fYAAAgAElEQVTMGZ07 d05nzpzRqVOndPz4cZ08eVKnTp3SiRMnlJycbJ0KAA5h+vTpeuaZZ6wzgOzAOAHXsGvXLoWHh/Mb VgAuw8/PT+XLl9d9992nihUr/uYrKChInp7uezMzLi5OR44c0c8//6yDBw/+5otrfQDcSd68ebV1 61ZVrlzZOgW4U4wTcH7Xrl1T7dq1tW/fPusUALhlfn5+qly5sqpUqaJq1apd//Wee+6Rl5eXdZ7T OXnypPbt26e9e/f+5ldGCwCuqnr16oqJibnlq3iAg2GcgPN76aWX9NVXX1lnAMANBQQE6IEHHlBo aKhq1aqlWrVq6b777pO3t7d1mkvLysrSsWPHtG3bNm3duvX6r5cvX7ZOA4Bs0aNHDw0dOtQ6A7gT jBNwbgsWLFCLFi3Ef40BOBpvb29Vq1ZN4eHhqlOnjmrVqqXg4GCGCAdy+PBhbd26VTExMYqOjtb2 7dt5/R6AU/L09NSSJUsUGRlpnQLcLsYJOK9jx46pZs2a/OQLgEMoXry4Hn74YYWFhSksLEwhISEK CAiwzsItSE9P1+7duxUdHa3o6GitX79ehw8fts4CgJty9913a9euXSpRooR1CnA7GCfgnNLS0hQR EaGYmBjrFABuKigoSPXr17/+FRwcbJ2EHHDq1CmtWbNGa9as0dq1a3Xo0CHrJAD4U/Xr19cPP/zA m0VwRowTcE7vv/++PvroI+sMAG4kICBAjzzyiBo3bqxGjRrxMrqb+uWXX7Ry5UotWbJEK1as0MWL F62TAOA3PvroI7333nvWGcCtYpyA8/nhhx8UGRmpzMxM6xQALq5SpUp6/PHH1bhxY9WvX5+X0PEb GRkZiomJ0ZIlS7RkyRJt376d/28CYM7b21tr1qzRQw89ZJ0C3ArGCTiX+Ph43X///Tp+/Lh1CgAX lD9/fjVu3FhNmzZV48aNVbRoUeskOJHExEStWrVKCxcu1IIFC3T27FnrJABuqkKFCtqxY4fy5ctn nQLcLMYJOJfWrVtr7ty51hkAXEiRIkXUtGlTNW3aVJGRkSpQoIB1ElxASkqK1q5de32oYFQHkNs6 d+6sCRMmWGcAN4txAs5j2rRpat++vXUGABdQokQJPfXUU2rTpo3q1q0rT09P6yS4uNjYWM2ePVsz Z87UTz/9ZJ0DwE3MmjVLbdq0sc4AbgbjBJzDmTNnVL16dV24cME6BYCTKly4sFq1aqU2bdqoQYMG 8vHxsU6CG8rKylJ0dLRmzZql2bNn69SpU9ZJAFxYsWLFtGfPHgUGBlqnADfCOAHHl5mZqcjISP3w ww/WKQCcTL58+dSyZUt16tRJjz76KB+tBoezbds2TZo0STNmzFBcXJx1DgAXFBkZqaVLl8rDw8M6 BfgrjBNwfEOHDtXrr79unQHASXh4eKhu3brq0KGD2rZtq7vuuss6CbihpKQkLViwQFOnTtXSpUuV lpZmnQTAhYwaNUovv/yydQbwVxgn4Nj27Nmj2rVrKyUlxToFgIMLCgrSs88+qy5duui+++6zzgFu 27lz5zRp0iSNHz+e9ykAZIuAgABt375dlSpVsk4B/gzjBBxXamqqwsPDtWPHDusUAA4qICBAHTp0 UMeOHXnYEi4pNjZWkydP1tixY3l3CcAdCQ0N1aZNm3hzCY6KcQKOq2/fvurTp491BgAHVLp0aXXr 1k3PP/+8ihcvbp0D5LgrV65oypQp+vLLL7Vnzx7rHABO6pNPPtE777xjnQH8EcYJOKYtW7bowQcf VEZGhnUKAAfh7e2tli1bqlu3bmrQoAGnJOC2tm3bpjFjxmjq1KlKTEy0zgHgRLy9vbV582aFhoZa pwD/i3ECjiclJUU1a9bU/v37rVMAOID8+fOrS5cueuWVV7grC/yXc+fOaezYsRo1apROnz5tnQPA Sdx///3asmUL1zvgaLL4sRMcTv/+/RkmAKhcuXIaMmSITp48qWHDhjFMAP+jWLFieu+993T06FFN mjRJNWvWtE4C4AR27dqlQYMGWWcAv8PJCTiUffv2KSQkhE/nANyUh4eHmjRpoh49euhvf/sbn8kO 3KLt27dr6NChmjFjBh9HCuBP+fv7a+fOnXy6FRwJ1zrgONLS0lSnTh3t3LnTOgWAgSeeeELvvfee 6tata50COL2ff/5ZAwYM0NSpUxkpAPyhsLAwbdiwQV5eXtYpgMS1DjiSwYMHM0wAbsbT01MtW7bU tm3btGjRIoYJIJtUqlRJEyZM0IEDB/TSSy/Jz8/POgmAg4mOjtawYcOsM4DrODkBhxAbG6vQ0FCu cwBuwsvLS08//bTeffddVa1a1ToHcHm//PKLBg8erDFjxujatWvWOQAcREBAgHbu3KmKFStapwBc 64C9jIwMPfTQQ4qOjrZOAZDD/Pz89OKLL+qNN95Q2bJlrXMAt3Px4kUNHz5cQ4cOVXx8vHUOAAdQ v359rV69mneeYI1rHbA3evRohgnAxXl6eqpdu3basWOHhg0bxjABGLnrrrvUp08f7d+/Xz169JC/ v791EgBja9eu1fjx460zAK51wNbRo0dVrVo1jpgCLsrDw0Nt2rRRnz59FBwcbJ0D4H+cPn1aAwYM 0FdffaXU1FTrHABGChQooH379qlkyZLWKXBfnJyArb///e8ME4CLatOmjWJjYzVz5kyGCcBBlShR QsOHD9eRI0fUrVs3Xu0H3FRCQoJee+016wy4OU5OwMz8+fPVsmVL6wwA2axq1aoaMGCAmjZtap0C 4BZt3bpVPXv21OrVq61TABhYunSpHnvsMesMuCcexISNy5cvKzg4WGfPnrVOAZBNSpQooQ8//FCd O3fmp6+Ak1u8eLF69uyp2NhY6xQAuahMmTKKjY1Vvnz5rFPgfrjWARvvvvsuwwTgIgoUKKChQ4fq 6NGjeu655xgmABfwxBNPaM+ePZo1axYP2AJu5MSJE+rdu7d1BtwUJyeQ6zZs2KB69eopMzPTOgXA HfDw8FD79u31ySefqHTp0tY5AHJIfHy8Pv74Yw0fPlwpKSnWOQBymJeXl2JiYhQSEmKdAvfCtQ7k rrS0NIWEhGjv3r3WKQDuQN26dTV06FDVrl3bOgVALjly5Ih69uypb7/91joFQA6rVauWNm/ezGlI 5CaudSB3DR48mGECcGJlypTRggULtGHDBoYJwM3ce++9mjNnjtatW6caNWpY5wDIQVu3btWIESOs M+BmODmBXHP8+HFVrVpViYmJ1ikAbpGfn5969eqlnj17KiAgwDoHgLH09HSNHDlSvXv3Vnx8vHUO gBxQsGBB7d+/X0FBQdYpcA+cnEDu6d69O8ME4ITq1q2rTZs2qU+fPgwTACRJ3t7e6tGjh/bs2aOn nnrKOgdADoiPj9frr79unQE3wskJ5IrFixerSZMm1hkAbkGRIkX05Zdfqk2bNtYpABzcunXr9MIL L+jAgQPWKQCy2apVq/Too49aZ8D18SAmcl5aWpruv/9+7d+/3zoFwE3q2LGjBg0apGLFilmnAHAS SUlJ6tu3rwYPHqyMjAzrHADZpGbNmtqyZQuPYyKnca0DOW/IkCEME4CTuPvuuzVlyhRNmjSJYQLA LfH399eAAQO0atUqVaxY0ToHQDbZsWOHRo4caZ0BN8DJCeSoEydOKDg4WNeuXbNOAXADTz/9tL74 4gsFBgZapwBwcklJSerdu7c+++wzTlEALqBAgQL6+eefVbx4cesUuC5OTiBn9erVi2ECcHClSpXS kiVLNGPGDIYJANnC399fn376qbZv366QkBDrHAB3KCEhQf/617+sM+DiODmBHLNmzRoezwEcXLdu 3fTpp5+qYMGC1ikAXFRaWpo+++wzffDBB0pNTbXOAXCbPD09tXHjRoWFhVmnwDXxICZyRnp6uh54 4AHFxsZapwD4A0WKFNGIESP0zDPPWKcAcBMbN25Uly5d+EQPwImFhoYqJiZGnp4cwEe241oHcsa4 ceMYJgAH1bx5c+3fv59hAkCuqlu3rnbt2qW3336bb2wAJ7Vt2zZNnTrVOgMuipMTyHYXL15UhQoV dOnSJesUAP8lX758GjlypDp16mSdAsDNrVy5Us8++6xOnz5tnQLgFhUtWlQHDx5UgQIFrFPgWjg5 gez3ySefMEwADiY0NFRbt25lmADgEBo2bKhdu3bpySeftE4BcIvi4uI0ePBg6wy4IE5OIFsdP35c lStXVnJysnUKgH/r3r27Pv30U+XJk8c6BQB+IysrS0OHDlWvXr14LBNwIvny5dOBAwcUFBRknQLX wckJZK+33nqLYQJwEMWKFdOKFSs0fPhwhgkADsnDw0Ovv/66duzYoapVq1rnALhJV69eVa9evawz 4GI4OYFss379ej388MPWGQAkRUREaPr06SpVqpR1CgDclCtXrujll1/msT3ASXh6eio6Olq1atWy ToFr4OQEskdWVpbefPNN6wzA7Xl6eqp3795avXo1wwQAp5I/f35NmTJF33zzjQICAqxzANxAZmam /vnPf1pnwIVwcgLZYsaMGWrXrp11BuDWChQooAkTJqhVq1bWKQBwR7Zs2aI2bdro+PHj1ikAbmD+ /Pk8bovskMU4gTuWnJys4OBgHTt2zDoFcFthYWGaPXu2SpcubZ0CANkiISFBzz33nObMmWOdAuAv lC9fXvv27ZOvr691Cpwb1zpw54YPH84wARh69dVXtXbtWoYJAC6lQIECmjVrloYOHSofHx/rHAB/ 4vDhwxo9erR1BlwAJydwRy5fvqzy5cvr4sWL1imA2/H19dXnn3+uV155xToFAHLUkiVL1KFDB36/ ATiookWL6vDhw8qXL591CpwXJydwZ/r3789vFAADgYGB+uGHHxgmALiFxx9/XDExMapSpYp1CoA/ EBcXp0GDBllnwMlxcgK37dy5cypfvrwSExOtUwC3Urt2bc2fP18lSpSwTgGAXJWYmKiOHTtq3rx5 1ikA/kfBggV1+PBhFSlSxDoFzomTE7h9ffr0YZgAcln79u21bt06hgkAbilv3rz69ttv1bt3b3l4 eFjnAPgv8fHx+uijj6wz4MQ4OYHbcujQIVWpUkVpaWnWKYDb6Nmzp/r37y9PT3ZlABg3bpxeeeUV paamWqcA+Dc/Pz8dOHBAZcqUsU6B8+HkBG5P7969GSaAXOLj46OxY8dq4MCBDBMA8G/PPfecli1b psKFC1unAPi3lJQU9e3b1zoDToqTE7hlO3fuVGhoqDIzM61TAJcXGBio7777Tg8++KB1CgA4pCNH jqhJkyb66aefrFMASPLy8tKePXsUHBxsnQLnwskJ3Lr333+fYQLIBZUqVdKmTZsYJgDgL9x7773a uHGjHnnkEesUAJIyMjL0wQcfWGfACXFyArdkw4YNioiIsM4AXF6dOnW0YMECFStWzDoFAJxCUlKS OnXqpDlz5linAG7Pw8NDmzZtUlhYmHUKnAcnJ3Br+vTpY50AuLwnnnhCq1evZpgAgFvg7++vmTNn 6tVXX7VOAdxeVlYWn9yBW8Y4gZu2evVqrVy50joDcGkvvviiFixYoICAAOsUAHA6np6eGjZsmIYP H84DwoCxhQsXav369dYZcCL8Uxs3jZd3gZw1YMAAjR49Wl5eXtYpAODUunfvrsmTJ8vX19c6BXBr H3/8sXUCnAhvTuCm8NYEkHM8PT01fPhw/f3vf7dOAQCXsmrVKrVs2VIJCQnWKYBb8vDw0JYtWxQa GmqdAsfHmxO4Oe+//751AuCSPD09NWbMGIYJAMgBDRo00MKFC1WwYEHrFMAtZWVl8ckduGmcnMAN rV27lo/nAnKAt7e3Jk6cqPbt21unAIBL27Ztmxo3bqxff/3VOgVwS9HR0apTp451BhwbJydwYx9+ +KF1AuBy8uTJo++++45hAgByQWhoqGJiYlS+fHnrFMAt8f0EbgYnJ/CX1q1bp/r161tnAC7F399f 8+bN02OPPWadAgBu5cyZM2rUqJFiY2OtUwC3w+kJ3AAnJ/DX+vXrZ50AuBR/f3/NnTuXYQIADAQF BWn58uWqXLmydQrgdvi+AjfCyQn8qR9//FH16tWzzgBcRt68ebVgwQI1aNDAOgUA3NrZs2fVoEED 7d+/3zoFcCsxMTGqXbu2dQYcEycn8OcGDx5snQC4jCJFimjt2rUMEwDgAIoXL64NGzaoVq1a1imA W+H7C/wVTk7gD+3YsUMhISHWGYBLCAwM1PLly/XAAw9YpwAA/sulS5cUGRmprVu3WqcAbsHDw0N7 9+5VlSpVrFPgeDg5gT82bNgw6wTAJRQpUkTLli1jmAAAB1S4cGEtWrRIVatWtU4B3EJWVpaGDx9u nQEHxckJ/M7hw4dVqVIlZWRkWKcATu2uu+7SmjVrVL16desUAMBf+PXXX1WvXj3eoABygY+Pjw4f PqzSpUtbp8CxcHICvzd06FCGCeAO5cuXT4sXL2aYAAAncPfdd2vFihUqV66cdQrg8tLS0jg9gT/E yQn8xvnz51WuXDldu3bNOgVwWnny5NGiRYt4/BIAnMyhQ4f08MMP6+zZs9YpgEvLnz+/jh8/rsKF C1unwHFwcgK/9cUXXzBMAHfA29tbM2bMYJgAACdUoUIFLV++XHfddZd1CuDSrly5olGjRllnwMFw cgLXXblyRWXLltWlS5esUwCn5OnpqYkTJ6pjx47WKQCAO7B582Y1atRIV69etU4BXFbRokV17Ngx +fv7W6fAMXByAv/f119/zTAB3IFhw4YxTACACwgPD9e8efPk5+dnnQK4rLi4OE2YMME6Aw6EkxOQ JKWnp6tChQo6fvy4dQrglN5++20NGDDAOgMAkI2mTJmiZ599VpmZmdYpgEuqWLGifvrpJ3l68jNz cHIC/zZr1iyGCeA2vfnmmwwTAOCCOnTooPHjx8vDw8M6BXBJBw8e1Lx586wz4CAYJyBJ+uyzz6wT AKfUrl07ffrpp9YZAIAc8uyzz+rDDz+0zgBc1rBhw6wT4CC41gHFxMQoLCzMOgNwOs2bN9fcuXPl 5eVlnQIAyGFvvPGGPv/8c+sMwCXt3LlT999/v3UGbHGtA9KQIUOsEwCnU7VqVX3zzTcMEwDgJgYN GqQmTZpYZwAuie9HIHFywu2dOHFC5cuXV3p6unUK4DTKlCmjTZs2qUSJEtYpAIBclJSUpL/97W/a tGmTdQrgUnx8fHT06FGVLFnSOgV2ODnh7kaNGsUwAdyCQoUKafHixQwTAOCG/P39tWDBAlWoUME6 BXApaWlp+uqrr6wzYIyTE24sMTFRpUuX1qVLl6xTAKfg5eWlefPmqVmzZtYpAABDe/bsUUREhBIS EqxTAJcRGBio48ePy9/f3zoFNjg54c4mTZrEMAHcgiFDhjBMAABUvXp1zZkzR97e3tYpgMs4f/68 pk2bZp0BQ5yccFOZmZkKDg7WgQMHrFMAp9ChQwdNnjzZOgMA4EAGDBigd955xzoDcBnVqlXT7t27 5eHhYZ2C3MfJCXe1evVqhgngJtWvX1/jx4+3zgAAOJhevXrphRdesM4AXMbevXv1448/WmfACOOE m/riiy+sEwCnUKZMGc2cOVM+Pj7WKQAABzRy5EjVr1/fOgNwGSNGjLBOgBGudbih06dPq2zZsnxK B3ADfn5+WrdunerUqWOdAgBwYL/88otq166tM2fOWKcATs/X11cnT55U0aJFrVOQu7jW4Y6++uor hgngJowfP55hAgBwQyVLltT8+fPl5+dnnQI4vdTUVI0ZM8Y6AwY4OeFm0tLSVLZsWZZ94Aa6devG 520DAG7JiBEj1L17d+sMwOmVLl1aR48elZeXl3UKcg8nJ9zNggULGCaAG6hXrx73HQEAt+wf//iH nn/+eesMwOmdPHlSS5Yssc5ALmOccDOjR4+2TgAcWsmSJTVr1iwewAQA3JYRI0aodu3a1hmA0+P7 FvfDtQ43cuDAAVWuXFn8LQf+mLe3t1asWKFHHnnEOgUA4MSOHj2q0NBQXbp0yToFcFqenp46fPiw ypUrZ52C3MG1DncyZswYhgngL/Tv359hAgBwx+655x5NnTpVnp78Vhu4XZmZmRo7dqx1BnIRJyfc RHJyskqVKqULFy5YpwAOqUWLFpo7d648PDysUwAALuLdd99V//79rTMAp1W8eHEdP35cvr6+1inI eZyccBfz5s1jmAD+RKlSpTRmzBiGCQBAturbt68efPBB6wzAaZ09e1aLFi2yzkAuYZxwE19//bV1 AuCQfH19NXfuXAUGBlqnAABcjI+Pj+bNm6fixYtbpwBOi+9j3AfjhBs4fvy41q5da50BOKS+ffvy qjoAIMcUK1ZMY8eO5XQecJtWrFihM2fOWGcgFzBOuIHx48crMzPTOgNwOE888YTefvtt6wwAgItr 0qSJ3njjDesMwCmlp6drwoQJ1hnIBTyI6eIyMjJUrlw5nTp1yjoFcCjFihXT7t27VbRoUesUAIAb SElJUXh4uHbu3GmdAjidihUr6ueff+YEkmvjQUxXt2rVKoYJ4A+MGDGCYQIAkGv8/Pz0zTffKE+e PNYpgNM5ePCgfvzxR+sM5DDGCRfHESjg91566SU99dRT1hkAADdTo0YNDRkyxDoDcEp8X+P6uNbh wi5duqQSJUooOTnZOgVwGBUqVNCOHTuUL18+6xQAgBvKysrS448/rmXLllmnAE4lb968OnPmjPLn z2+dgpzBtQ5XNn36dIYJ4L/4+Pho5syZDBMAADMeHh6aPHkyVwuBW5SYmKhZs2ZZZyAHMU64MI4+ Ab/19ttvKyQkxDoDAODmAgMDNXr0aOsMwOnw/Y1r41qHi9q/f7+qVKlinQE4jKpVq2rbtm3y8/Oz TgEAQJLUunVrzZ071zoDcBoeHh46dOiQ7r33XusUZD+udbiqKVOmWCcADsPX11fTpk1jmAAAOJRx 48apVKlS1hmA08jKytLkyZOtM5BDGCdcUFZWlmbOnGmdATiMd955RzVq1LDOAADgNwoVKqThw4db ZwBOhXcnXBfXOlzQpk2bVLduXesMwCGEhoZq8+bN8vb2tk4BAOAPderUiZ8GA7dg27ZtvCPmerjW 4YqmT59unQA4BB8fH40fP55hAgDg0D7//HMVK1bMOgNwGny/45oYJ1xMenq6ZsyYYZ0BOITXXnuN 6xwAAIdXpEgRDRo0yDoDcBrTpk1TZmamdQayGeOEi/nhhx90/vx56wzAXNWqVdWvXz/rDAAAbkrH jh3VokUL6wzAKZw+fVo//vijdQayGeOEi+GIEyB5eXlp3LhxfDoHAMCpjBo1SoULF7bOAJwC3/e4 HsYJF5KUlKR58+ZZZwDmunTporCwMOsMAABuSVBQkHr37m2dATiFWbNmKTU11ToD2YhxwoUsWrRI CQkJ1hmAqaCgIA0ZMsQ6AwCA29K9e3eFh4dbZwAO79KlS1q+fLl1BrIR44QL4TN/AWnAgAEqUKCA dQYAALfF09NTI0aMkJeXl3UK4PD4/se1eGRlZWVZR+DOJSYmKjAwUElJSdYpgJm6detq/fr18vDw sE4BAPw/9u48uqry3v/49+RkhAAJkDAEEiCMCZAQJkFQwxCZZBQBqQyVthZbvdXWhfpTW6ltrdrb 9rautl6qVBQr4sighFEGkRkhDJIACSGEAGEKJIEk5/dH1WspQ0LO2d+99/N+/dOuu1p9r9uDOc8n zz4HtfL9739fXnnlFe0MwNbq1asnRUVFEh4erp2C2vNxc8Illi1bxjABo4WEhMgrr7zCMAEAcIUX X3xRmjdvrp0B2Nr58+dl5cqV2hnwE8YJl+BKE0z34IMPSlJSknYGAAB+Ub9+fb4SG6iGBQsWaCfA T3iswwXKysokJiZGSkpKtFMAFc2aNZP9+/dLvXr1tFMAAPAbn88n/fv3l/Xr12unALYVFRUlx48f l9DQUO0U1A6PdbhBZmYmwwSMNnv2bIYJAIDreDweeemll3hkEbiOM2fOyOrVq7Uz4AeMEy6wcOFC 7QRATY8ePWT69OnaGQAABETv3r3l3nvv1c4AbI3zkDvwWIfDXbp0SZo0aSJnzpzRTgFULF++XAYO HKidAQBAwOTm5kqnTp348HPgGmJjY6WgoICv4HU2HutwutWrVzNMwFjjx49nmAAAuF5CQoLMmjVL OwOwraKiIlm3bp12BmqJccLhuMIEU4WEhMhzzz2nnQEAgCUeeeQRadq0qXYGYFuci5yPccLBqqqq 5KOPPtLOAFT86Ec/knbt2mlnAABgicjISEZ54Do++OAD4RMLnI3PnHCw9evXS79+/bQzAMs1bNhQ srOzJTo6WjsFAADLVFVVSY8ePWT79u3aKYAtbdq0SXr27KmdgZvDZ0442dKlS7UTABWPPvoowwQA wDhBQUHyi1/8QjsDsC3OR87GzQkH69Kli+zevVs7A7BUQkKC7Nu3T8LDw7VTAABQkZGRIZmZmdoZ gO2kpaXJ1q1btTNwc7g54VSHDh1imICRnnnmGYYJAIDRfvWrX4nH49HOAGxn+/btkp+fr52Bm8Q4 4VCLFy/WTgAs17VrV5k6dap2BgAAqnr06CHjx4/XzgBsx+fzyZIlS7QzcJMYJxxq0aJF2gmA5Z5+ +mkJCuIfWwAAzJ49W4KDg7UzANvhnORcfOaEA50/f15iYmKkvLxcOwWwTM+ePeXzzz/nGisAAF+Z MmWKvP7669oZgK1ERETIyZMnpU6dOtopqBk+c8KJMjMzGSZgnCeffJJhAgCAb3nyySfF6/VqZwC2 UlpaKqtWrdLOwE1gnHAgrirBNH369JFRo0ZpZwAAYCsdOnSQ6dOna2cAtsN5yZl4rMNhqqqqpFmz ZlJUVKSdAlhmyZIlMnToUO0MAABs5+DBg9KhQwepqKjQTgFso0WLFpKXl8etW2fhsQ6n2bFjB8ME jNK3b1+GCQAArqFNmzYyZcoU7QzAVvLz8yUrK0s7AzXEOOEwy/9YAAsAACAASURBVJYt004ALDVr 1iztBAAAbO2JJ57gmzuAK2RmZmonoIYYJxzmk08+0U4ALNO9e3e56667tDMAALC1xMREmTBhgnYG YCucm5yHz5xwkJKSEmnUqJFcunRJOwWwxPz582XixInaGQAA2N6uXbskJSVFeGsP/Et4eLgUFxdL RESEdgqqh8+ccJJPP/2UYQLGaN++vYwfP147AwAAR+jSpQvfbAV8S1lZmWzYsEE7AzXAOOEgPDcF kzz++ON8dzsAADXw85//nG8nAL6F85OzME44CH+4YIqWLVvK5MmTtTMAAHCUlJQUSU9P184AbIMv E3AWxgmH4OtwYJIf//jHEhISop0BAIDj/OxnP9NOAGxjx44dUlRUpJ2BamKccIgVK1ZoJwCWiIqK kgceeEA7AwAARxoyZIikpqZqZwC24PP5OEc5COOEQ/BIB0wxffp0qVevnnYGAACO9dBDD2knALbB Oco5+CpRB/D5fBIXFyfHjh3TTgECKiQkRLKzsyU+Pl47BQAAx7p06ZK0bt1aCgoKtFMAdfHx8ZKb m6udgRvjq0SdYN++fQwTMML48eMZJgAAqKXQ0FD58Y9/rJ0B2EJeXp7k5ORoZ6AaGCccYO3atdoJ gCV4IwUAgH/84Ac/kDp16mhnALawbt067QRUA+OEA6xevVo7AQi4Xr16yS233KKdAQCAK0RHR8u9 996rnQHYAucpZ2CccIBPP/1UOwEIuB/96EfaCQAAuMrDDz8sHo9HOwNQt2bNGu0EVAMfiGlzOTk5 0rZtW+0MIKBiYmIkLy9PwsPDtVMAAHCV/v37c6UdEJHc3Fw+28ze+EBMu2PlgwlmzJjBMAEAQADw taLAv/A5fvbHOGFz/CGC23m9Xpk5c6Z2BgAArjRmzBiJi4vTzgDU8ai8/TFO2Bw3J+B2Q4cOlRYt WmhnAADgSsHBwTJ9+nTtDEAd44T98ZkTNpaXlycJCQnaGUBAffTRRzJixAjtDAAAXCsvL0/atGkj lZWV2imAGo/HI8eOHZMmTZpop+Dq+MwJO+ORDrhdQkKCDBs2TDsDAABXi4+Pl4yMDO0MQJXP5+P2 hM0xTtjY+vXrtROAgJo6daoEBfGPIQAAAu3+++/XTgDUbdiwQTsB18GpwMY+//xz7QQgYIKCgnij BACARUaOHMl1dhhv48aN2gm4DsYJmyopKZGdO3dqZwABk5GRwXdNAwBgkZCQEJkyZYp2BqBq27Zt UlZWpp2Ba2CcsKmtW7fyoUVwNd4gAQBgrWnTpmknAKouXbok27dv187ANTBO2BRXjuBmUVFRMmbM GO0MAACMkpSUJGlpadoZgCrOWfbFOGFTfN4E3Ozuu++W8PBw7QwAAIwzdepU7QRAFecs+2KcsCkW PbjZ5MmTtRMAADDShAkTJDg4WDsDUMM5y74YJ2woLy9Pjh07pp0BBESrVq3k9ttv184AAMBITZo0 kTvvvFM7A1CTm5srBQUF2hm4CsYJG2LNg5tNnjxZPB6PdgYAAMb6zne+o50AqNq0aZN2Aq6CccKG eA4KbjZx4kTtBAAAjDZy5EiJjIzUzgDUcN6yJ8YJG2LJg1t17txZOnfurJ0BAIDR6tSpI3fddZd2 BqCGccKeGCdspqKiQrZu3aqdAQTEpEmTtBMAAIBwkxFm27Jli1RVVWln4AqMEzaTnZ0tpaWl2hlA QIwfP147AQAAiEhGRoY0aNBAOwNQcf78eTl06JB2Bq7AOGEz3JqAW3Xv3l3atWunnQEAAEQkPDxc Ro8erZ0BqNm2bZt2Aq7AOGEzO3bs0E4AAoJbEwAA2Ms999yjnQCo2b59u3YCrsA4YTP8IYFbjR07 VjsBAAB8y8CBA6V+/fraGYAKfilsP4wTNsMfErhRUlISj3QAAGAzYWFhMnToUO0MQAW/FLYfxgkb ycvLk1OnTmlnAH43ZswY7QQAAHAV/IyGqQoLC6WwsFA7A9/COGEjrHdwq5EjR2onAACAqxgyZIiE hoZqZwAqOH/ZC+OEjfCHA24UFxcnPXv21M4AAABX0aBBAxkwYIB2BqCCR+rthXHCRhgn4EajRo0S j8ejnQEAAK6BrxSFqTh/2QvjhI188cUX2gmA3w0fPlw7AQAAXMfw4cP5RQKMtHPnTu0EfIvH5/P5 tCMgcu7cOYmKihL+54Cb1KlTR06ePCkRERHaKQAA4DpSUlL4RRmM4/V65fz587xXtQcfNydsIisr i2ECrpOens4/7AEAcABuOsJElZWVsnfvXu0MfIVxwib27NmjnQD4HW90AABwBn5mw1Scw+yDccIm srKytBMAvxsyZIh2AgAAqIbevXtLdHS0dgZgOc5h9sE4YRMsdnCbjh07SuvWrbUzAABANQQHB8ug QYO0MwDLcQ6zD8YJm2Cxg9tkZGRoJwAAgBrgZzdMxDnMPhgnbODMmTOSn5+vnQH41cCBA7UTAABA DQwePFg7AbDcoUOH5MKFC9oZEMYJW+ATYuE2ISEhkp6erp0BAABqICEhQdq2baudAViqqqpK9u/f r50BYZywBZ5zgtv06tVL6tWrp50BAABqiM+dgIk4j9kD44QN8JwT3IZbEwAAONOAAQO0EwDLcR6z B8YJG9i3b592AuBXvLEBAMCZ0tPTxePxaGcAluI8Zg+MEzZw4MAB7QTAb8LDw6Vv377aGQAA4CY0 btxYkpOTtTMAS3EeswfGCWWXL1+Ww4cPa2cAftO9e3cJCwvTzgAAADepf//+2gmApXJycqSqqko7 w3iME8pyc3OloqJCOwPwm379+mknAACAWuBnOUxTVlYmR48e1c4wHuOEsuzsbO0EwK94QwMAgLPx sxwm4lymj3FCGX8I4CYej0f69OmjnQEAAGohPj5eWrZsqZ0BWConJ0c7wXiME8r4QwA3SUpKkkaN GmlnAACAWuL2BEzDuUwf44Qybk7ATfiWDgAA3IGf6TAN5zJ9jBPKWOjgJr169dJOAAAAftC7d2/t BMBSjBP6PD6fz6cdYarKykqpW7eulJeXa6cAfvHFF19Ily5dtDMAAEAtXbp0SRo0aCBlZWXaKYAl IiMj5fz589oZJvNxc0LR0aNHGSbgGpGRkZKUlKSdAQAA/CA0NFRSU1O1MwDLlJSUSFFRkXaG0Rgn FB08eFA7AfCb7t27i9fr1c4AAAB+wqMdMA3nM12ME4ry8vK0EwC/6dmzp3YCAADwox49emgnAJbK zc3VTjAa44Qixgm4CW9gAABwF37xANNwPtPFOKHoyJEj2gmA36SlpWknAAAAP2rXrp1ERkZqZwCW 4Xymi3FCEcsc3KJevXqSmJionQEAAPwoKChIunbtqp0BWIbzmS7GCUUsc3CLrl27SlAQ/zgBAMBt +MYOmITzmS5OE4p48cMteOMCAIA7paSkaCcAluHmhC7GCSXnzp2Tc+fOaWcAfsGVTwAA3Imf8TDJ qVOnpLS0VDvDWIwTSljl4CbcnAAAwJ14dBMm8fl83G5XxD9plPCih1t4PB5JTk7WzgAAAAFQp04d adOmjXYGYBnOaXoYJ5TwoodbxMfHS926dbUzAABAgHTq1Ek7AbAMN9z1ME4oyc/P104A/CIpKUk7 AQAABBA/62ESzml6GCeUHD9+XDsB8At+mwIAgLvxsx4m4Zymh3FCSWFhoXYC4Be8YQEAwN34WQ+T cE7TwzihhEUObtGxY0ftBAAAEEAdOnTQTgAsU1RUpJ1gLMYJJbzo4Ra8YQEAwN0aNGggzZo1084A LMEvkfUwTijhRQ83iIqKkpiYGO0MAAAQYG3bttVOACzBOU0P44SCkpISuXjxonYGUGt87zkAAGZI TEzUTgAscfbsWSkrK9POMBLjhALWOLgFb1QAADADP/NhkhMnTmgnGIlxQgHjBNyCK54AAJiBcQIm 4bymg3FCAS92uAVvVAAAMAO/kIBJOK/pYJxQwDd1wC1at26tnQAAACzAz3yYhHFCB+OEAsYJuEWr Vq20EwAAgAUaN24skZGR2hmAJfjMCR2MEwqKi4u1E4Ba83g8EhcXp50BAAAs0qJFC+0EwBKc13Qw Tig4c+aMdgJQazExMRIWFqadAQAALNKyZUvtBMASnNd0ME4o4MUON+ANCgAAZuFnP0xx+vRp7QQj MU4o4MUON+BqJwAAZuFnP0zBL5N1ME4o4MUON+C3JwAAmIWf/TAF5zUdjBMKeLHDDZo1a6adAAAA LNS8eXPtBMASnNd0ME4o4MUON2jSpIl2AgAAsBA/+2EKHsPXwThhscrKSjl37px2BlBrvEEBAMAs sbGx2gmAJc6cOSM+n087wziMExY7d+4cL3S4Am9QAAAwCz/7YYqKigq5cOGCdoZxGCcsxiMdcAve oAAAYJawsDBp0KCBdgZgCc5t1mOcsBgvcrgF4wQAAObh5z9MwbnNeowTFispKdFOAGqtbt26UqdO He0MAABgsZiYGO0EwBKc26zHOGGxixcvaicAtda4cWPtBAAAoID3ADAF5zbrMU5YjBc53CAqKko7 AQAAKOA9AEzBuc16jBMWKy0t1U4Aao03JgAAmIn3ADAF5zbrMU5YjAUObsAbEwAAzMR7AJiCc5v1 GCcsxoscbsAbEwAAzMRXicIUnNusxzhhMV7kcAPGCQAAzMR7AJiCc5v1GCcsxrNLcIP69etrJwAA AAXcnIApOLdZj3HCYrzI4QaRkZHaCQAAQAHvAWAKzm3WY5ywGNeD4AZ16tTRTgAAAAp4DwBTcG6z HuOExXiRww0iIiK0EwAAgALGCZiCc5v1GCcsVl5erp0A1BpvTAAAMBO/oIApOLdZj3HCYpWVldoJ QK3xxgQAADPxCwqYgnOb9RgnLMaLHG7AGxMAAMzEewCYoqKiQjvBOIwTFuNFDjfg5gQAAGYKDw/X TgAswS+Vrcc4YTFe5HCD4OBg7QQAAKAgJCREOwGwBOc26zFOWIwXOdzA6/VqJwAAAAW8B4ApuPFu PcYJizFOwA14YwIAgJm4PQlTcG6zHuOExXiRww0YJwAAMFNQUJB4PB7tDCDguDlhPcYJizFOwA0Y JwAAMBfvA2ACzm3WY5ywGAsc3IA3JQAAmIv3ATAB44T1GCcsxoscbhAUxD86AAAwFeMETMAvla3H CcNiVVVV2glArTGyAQBgLg5tMAHnNusxTliM3zjDDRgnAAAwF+8DYAJuCFmPk7LF+PoluAFvSgAA MJPP5+N9AIzAOGE9xgmL8SKHG/CmBAAAM3HVHabg3GY9xgmL8SKHGzBOAABgJt4DwBTceLce44TF GCfgBrwxAQDATHwYJkzBuc16jBMW40UON7h8+bJ2AgAAUMB7AJiCc5v1GCcsxoscbnDx4kXtBAAA oID3ADAFj3VYj3HCYrzI4Qa8MQEAwEy8B4Ap+KWy9RgnLMaLHG5QWlqqnQAAABTwHgCm4NxmPcYJ i/EihxvwWxMAAMzEewCYghvv1mOcsBjjBNyA35oAAGAm3gPAFJzbrMc4YbHw8HDtBKDW+K0JAABm 4j0ATMG5zXqMExarU6eOdgJQayUlJdoJAABAwfnz57UTAEtwbrMe44TFIiIitBOAWjtz5ox2AgAA UMB7AJiCc5v1GCcsxgIHN+CNCQAAZuI9AEzBOGE9xgmL8SKHG/DGBAAAM509e1Y7AbAEv1S2HuOE xXiRww0YJwAAMBPvAWAKzm3WY5ywGDcn4Ab81gQAADMxTsAUnNusxzhhMRY4uAFvTAAAMBPvAWAK zm3WY5ywGC9yuMGJEyfE5/NpZwAAAIudOHFCOwGwBOc26zFOWIwXOdzg0qVLPNoBAICBioqKtBMA S3Busx7jhMV4dglucfz4ce0EAABgMcYJmIJzm/UYJywWGRmpnQD4BW9OAAAwy/nz56W0tFQ7A7AE 5zbrMU5YLDo6WjsB8AvGCQAAzMKtSZiEc5v1GCcsFhUVpZ0A+AVvUAAAMAu/mIBJOLdZj3HCYvXr 15egIP7fDufjDQoAAGbhZz9MERoaKnXr1tXOMA6nZIsFBQVJ/fr1tTOAWjty5Ih2AgAAsBA/+2GK Bg0aaCcYiXFCAVeE4Ab5+fnaCQAAwEL87Icp+LwJHYwTChgn4Aa8QQEAwCzcnIApOK/pYJxQwBIH N2CcAADALPzshykYJ3QwTijgxQ43OHfunJw7d047AwAAWISbEzAF5zUdjBMKeLHDLfgNCgAAZqiq qpKjR49qZwCW4Ka7DsYJBXz6K9wiNzdXOwEAAFjg2LFjcvnyZe0MwBKc13QwTiho2LChdgLgF9nZ 2doJAADAAvzMh0k4r+lgnFDQpEkT7QTAL3JycrQTAACABfiZD5NwXtPBOKGAFzvcgjcqAACYgZ/5 MAnnNR2MEwp4scMteKMCAIAZ+JkPk3Be08E4oYAXO9zi0KFDUlVVpZ0BAAACjHECJuG8poNxQgEv drhFWVmZFBQUaGcAAIAAO3jwoHYCYAmPxyOxsbHaGUZinFBQp04diYyM1M4A/GLfvn3aCQAAIICK ioqkuLhYOwOwRHR0tISEhGhnGIlxQgm3J+AWWVlZ2gkAACCA+FkPk3BrQg/jhBLGCbjF3r17tRMA AEAA7dmzRzsBsAznND2ME0p40cMteMMCAIC78YsImIRzmh7GCSVcF4Jb8IYFAAB342c9TMI5TQ/j hJKmTZtqJwB+cfLkSTlx4oR2BgAACBDGCZiEc5oexgkl8fHx2gmA3/BoBwAA7lRcXCzHjh3TzgAs wzlND+OEkpYtW2onAH6zbds27QQAABAA27dv104ALMU5TQ/jhBJe9HCTHTt2aCcAAIAA4Gc8TMPN CT2ME0oYJ+AmvHEBAMCddu7cqZ0AWMbj8UhcXJx2hrEYJ5TUrVtXoqOjtTMAv9izZ4+UlZVpZwAA AD/jFxAwSWxsrISFhWlnGItxQhG3J+AWFRUVfCgmAAAuU1ZWxjd1wCg80qGLcUIR4wTchGufAAC4 y969e6WiokI7A7AM5zNdjBOKePHDTTZv3qydAAAA/GjTpk3aCYClOJ/pYpxQxIsfbrJx40btBAAA 4Ef8bIdpOJ/pYpxQ1KJFC+0EwG927dolFy9e1M4AAAB+8vnnn2snAJbifKaLcUIRH7gCN6moqJBt 27ZpZwAAAD84c+aM7Nu3TzsDsFRCQoJ2gtEYJxS1bdtWOwHwK55NBQDAHbZs2SI+n087A7AU5zNd jBOK4uLiJCIiQjsD8BuufwIA4A78TIdpoqOjpXHjxtoZRmOcUOTxeCQxMVE7A/Ab3sgAAOAO/EyH aTiX6WOcUMbVIbhJbm6uHD58WDsDAADUQmVlpXz66afaGYClGCf0MU4oY5yA26xdu1Y7AQAA1MLu 3bvl7Nmz2hmApTiX6WOcUMZCB7dhnAAAwNm4NQETcS7TxzihjIUObsMbGgAAnI1fNMBEnMv0MU4o 4w8B3ObLL7+UoqIi7QwAAHCTGCdgIs5l+hgnlMXHx0tYWJh2BuA3Pp9P1q9fr50BAABuQnZ2thQW FmpnAJaqV6+eNGvWTDvDeIwTyoKCgiQhIUE7A/CrFStWaCcAAICbwM9wmKhVq1baCRDGCVto166d dgLgV8uWLdNOAAAANyEzM1M7AbAc5zF7YJywgc6dO2snAH514MABOXz4sHYGAACogcrKSm5OwEic x+yBccIGkpKStBMAv1u1apV2AgAAqIHt27fLmTNntDMAy3EeswfGCRvgDwPciN+8AADgLPzshqk4 j9kD44QNdOrUSTwej3YG4FerVq0Sn8+nnQEAAKqJW48wUXBwsHTo0EE7A8I4YQt169blGzvgOgUF BbJz507tDAAAUA0XL16UNWvWaGcAlktMTJTQ0FDtDAjjhG0kJydrJwB+99FHH2knAACAasjMzJSy sjLtDMBynMPsg3HCJnjOCW60ePFi7QQAAFAN/MyGqTiH2QfjhE3whwJutHnzZjl+/Lh2BgAAuA6f zyeLFi3SzgBUcA6zD8YJm+A6EdyoqqpKPvnkE+0MAABwHTt37pRjx45pZwAqOIfZB+OETXTs2JFv 7IArffzxx9oJAADgOvhZDVN5vV5p3769dga+wjhhE/Xq1eMbO+BKS5YskUuXLmlnAACAa3jvvfe0 EwAViYmJEh4erp2BrzBO2EhaWpp2AuB3Z8+eldWrV2tnAACAqygoKJAtW7ZoZwAqOH/ZC+OEjaSm pmonAAGxcOFC7QQAAHAV7777rlRVVWlnACq6deumnYBvYZywEf5wwK0++OADqays1M4AAABX4JEO mIzzl70wTtgIfzjgVsePH5eNGzdqZwAAgG85efKkrFmzRjsDUMPNdXthnLCRuLg4adKkiXYGEBD8 ZgYAAHtZtGgRNxthrLi4OImJidHOwLcwTthMSkqKdgIQEO+99574fD7tDAAA8BV+cQCTcWvdfhgn bIY/JHCrgwcPyqZNm7QzAACAiJw+fVo+/vhj7QxADecu+2GcsBn+kMDN3njjDe0EAAAgIgsWLJBL ly5pZwBq+LwJ+2GcsBke64Cb/fOf/5SKigrtDAAAjPfWW29pJwCqOHfZj8fHQ+C2UlVVJVFRUXL+ /HntFCAgMjMzZdCgQdoZAAAY6+jRoxIfHy9VVVXaKYCK6OhoOXXqlHg8Hu0U/B8fNydsJigoiBUP rjZ//nztBAAAjPbOO+8wTMBoqampDBM2xDhhQ3379tVOAALm/fffl/Lycu0MAACMxSMdMB3nLXti nLCh3r17aycAAVNcXCwffvihdgYAAEbav3+/bNy4UTsDUMV5y54YJ2yoT58+2glAQP3973/XTgAA wEj8DAZEbrnlFu0EXAUfiGlT8fHxcuTIEe0MICCCgoIkNzdXWrRooZ0CAIAxKioqpEWLFnL8+HHt FEBNYmKiZGdna2fgP/GBmHbFmgc3q6qqkjfeeEM7AwAAoyxbtoxhAsbjnGVfjBM2xXNQcDuulQIA YK25c+dqJwDqOGfZF+OETfGHBm735ZdfyubNm7UzAAAwwunTp+Wjjz7SzgDUcXPCvhgnbKp79+4S GhqqnQEE1N/+9jftBAAAjDBv3jwpLS3VzgBURURESGpqqnYGroFxwqYiIiKkc+fO2hlAQL3xxhty 5swZ7QwAAFzN5/PJyy+/rJ0BqEtJSZGQkBDtDFwD44SN8WgH3K60tFTefPNN7QwAAFxtw4YNsm/f Pu0MQB2PdNgb44SN3X777doJQMD99a9/1U4AAMDVXnnlFe0EwBY4X9mbx+fz+bQjcHWFhYXSrFkz 7Qwg4D7//HPp1auXdgYAAK5z+vRpiYuL4/MmYLygoCA5ceKENGzYUDsFV+fj5oSNNW3aVNq3b6+d AQQcv9EBACAw3nzzTYYJQESSk5MZJmyOccLmuHoEE7z55ptSXFysnQEAgKv4fD7505/+pJ0B2ALn KvtjnLA5/hDBBBcvXpS//OUv2hkAALgKH4QJ/J/bbrtNOwE3wGdO2Fx+fr60bNlSOwMIuObNm8vh w4f5eicAAPzkwoULMmDAANm0aZN2CqDK4/FIYWGhxMbGaqfg2vjMCbtr0aKFtGnTRjsDCLiCggJ5 //33tTMAAHCNunXryrJly/jQaRivQ4cODBMOwDjhAFxBgin+53/+RzsBAABXadCgAQMFjMej8s7A OOEA/fv3104ALLF27VrZsWOHdgYAAK7SoEED+eSTT6Rnz57aKYCKfv36aSegGhgnHCA9PV07AbDM Cy+8oJ0AAIDrREVFybJlyxgoYCTOU87AB2I6RHx8vBw5ckQ7Awg4r9cr+/btk7Zt22qnAADgOmfO nJGMjAzZvHmzdgpgicTERMnOztbOwI3xgZhOceedd2onAJaorKyU3//+99oZAAC4EjcoYBrOUc7B OOEQgwcP1k4ALPPqq6/KiRMntDMAAHClrweKHj16aKcAAcc5yjkYJxxi4MCBEhTE/1www8WLF+Vv f/ubdgYAAK4VFRUlmZmZDBRwtZCQEBk4cKB2BqqJ065DNGrUSNLS0rQzAMv87ne/k/Pnz2tnAADg WgwUcLuePXtKvXr1tDNQTYwTDsKVJJikuLhY/vd//1c7AwAAV/v6EY/u3btrpwB+x/nJWRgnHIQ/ XDDN888/LxcvXtTOAADA1aKjoyUzM5OBAq6TkZGhnYAaYJxwkFtvvVUiIyO1MwDLHD9+nNsTAABY gIECbtOgQQPp1auXdgZqgHHCQUJDQ6V///7aGYClXnjhBSkvL9fOAADA9aKjo+Xjjz+Wrl27aqcA tZaeni7BwcHaGagBxgmH4dNmYZr8/HyZN2+edgYAAEZo3LixLF++XLp06aKdAtQK5ybn8fh8Pp92 BKrviy++kJSUFO0MwFLNmzeX7OxsiYiI0E4BAMAIJ06ckIEDB8quXbu0U4Cbsm/fPunQoYN2BqrP x80Jh+natau0atVKOwOwVEFBgbz66qvaGQAAGCMmJkZWrFjBDQo4Uvv27RkmHIhxwoGGDx+unQBY bvbs2XxzBwAAFmKggFONGDFCOwE3gXHCgRgnYKLCwkL505/+pJ0BAIBRvh4oOnfurJ0CVBvnJWfi MyccqLy8XBo3biwlJSXaKYClGjVqJAcPHpT69etrpwAAYJSioiIZOHCg7N69WzsFuK6oqCgpKiqS kJAQ7RTUDJ854URhYWF8+iyMdOrUKfnjH/+onQEAgHFiY2O5QQFHGDx4MMOEQzFOOBRXlWCq3/zm N3Ls2DHtDAAAjMNAASfgnORcjBMONWLECPF4PNoZgOUuXLggv/zlL7UzAAAw0tcDRXJysnYK8B+8 Xq8MGzZMOwM3iXHCoZo1ayZpaWnaGYCKv/71r5KVlaWdAQCAkWJjY2XlypUMFLCdXr16SUxMjHYG bhLjhIMNHTpUOwFQUVlZKbNmzdLOAADAWAwUsCPOR87GOOFgd911l3YCoGbRokWybt067QwAAIz1 9SMeSUlJ2imAiIiMHDlSOwG1wFeJOlhVVZW0aNGCDweEDzvxkAAAIABJREFUsZKTk2XHjh0SHBys nQIAgLGOHz8uAwYMkD179minwGDx8fFy+PBhPpfPufgqUScLCgqScePGaWcAarKysmTu3LnaGQAA GK1JkyaycuVKblBA1d13380w4XCMEw7HOAHTPfbYY3Lq1CntDAAAjMZAAW2ci5yPccLh+vfvL7Gx sdoZgJri4mJ59tlntTMAADAeAwW0xMXFyS233KKdgVpinHA4r9cro0aN0s4AVL388suya9cu7QwA AIz39UDRqVMn7RQYZMyYMRIUxNHW6fhf0AW4wgTTVVRUyM9+9jPtDAAAIAwUsB7nIXfg2zpc4PLl y9K0aVMpLi7WTgFUvfnmmzJp0iTtDAAAICL5+fmSnp4u2dnZ2ilwsdjYWCkoKBCv16udgtrh2zrc ICQkREaMGKGdAah77LHHpKSkRDsDAACISIsWLWTVqlXStm1b7RS42KhRoxgmXIJxwiVGjx6tnQCo y8/PlyeffFI7AwAAfIWBAoHGOcg9eKzDJcrLyyU2NlbOnTunnQKo8nq9snnzZunWrZt2CgAA+AqP eCAQGjZsKIWFhRISEqKdgtrjsQ63CAsLkyFDhmhnAOoqKyvloYceEnZXAADs4+sbFImJidopcJER I0YwTLgI44SLfOc739FOAGxh3bp18qc//Uk7AwAAfAsDBfyN84+78FiHi1y+fFmaNWsmp06d0k4B 1DVo0ECysrIkLi5OOwUAAHzLkSNHJD09XXJycrRT4GBNmzaV/Px8PgzTPXisw01CQkLk7rvv1s4A bOHs2bPyve99TzsDAABcoWXLltygQK1NmDCBYcJlGCdc5t5779VOAGxj6dKl8sYbb2hnAACAK3w9 ULRp00Y7BQ41adIk7QT4GY91uIzP55M2bdrI4cOHtVMAW2jatKlkZWVJw4YNtVMAAMAV8vLyJD09 XQ4ePKidAgdp37697N+/XzsD/sVjHW7j8Xjknnvu0c4AbKOwsFBmzpypnQEAAK4iPj6eGxSosYkT J2onIAC4OeFCO3fulNTUVO0MwFbeeustmTBhgnYGAAC4Cm5QoCb27t0rHTt21M6Af/kYJ1yqU6dO sm/fPu0MwDZiY2Nl9+7dEhMTo50CAACuIi8vT+644w45dOiQdgpsLCUlRXbs2KGdAf/jsQ634jt/ gX9XVFQk3/3ud7UzAADANcTHx8vq1auldevW2imwMc457sXNCZfKzs6W9u3bC//zAv/u1VdflWnT pmlnAACAa+AGBa4lKChIDh06JPHx8dop8D9uTrhV27Zt5fbbb9fOAGznkUcekSNHjmhnAACAa/j6 QzK5QYErDR48mGHCxRgnXGz69OnaCYDtnD59WiZNmiSVlZXaKQAA4BoSEhJk1apV0qpVK+0U2Ajn G3fjsQ4Xu3DhgjRv3lzOnTunnQLYzq9//WuZNWuWdgYAALiO3NxcueOOO+Tw4cPaKVAWHR0tBQUF Eh4erp2CwOCxDjerW7eujB8/XjsDsKWnnnpKPvvsM+0MAABwHQkJCbJ69WpuUEAmTZrEMOFyjBMu x9Un4OoqKipk8uTJ3CwCAMDmGCggwrnGBIwTLnfrrbdKx44dtTMAWzp06JA8/PDD2hkAAOAGEhIS JDMzU1q0aKGdAgUpKSnSo0cP7QwEGOOEAaZMmaKdANjWa6+9Jn/+85+1MwAAwA20bdtWVq1aJXFx cdopsNjUqVO1E2ABPhDTAHl5edK6dWupqqrSTgFsKTw8XNavXy9paWnaKQAA4AYOHDgg6enpcvTo Ue0UWCA4OFiOHDkiTZs21U5BYPGBmCaIj4+XjIwM7QzAtsrKymT06NFy8uRJ7RQAAHAD7dq14waF QUaMGMEwYQjGCUPwaAdwfUeOHJGJEydKZWWldgoAALgBBgpzcI4xB491GOLy5cvSqlUrKSgo0E4B bO2ZZ56Rn//859oZAACgGnjEw90SEhIkJydHvF6vdgoCj8c6TBESEsLX7wDVMHv2bFm6dKl2BgAA qIavb1A0b95cOwUBcP/99zNMGISbEwY5cuSItG7dmmvrwA00bNhQtmzZIq1bt9ZOAQAA1fDll19K eno6t4RdJCQkRPLy8vi8CXNwc8IkLVu2lOHDh2tnALZXXFwsEydOlPLycu0UAABQDe3bt+cGhcuM GjWKYcIwjBOG+eEPf6idADjCpk2b5JFHHtHOAAAA1cRA4S6cW8zDYx2G8fl80qFDBzlw4IB2CmB7 Ho9H5s2bJ/fee692CgAAqKb9+/fLgAEDeMTDwTp06CB79+4Vj8ejnQLr8FiHaTwej8yYMUM7A3AE n88n06ZNkxUrVminAACAaurQoYOsXLlSmjVrpp2Cm/TAAw8wTBiImxMGKioqkpYtW8qlS5e0UwBH iImJkY0bN0qbNm20UwAAQDXt379f0tPT5dixY9opqIHw8HDJz8+XRo0aaafAWtycMFFsbKzcc889 2hmAY5w4cUIGDx4sJ06c0E4BAADV1KFDB1m1ahU3KBxm0qRJDBOGYpww1A9+8APtBMBRDh48KGPH juUbPAAAcBAGCufhnGIuxglD9evXT3r37q2dATjKunXr+IEJAIDD8BkUzsEZxWyMEwZ76KGHtBMA x5k7d64899xz2hkAAKAGOnbsKCtXrpSmTZtqp+A6Hn74Ye0EKOIDMQ12+fJladOmjeTn52unAI7C V4wCAOBM+/btk/T0dCksLNROwRVat24tBw4cEK/Xq50CHXwgpslCQkLkgQce0M4AHMfn88n9998v n332mXYKAACogY4dO8qqVau4QWFDM2fOZJgwHDcnDFdcXCwtW7aUixcvaqcAjhMXFycbN26UFi1a aKcAAIAa+OKLL2TgwIFy8uRJ7RSISGRkpBw5ckSioqK0U6CHmxOma9iwIVfTgZt09OhRSU9Pl6Ki Iu0UAABQA127dpUVK1ZI48aNtVMgItOmTWOYADcnILJjxw7p1q2bdgbgWD179pSVK1dKZGSkdgoA AKgBblDo83g8kpWVJZ06ddJOgS5uTkAkNTVVBg0apJ0BONbmzZvlvvvuk8rKSu0UAABQA9yg0Dd8 +HCGCYgIXyWKr/C1PUDtvP/++zJ16lThMhoAAM7StWtXWb58OQOFEs4h+BqPdUBERCorK6Vjx46S nZ2tnQI42lNPPSXPPvusdgYAAKihnTt3yqBBg3jEw0LJycmya9cu8Xg82inQx2Md+Bev1yuzZs3S zgAcb/bs2YwTAAA4UEpKiixfvlwaNWqknWKMJ554gmEC3+DmBL5x+fJlSUxMlCNHjminAI73/PPP y2OPPaadAQAAamjHjh0yaNAgOXXqlHaKqyUmJsr+/fvF6/Vqp8AeuDmB/xMSEiIPPfSQdgbgCo8/ /rjMnTtXOwMAANRQamoqNygs8JOf/IRhAv+GmxP4N+fPn5eEhAQ5ffq0dgrgeF6vV+bPny/jx4/X TgEAADXEDYrAadq0qRw6dEjCw8O1U2Af3JzAv6tXr57MnDlTOwNwhcrKSpk0aZK8/vrr2ikAAKCG uEEROA8++CDDBP4DNyfwH4qKiqRVq1ZSWlqqnQK4gtfrlVdffVXuu+8+7RQAAFBD3KDwr3r16klu bq5ER0drp8BeuDmB/xQbG8shCvCjyspKuf/+++Wdd97RTgEAADWUmpoqmZmZ0rBhQ+0UV5g+fTrD BK6KmxO4qkOHDkn79u2loqJCOwVwDa/XK3PmzJGpU6dqpwAAgBravn27DBo0SIqLi7VTHCs0NFQO HjwocXFx2imwH25O4Opat24tY8eO1c4AXKWyslJmzJgh8+fP104BAAA11K1bN1m+fDk3KGph4sSJ DBO4Jm5O4Jr27NkjXbp0kaqqKu0UwFU8Ho+8+OKL8sgjj2inAACAGtq2bZsMHjyYGxQ1FBwcLHv3 7pW2bdtqp8CeuDmBa0tKSpJx48ZpZwCu4/P55NFHH5VZs2ZppwAAgBpKS0vjMyhuwqRJkxgmcF3c nMB1ZWVlSdeuXbk9AQTI//t//09mz56tnQEAAGqIGxTVx60JVAM3J3B9ycnJMmbMGO0MwLV++ctf ykMPPcQACACAw3x9g4JvnrixiRMnMkzghrg5gRvi9gQQeKNGjZL58+dLRESEdgoAAKiBrVu3yuDB g+X06dPaKbYUHBwse/bskXbt2mmnwN64OYEbS05OltGjR2tnAK72wQcfyNChQ+Xs2bPaKQAAoAa6 d+8uS5Yskfr162un2NKECRMYJlAt3JxAtWzdulV69uwpvFyAwOrZs6csXrxYYmJitFMAAEANfPbZ ZzJkyBA5d+6cdoptBAUFyc6dO6Vz587aKbA/bk6gerp37y6jRo3SzgBcb/PmzdK/f385fPiwdgoA AKiBPn36yMcff8wNim+ZMGECwwSqjZsTqLYdO3ZIWloatycACzRs2FDee+89ue2227RTAABADXCD 4l+CgoJk9+7d0qlTJ+0UOAM3J1B9qampMnz4cO0MwAjFxcWSkZEhb7zxhnYKAACoAW5Q/Mu4ceMY JlAj3JxAjWRlZUlKSopUVlZqpwBG8Hg88vTTT8vPf/5z7RQAAFADGzZskCFDhsj58+e1UywXEhIi WVlZfBAmaoKbE6iZ5ORkmTx5snYGYAyfzye/+MUv5MEHH2QUBADAQfr27Ssff/yx1KtXTzvFctOn T2eYQI1xcwI1lpubKx06dJDy8nLtFMAot956qyxcuFCaNGminQIAAKrJtBsUderUkQMHDkjz5s21 U+As3JxAzSUkJMj3vvc97QzAOOvXr5cePXrI1q1btVMAAEA19e3bV5YuXWrMDYqZM2cyTOCmcHMC N+XEiROSmJhozAIM2EndunVl7ty5Mm7cOO0UAABQTevXr5ehQ4e6+v1zgwYNJCcnRxo1aqSdAufh 5gRuTkxMjPz4xz/WzgCMdOHCBbnnnnvkN7/5DV/tCwCAQ9x6662uv0Hx6KOPMkzgpnFzAjetuLhY 2rRpI2fPntVOAYw1bNgwmTdvnkRHR2unAACAali3bp0MGzbMdTcoGjVqJAcPHjT+K1Rx07g5gZvX sGFDefzxx7UzAKMtWbJEevXqJbt27dJOAQAA1dCvXz9ZsmSJREZGaqf41VNPPcUwgVrh5gRqpaSk RNq2bSvHjx/XTgGMFhERIS+//LJMmzZNOwUAAFTDunXrZOjQoVJSUqKdUmstWrSQL7/8UiIiIrRT 4FzcnEDtREZGynPPPaedARivtLRUvvvd78qTTz4plZWV2jkAAOAG+vXrJ0uXLnXFDYrf/OY3DBOo NW5OoNaqqqqkZ8+esm3bNu0UACLSo0cP+ec//ylt2rTRTgEAADewdu1aGTZsmGNvUPTq1Us2btwo Ho9HOwXOxs0J1F5QUJC88MIL2hkAvrJlyxZJS0uTBQsWaKcAAIAb6N+/vyxYsEDCw8O1U2rM4/HI 73//e4YJ+AXjBPxiwIABMnToUO0MAF85e/asTJgwQR5++GG5dOmSdg4AALiOIUOGyLJlyxz3iMeY MWOkT58+2hlwCR7rgN/s3btXunbtKhUVFdopAL6lf//+Mm/ePImPj9dOAQAA1/Hpp5/K8OHDHfGI R1hYmOzZs4fHSOEvPNYB/+nUqZPMmDFDOwPAFdauXSsdO3aUP/zhD9opAADgOm677TZZvHix1K1b VzvlhmbOnMkwAb/i5gT86tixY9K+fXtHrL2AicaMGSOvvPKKNGrUSDsFAABcw/Lly2XkyJFSWlqq nXJVUVFRcuDAAWncuLF2CtyDmxPwr2bNmskTTzyhnQHgGt577z1JTk6WJUuWaKcAAIBrGDRokHzw wQe2/XrOZ555hmECfsfNCfhdWVmZdOzYUXJzc7VTAFyD1+uVn/zkJzJ79mxHfjo4AAAmyMzMlFGj RtnqBkX79u1l9+7dEhISop0Cd+HmBPwvPDxcZs+erZ0B4DoqKyvlxRdflKSkJFm1apV2DgAAuIrB gwfb7gbFr371K4YJBAQ3JxAwAwYM4NADOIDH45Hvfe978tJLLznuK8wAADDBsmXLZPTo0eo3KIYN GyaLFy9WbYBr+RgnEDBZWVnSrVs3uXz5snYKgGpITk6WOXPmSO/evbVTAADAFZYtWyajRo2SsrIy lb9/WFiY7N69W9q2bavy94fr8VgHAic5OVkeeOAB7QwA1ZSVlSV9+vSRKVOmyKlTp7RzAADAt2Rk ZMgHH3yg9llR//Vf/8UwgYDi5gQC6vTp09KhQwc5ceKEdgqAGmjSpIn89re/lSlTpminAACAb9G4 QREXFyf79u3j8U8EEjcnEFjR0dHyq1/9SjsDQA0dP35cpk6dKnfffbcUFBRo5wAAgK9kZGTI+++/ b+kNit/+9rcMEwg4bk4g4CorK6Vnz56yfft27RQAN6F+/foye/ZsefDBB8Xr9WrnAAAAEfnkk09k 9OjRAb9B0adPH1m/fr14PJ6A/n1gPD4QE9bYunWr9OrVS6qqqrRTANyk9u3by5///GcZNGiQdgoA ABCRjz/+WMaMGROwgSI4OFi2b98unTt3DshfH/gWHuuANbp37y5Tp07VzgBQC19++aVkZGTIlClT pKioSDsHAADjDRkyRN57772APeLx/e9/n2ECluHmBCxz7Ngx6dSpk5w9e1Y7BUAtxcTEyOzZs2XG jBk86gEAgLJA3KBo1KiR7Nu3Txo3buy3vyZwHdycgHWaNWsmL7zwgnYGAD84ceKEPPDAA9KpUydZ sGCBdg4AAEYbMmSIvPvuu369QfH73/+eYQKW4uYELOXz+WTAgAGyevVq7RQAfpSeni6/+93vJDU1 VTsFAABjLV26VMaMGSPl5eW1+usMGjRIMjMz/VQFVAsfiAnrZWVlSbdu3eTy5cvaKQD8KDg4WGbM mCFPP/20NGvWTDsHAAAj1XagCA8Pl127dknbtm39XAZcF491wHrJycny05/+VDsDgJ9VVFTIX/7y F2nbtq088cQTcubMGe0kAACMM3ToUHnvvfckLCzspv77jz/+OMMEVHBzAipKS0ulS5cukpOTo50C IEAiIyPlwQcflCeeeELq16+vnQMAgFGWLFkiY8eOrdENik6dOsmOHTskNDQ0gGXAVXFzAjoiIiLk v//7v7UzAARQSUmJPP/885KUlCR/+ctf5NKlS9pJAAAYY9iwYfLuu+/W6AbFH//4R4YJqGGcgJq7 7rpLJkyYoJ0BIMCOHj0qP/zhD6VDhw7y6quvSkVFhXYSYLylS5fK0qVLtTMABNiwYcNk/vz5EhIS csP/7LRp02TQoEEWVAFXx2MdUFVYWChJSUly+vRp7RQAFmnfvr0888wzMnHiRAkKYiMHrLRy5Up5 6qmnZMOGDeL1emXu3LkyefJk7SwAAfbuu+/KxIkTr/mB9DExMbJ3715p1KiRxWXAN3isA7qaNm0q zz77rHYGAAt9+eWXMnnyZGnTpo384Q9/kIsXL2onAa5WWVkp//jHPyQ1NVUGDhwoGzZs+Ob/PnXq VHnzzTeVCwEE2tixY+Wtt9665g2KX//61wwTUMfNCajz+Xxy55138l3KgKFatmwpjz76qMyYMUPq 1q2rnQO4RkVFhbz99tvy/PPPyxdffHHN/5zX65V//OMfcu+991pYB0DD1W5QjBo1St5//33FKkBE RHyME7CFw4cPS5cuXaSkpEQ7BYCSxo0by0MPPSQzZ87ktzdALZSWlsprr70mL774ohw8eLBa/x0G CsAc3x4ooqKiJCsrS5o3b66dBfBYB+yhVatW8txzz2lnAFB08uRJefrpp6V58+YyZcoUycrK0k4C HCU/P18efvhhadq0qcycObPaw4TIvx7xmDJlisyfPz+AhQDsYOzYsd98SObzzz/PMAHb4OYEbKOq qkruuOMOWbt2rXYKABvwer0yZswY+elPfyq9e/fWzgFsKycnR373u9/Ja6+9VuvPcPF6vfL666/L pEmT/FQHwK7WrVsnt956q3g8Hu0UQITHOmA3e/bskbS0NCkvL9dOAWAjt956qzz44IMybtw4vn8d kH99XtOKFSvk5Zdflg8++ECqqqr89tf2er0yb948mThxot/+mgAA3ADjBOznhRdekMcee0w7A4AN NWjQQCZMmCAPP/ywJCUlaecAlisqKpKXX35ZXnnlFSkoKAjY34eBAgBgMcYJ2E9VVZX079//m686 A4Areb1eGTlypPzgBz+QwYMHS1AQH6EEd9u8ebP89a9/lfnz51v29bshISHyz3/+U8aMGWPJ3w8A YDTGCdjTvn37pFu3blJWVqadAsDmmjZtKvfcc4/MmDFDunTpop0D+E1eXp78/e9/lzfffFMOHDig 0sBAAQCwCOME7OvZZ5+VZ555RjsDgEMEBQXJwIED5f7775dRo0ZJeHi4dhJQY1VVVbJixQqZM2eO vP/++7b4DKaQkBB5++23ZfTo0dopAAD3YpyAfVVVVcmAAQNkzZo12ikAHCYiIkJGjBgh9913nwwZ MkRCQkK0k4Br8vl8sn79enn99dflnXfekeLiYu2k/8BAAQAIMMYJ2NuhQ4ckNTVVzp07p50CwKEa NWok48aNk/vuu0/69eunnQN848CBAzJnzhx56623JDc3VzvnhhgoAAABxDgB+5szZ47MmDFDOwOA C6SkpMg999wj48ePl3bt2mnnwECFhYWycOFCefvtt2XdunV+/QpQKzBQAAAChHECznD33XfLwoUL tTMAuEjr1q3lrrvukvHjx3OjAgGVnZ0t8+bNkwULFsiePXu0c2otNDRU3n77bRk1apR2CgDAPRgn 4AzHjh2TLl26yKlTp7RTALhQ586dZcSIETJixAi55ZZbxOv1aifB4Xbt2iWLFy+WRYsWycaNG6Wy slI7ya8YKAAAfsY4Aef48MMPeRMEIOAaN24sQ4cOlREjRkhGRoZERUVpJ8EBSktLZc2aNbJo0SJZ tGiRIz5DorYYKAAAfsQ4AWeZMWOGzJkzRzsDgCG8Xq/06tVLBg8eLBkZGdK7d28JDg7WzoIN+Hw+ 2bVrlyxbtkyWLVsm69atk9LSUu0sy4WGhsqCBQtk5MiR2ikAAGdjnICznD17VlJSUoz4jRQA+6lf v74MGDBABg4cKHfccYckJyeLx+PRzoJFDh8+LGvWrJEVK1ZIZmamFBYWaifZAgMFAMAPGCfgPJs3 b5Z+/frJpUuXtFMAGC4mJkZuu+02uf322yU9PZ2xwmUOHToka9askVWrVsmaNWsYxq+DgQIAUEuM E3Cm559/XmbNmqWdAQD/pmHDhtKnTx/p06eP9O3bV3r27CmRkZHaWaiGy5cvy7Zt2+Szzz6Tzz77 TDZs2CD5+fnaWY7CQAEAqAXGCThTVVWVDBkyRDIzM7VTAOCagoODpUuXLtK3b1/p0aOHdO/eXZKS kvg2EBvIycmRrVu3ypYtW+Szzz6TrVu3GvmZEf4WGhoq77zzjtx1113aKQAAZ2GcgHMVFRVJSkoK z/wCcJQ6depIamrqN2NFly5dJCkpScLCwrTTXKmiokKys7Nl9+7dsmXLFtm6dats3bpVTp8+rZ3m WgwUAICbwDgBZ/vwww9l9OjRwssYgJN5vV5JTEyUzp07S1JSknTu3Fk6duwobdq0kXr16mnnOUJ5 ebkcPHhQ9u/fL3v27JHdu3fLnj17ZO/evXxGkYLQ0FBZuHChjBgxQjsFAOAMjBNwvp/+9Kfy0ksv aWcAQEDExsZKYmKitGnT5pt/bd26tSQkJEiLFi2MekTk2LFjcvjwYTl8+LAcPHhQDh48KDk5OZKT kyNHjx5lqLYZBgoAQA0wTsD5Ll++LLfddpts3LhROwUALBUcHCwtW7aUhIQEadWqlcTFxUnjxo0l JiZGGjduLE2aNPnm39v1sZGKigo5efKknDx5Uk6cOCHHjx//5t8XFhZKbm6uHD58WHJzc6WsrEw7 FzXEQAEAqCbGCbhDTk6OpKWlyblz57RTAMCW6tatKw0bNpSGDRtKo0aNvvnXqKgoCQsLkzp16ki9 evUkNDRUGjRoIOHh4RIREVGjv8fly5elpKRELly4IJcuXZLTp09LeXm5XLx4Uc6fPy/FxcVSXFws p06dklOnTklxcTH/3DYAAwUAoBoYJ+Aec+fOlWnTpmlnAACAK4SFhcnChQtl+PDh2ikAAHvyBWkX AP4ydepUmTlzpnYGAAC4Qnl5uYwbN04WL16snQIAsCluTsBVysvLpV+/frJlyxbtFAAAcAVuUAAA roHHOuA+eXl5kpaWJqdOndJOAQAAV4iIiJAPP/xQBg0apJ0CALAPHuuA+8THx8vf/vY38Xg82ikA AOAKpaWlMmbMGFm7dq12CgDARhgn4Epjx46VWbNmaWcAAICrKCkpkTvvvFOWL1+unQIAsAke64Br VVVV8cYHAAAb4xEPAMBX+MwJuNvx48clLS1NCgoKtFMAAMBVREREyEcffSQDBw7UTgEA6OEzJ+Bu TZo0kddee028Xq92CgAAuIrS0lIZOXKkrFixQjsFAKCIcQKuN3jwYHnppZe0MwAAwDVcvHhRRo4c KStXrtROAQAo4bEOGGPGjBkyZ84c7QwAAHANderUkY8++kgGDBignQIAsBafOQFzlJWVye233y6b Nm3STgEAANfAQAEARmKcgFmOHTsmPXv2lKNHj2qnAACAa2CgAADj8IGYMEuzZs1k3rx5EhISop0C AACu4eLFi/+/vXsN0rqs/zj+XXZ1EUSWBNYDJ0GUBXMyTFFUQDnUAIUyIJoiYqCUkVNjZlaWfzNs bCQ7oE2IVCpJSgGaKMsuhIopgiIgAYKGB8QENjnqLv8HhXmEm8Ny3ffer9fMzqw++owPcHx7Xdcv +vfvHxUVFamnAHCAiBPkne7du8dvfvOb1DMAgF3YvHlz9OvXT6AAyBPiBHlp2LBhccUVV6SeAQDs gkABkD+8OUHe2rZtW3Tr1i2efPLJ1FMAgF1o0KA0Di3HAAAawElEQVRBTJ8+PXr06JF6CgC1w4OY 5Ld//etf0aVLl1ixYkXqKQDALjRo0CAefPDB6N69e+opAOx/HsQkvx1++OExderUKCkpST0FANiF nVc8KisrU08BoBaIE+S9srKymDRpUhQVFaWeAgDswqZNmwQKgDpKnICI6NOnT9x6662pZwAAuyFQ ANRN3pyA9xkxYkT89re/TT0DANiNhg0bxoMPPhjdunVLPQWAfedBTHi/6urqGDBgQEyfPj31FABg NwQKgDpDnIAP+/e//x1du3aNRYsWpZ4CAOxGw4YN46GHHoqzzjor9RQA9p44AR9n+fLl0aVLl3jr rbdSTwEAdkOgAMh5PiUKH6d9+/bx8MMPR8OGDVNPAQB2Y9OmTdG/f/+YN29e6ikA7CVxAj7B5z73 ufjjH//oE6MAkAOqqqqiT58+AgVAjhInYBf69u0b48aNSz0DAMiAQAGQu8QJ2I2vfOUr8e1vfzv1 DAAgA1VVVfH5z39eoADIMR7EhAzs2LEjRowYEePHj089BQDIQOPGjWPGjBlx6qmnpp4CwO75Wgdk qrq6OgYOHBh/+ctfUk8BADIgUADkDHEC9sTmzZujZ8+e8cQTT6SeAgBkQKAAyAniBOyp1157LU4/ /fRYvXp16ikAQAYaN24cjzzySJxyyimppwDw8XZ4EBP20JFHHhlz5syJVq1apZ4CAGRg48aN0bt3 7/j73/+eegoAn0CcgL3QsmXLeOihh+Lwww9PPQUAyIBAAZDdxAnYS506dYqHHnooDj300NRTAIAM CBQA2UucgH1wyimnxKRJk+Kggw5KPQUAyMDGjRujT58+8dRTT6WeAsD7iBOwj/r27Rv33XdfFBUV pZ4CAGRgw4YN0bt3b4ECIIuIE7AfDBgwIMaPHx8FBQWppwAAGRAoALKLOAH7ydChQ2Ps2LGpZwAA GRIoALKHOAH70ejRo+Oqq65KPQMAyNDOQPH000+nngKQ18QJ2M9uvfXWuOaaa1LPAAAytGHDhujV q5dAAZBQwY4dO3akHgF1zY4dO2L06NHxy1/+MvUUACBDJSUl8eijj8bJJ5+cegpAvtkhTkAtqamp icsuuyzuuuuu1FMAgAwJFABJ7HCtA2pJvXr14s4774zLL7889RQAIEM736CYP39+6ikAecXJCahl NTU1cemll8bvfve71FMAgAw1adIkHn300ejcuXPqKQD5wLUOOBCqq6vjkksuibvvvjv1FAAgQwIF wAEjTsCBUl1dHRdffHHce++9qacAABlq2rRplJeXx4knnph6CkBdJk7AgbRt27YYPHhwTJ06NfUU ACBDzZo1i/Ly8vj0pz+degpAXeVBTDiQiouL44EHHohLLrkk9RQAIEPr1q2Lc845JxYtWpR6CkCd JU7AAVZYWBh33nlnDB8+PPUUACBDAgVA7XKtAxKprq6Oyy67LCZOnJh6CgCQIVc8AGqFax2QSmFh YUyYMCGuuuqq1FMAgAw5QQFQO8QJSKigoCBuvfXWuO6661JPAQAytDNQPP/886mnANQZ4gRkgRtv vDGuv/761DMAgAwJFAD7lzcnIItcd911cdNNN6WeAQBkqHnz5lFeXh4nnHBC6ikAuWyHOAFZZty4 cXHllVdGTU1N6ikAQAYECoB9Jk5ANrrnnnti2LBh8c4776SeAgBkoHnz5jFr1qzo1KlT6ikAuUic gGw1efLkuOiii2L79u2ppwAAGRAoAPaaOAHZbPbs2fHFL34xqqqqUk8BADIgUADsFXECst38+fPj C1/4Qqxbty71FAAgAwIFwB4TJyAXLF26NHr37h1r1qxJPQUAyEBpaWnMmjUrOnbsmHoKQC7YUS/1 AmD3ysrKory8PNq0aZN6CgCQgbVr18bZZ58dS5YsST0FICeIE5AjjjvuuJg/f3507do19RQAIAMC BUDmxAnIIZ/61KfikUceiX79+qWeAgBkQKAAyIw4ATmmQYMG8cADD8TFF1+cegoAkAGBAmD3xAnI QQcddFD87ne/izFjxkRBQUHqOQDAbuwMFEuXLk09BSAr+VoH5LiJEyfGiBEj4p133kk9BQDYjSOO OCJmzZoVZWVlqacAZBOfEoW6YObMmTFw4MCoqqpKPQUA2A2BAuAjxAmoKx5//PH40pe+FG+++Wbq KQDAbrRo0SIqKiri2GOPTT0FIBvs8OYE1BGnn356LFy4MD772c+mngIA7MaaNWuiR48esWLFitRT ALKCOAF1yNFHHx3l5eXRq1ev1FMAgN0QKAD+R5yAOqakpCT++te/xjXXXJN6CgCwGwIFwH94cwLq sPHjx8eoUaN8yQMAslyLFi2isrIy2rVrl3oKQAoexIS6rry8PAYNGhTr169PPQUA2IWWLVtGRUWF QAHkI3EC8sGKFSuiX79+sWzZstRTAIBdECiAPOVrHZAPjj322Jg9e3Z07do19RQAYBf++c9/Ro8e PWLlypWppwAcUOIE5InS0tKYPXu2hzIBIMsJFEA+cq0D8tBvfvOb+PrXvx7bt29PPQUA+AQtW7aM ysrKaNu2beopALXNmxOQrxYuXBjnnnturF69OvUUAOATtGrVKioqKgQKoK7z5gTkq8985jPx1FNP xdlnn516CgDwCV5++eXo0aNHvPjii6mnANQqcQLyWNOmTWPGjBneoQCALCZQAPnAtQ4gIiLuvvvu GDFiRGzZsiX1FADgY7Rq1SoqKyvjmGOOST0FYH/z5gTwP4899licf/758corr6SeAgB8DIECqKO8 OQH8T9euXWP+/PnRo0eP1FMAgI/x8ssvR/fu3WPVqlWppwDsV+IE8AGlpaVRXl4eY8aMicLCwtRz AIAP2fkGhUAB1CWudQCfqKKiIi644IJYu3Zt6ikAwIe0bt06KioqXPEA6gJvTgC7tmbNmhg8eHA8 8cQTqacAAB/SunXrqKysjDZt2qSeArAvvDkB7FqLFi1izpw5PjcKAFnopZdeiu7du8fq1atTTwHY J05OABkbP358jB49OjZv3px6CgDwPk5QADnOtQ5gzyxZsiQuuOCCeO6551JPAQDep02bNlFRUSFQ ALnItQ5gz3Ts2DHmz58f119/fdSr548QAMgWq1evjl69esWaNWtSTwHYY05OAHutvLw8hg4dGq++ +mrqKQDAfx177LFRWVkZRx99dOopAJlycgLYe+ecc04sXLgw+vbtm3oKAPBfK1asiB49esQrr7yS egpAxsQJYJ80a9Yspk2bFmPHjo3i4uLUcwCAiFi+fLlAAeQU1zqA/eaJJ56IL3/5y7Fq1arUUwCA iGjfvn1UVFS44gFkO9c6gP3ntNNOi2effTYuu+yy1FMAgHCCAsgdTk4AtWLmzJlx6aWXejEcALJA +/bto7KyMo466qjUUwA+jpMTQO3o2bNnPP/88zFy5MjUUwAg7+08QeELW0C2cnICqHV/+tOf4oor roh//etfqacAQF477rjjoqKiwgkKINvsECeAA2Lt2rUxYsSImDZtWuopAJDXBAogC7nWARwYpaWl 8ec//zl+9rOfxSGHHJJ6DgDkrX/84x+ueABZx8kJ4IBbtmxZDB8+PB5//PHUUwAgbx1//PExa9Ys JyiAbODkBHDgHX/88TF37ty44447olGjRqnnAEBeWrZsWZx99tlOUABZQZwAkigoKIiRI0fGokWL omfPnqnnAEBeWrZsWfz4xz+Ompqa1FOAPCdOAEm1bt06HnnkEacoAOAA+9SnPhX33Xdf/OpXv4p6 9fxnAZCWNyeArPHSSy/FiBEj4tFHH009BQDqtAEDBsS4cePiiCOOSD0FIMKbE0A2ad26dTz88MNx 2223OUUBALWgcePGcfvtt8cDDzwgTABZxckJICutWbMmvv71r8ef//zn1FMAoE4YPHhwjB07No48 8sjUUwA+bIc4AWS1ysrKGDVqVLzwwguppwBATurYsWPcfvvtceaZZ6aeAvBJXOsAslv37t3jmWee ieuvvz6Ki4tTzwGAnFG/fv0YM2ZMLFy4UJgAsp6TE0DOWL58eYwaNSrKy8tTTwGArNa7d+/49a9/ He3atUs9BSATTk4AuaN9+/bx6KOPxsSJE6Np06ap5wBA1mnevHncd999MWPGDGECyCniBJBTCgoK YujQofHss8/GRRddFAUFBaknAUBy9erVi+HDh8dzzz0XgwYNSj0HYI+51gHktAULFsTo0aNj7ty5 qacAQBJ9+vSJsWPHRocOHVJPAdhbrnUAue2kk06KOXPmxH333RetWrVKPQcADpg2bdrE1KlT4+GH HxYmgJzn5ARQZ2zevDl++tOfxs033xxbt25NPQcAasWhhx4a3/ve92L06NFxyCGHpJ4DsD/sECeA OmflypVx7bXXxuTJk1NPAYD96uKLL46bbropWrRokXoKwP4kTgB115QpU+Lqq6+OlStXpp4CAPuk Q4cOccstt0Tfvn1TTwGoDd6cAOquc889N1544YW44447orS0NPUcANhjRx55ZEycODEWL14sTAB1 mpMTQF54++2345ZbbvEeBQA5Yee7EldeeWU0bNgw9RyA2uZaB5Bf1qxZE9/97nfjD3/4Q/jjD4Bs U1hYGJdddln84Ac/iKOPPjr1HIADRZwA8tNTTz0V3/rWt+Jvf/tb6ikAEBER3bp1i5/97GfRuXPn 1FMADjRvTgD56XOf+1xUVlbGXXfdFS1btkw9B4A81rp167j77rujoqJCmADylpMTQN575513YsKE CfHDH/4wXnvttdRzAMgTbdq0iR/96Edx4YUXRlFRUeo5ACm51gGw0+bNm+MXv/hFjBkzJjZs2JB6 DgB1VPPmzeP//u//YtiwYXHwwQenngOQDcQJgA9766234qc//WncdtttsWXLltRzAKgjGjVqFNdd d1187Wtfi0MPPTT1HIBsIk4AfJJXXnklbrjhhrjzzjvj3XffTT0HgBxVXFwcV111VXzrW9+KZs2a pZ4DkI3ECYDdee655+K6666L6dOnp54CQA4pKCiIAQMGxI033hgdO3ZMPQcgm4kTAJlavHhx3Hzz zXHPPfdEdXV16jkAZKmioqIYPnx4XHPNNdG2bdvUcwBygTgBsKeWLFkSY8aMESkA+ICdUeI73/lO HHPMMannAOQScQJgby1dujR+8pOfiBQAeU6UANhn4gTAvnr22WfjhhtuiClTpoQ/UgHyR7169WLQ oEHx/e9/Pzp16pR6DkAuEycA9pdFixbFTTfdFJMnT3aSAqAOKyoqiiFDhsS1117roUuA/UOcANjf Xn/99bj99ttj7NixsXHjxtRzANhPSkpK4hvf+EZ89atfjebNm6eeA1CXiBMAtaWqqiomTJgQY8aM iddffz31HAD20lFHHRXf/va3Y/jw4dGoUaPUcwDqInECoLZt3Lgxxo0bFz//+c9FCoAcctRRR8U3 v/nNGDlypCgBULvECYADZevWrXHXXXfFLbfcEitXrkw9B4BPcNxxx8XVV18dF198cRQXF6eeA5AP xAmAFObOnRs333xzPPjgg77wAZAFCgsL47zzzovRo0fHGWeckXoOQL4RJwBSWrFiRfziF7+I8ePH x6ZNm1LPAcg7JSUlcfnll8eIESOiXbt2qecA5CtxAiAbrF27Nu64444YN26cdykADoCjjjoqvvrV r8bll18eTZs2TT0HIN+JEwDZpKamJh588MG47bbbYubMmannANQ5PXv2jNGjR0ffvn2jXr16qecA 8B/iBEC2mjt3bowbNy7uv//+2LZtW+o5ADmrfv36MWjQoBg1alScdtppqecA8FHiBEC2q6qqikmT JsUvf/nLWLRoUeo5ADnjxBNPjK997WsxZMiQOOyww1LPAeCTiRMAuaKmpiZmzJgR48aNi4ceeiiq q6tTTwLIOkVFRdGvX78YNWpU9OzZ09UNgNwgTgDkorVr18Zdd90Vt99+e6xevTr1HIDk2rZtGyNH joxLL700mjdvnnoOAHtGnADIZdu3b4+//OUvMWHChHjkkUecpgDySlFRUXz+85+P4cOHR//+/aOo qCj1JAD2jjgBUFesX78+Jk+eHHfccUc888wzqecA1JquXbvG0KFDY/DgwVFSUpJ6DgD7TpwAqIse e+yxmDBhQkyePDmqqqpSzwHYZ40bN44hQ4bEsGHDokuXLqnnALB/iRMAddn27dtjxowZ8fvf/z6m TJkS7777bupJABk76KCDYsCAATFy5Mjo0aNHFBYWpp4EQO0QJwDyxerVq2PSpElx7733xnPPPZd6 DsAnOumkk+LCCy+M888/P1q2bJl6DgC1T5wAyEeLFy9+L1SsXLky9RyAOO644+KCCy6IIUOGRIcO HVLPAeDAEicA8t3ixYtj8uTJcc8998Ty5ctTzwHyyM4gcf7550dZWVnqOQCkI04A8B81NTUxe/bs mDRpUkyZMiXWrVuXehJQB5WWlsZ5550XQ4YMiTPOOCPq1auXehIA6YkTAHxUdXV1zJkzJ+6///6Y MmVKvPrqq6knATmsRYsWcd5558XAgQMFCQA+jjgBwO7tvPoxefLkWLJkSeo5QA7o3Llz9OvXLwYN GhSdOnVKPQeA7CZOALBnnn766bj//vvj/vvv90YF8AEdOnSIgQMHxsCBA+Okk05KPQeA3CFOALD3 lixZEtOmTYtp06bFvHnzorq6OvUk4AAqLCyMrl27Rv/+/aN///5x/PHHp54EQG4SJwDYPzZt2hSz Zs2K6dOnx9SpU+P1119PPQmoBUceeWT0798/+vXrF+ecc040aNAg9SQAcp84AcD+t23btqisrIxp 06bF9OnT46WXXko9CdgHxxxzzHunI84666w4+OCDU08CoG4RJwCofYsWLYqZM2fGzJkzY86cOfH2 22+nngTsQqNGjaJ79+7Rs2fP6NWrV5SVlaWeBEDdJk4AcGBt37495s2b916seOqpp+Ldd99NPQvy WlFRUZx66qnRs2fP6NmzZ3Tp0iWKiopSzwIgf4gTAKS1cePGqKioeC9WLFu2LPUkyAsdO3aMc845 J3r16hXdu3ePRo0apZ4EQP4SJwDILq+99lrMnj075syZE7Nnz46lS5eGf1XBvikoKIhOnTpFt27d olu3bnHWWWdFaWlp6lkAsJM4AUB2e/vtt2PevHkxd+7ceOyxx2LOnDmxffv21LMgqxUXF8eZZ54Z Xbt2jTPOOCNOO+20aNiwYepZAPBJxAkAcstbb70Vc+fOjTlz5sS8efPimWeeiS1btqSeBUk1aNAg OnfuHF26dIkzzzwzzjzzzCgpKUk9CwAyJU4AkPtefPHFmDt3bsyfPz8ee+yxWLBgQdTU1KSeBbXi oIMOilNOOSU6d+4cnTt3jjPOOCPatm2behYA7AtxAoC6Z926dfHkk0/Gk08+GfPmzYunn346NmzY kHoW7JUmTZrEySefHF26dIlTTz01unTpEocffnjqWQCwP4kTAOSHVatWxYIFCz7w8+qrr6aeBR9w 9NFHx0knnfSBnzZt2qSeBQC1TZwAIH+tXbs2FixYEAsXLoxnnnkmFixYEC+++KIrIdS6wsLCaNeu 3UdCRLNmzVJPA4AUxAkAeL8tW7bE0qVLY+nSpbF48eJYsmRJLF68OFatWhXV1dWp55FjCgsLo23b tnHCCSdEWVlZdOrUKcrKyqKsrCzq16+feh4AZAtxAgAysXXr1g9Ei6VLl8by5ctj5cqVvhZCNGjQ INq1axft27ePsrKyOOGEE6JDhw5RVlYWxcXFqecBQLYTJwBgX61fvz5efPHFj/1ZtWpV+Fdt7iso KIhjjjkm2rZt+7E/TZo0ST0RAHKZOAEAtemNN96IFStWxMsvvxz//Oc/Y82aNfHSSy+99/sbb7yR eiL/VVpaGi1atIiWLVtGq1atomXLlu/9fuyxx3oPAgBqjzgBAClt3br1I+Fi3bp1sW7duli7dm2s W7cu3nzzzVi3bp2HOvdCYWFhNG3aNJo1axZNmzaNI4444r3fW7du/V6AaNmypTcgACAdcQIAcsGO HTs+ECreeOONeOONN2L9+vWxfv362LBhw3u/v/+vq6qqUk/fbxo3bhwlJSXRpEmTaNKkycf+Xlpa Gs2bN/9AkCgoKEg9HQDYNXECAOqy6urq90LFxo0bY8uWLbF169bYuHFjbNu2Ld5+++3YtGlTbNu2 LTZs2BBbt26NLVu2RFVV1Ue+TlJdXb1HseOwww6LwsLCD/y9wsLCOOyww6JBgwZRXFwcJSUlUVxc HA0bNoxDDz00iouLo3HjxnHIIYdE/fr1o3Hjxu8FiHr16u2XfyYAQNYRJwAAAICkdvhfEAAAAEBS 4gQAAACQlDgBAAAAJCVOAAAAAEmJEwAAAEBS4gQAAACQlDgBAAAAJCVOAAAAAEmJEwAAAEBS4gQA AACQlDgBAAAAJCVOAAAAAEmJEwAAAEBS4gQAAACQlDgBAAAAJCVOAAAAAEmJEwAAAEBS4gQAAACQ lDgBAAAAJCVOAAAAAEmJEwAAAEBS4gQAAACQlDgBAAAAJCVOAAAAAEmJEwAAAEBS4gQAAACQlDgB AAAAJCVOAAAAAEmJEwAAAEBS4gQAAACQlDgBAAAAJCVOAAAAAEmJEwAAAEBS4gQAAACQlDgBAAAA JCVOAAAAAEmJEwAAAEBS4gQAAACQlDgBAAAAJCVOAAAAAEmJEwAAAEBS4gQAAACQlDgBAAAAJCVO AAAAAEmJEwAAAEBS4gQAAACQlDgBAAAAJCVOAAAAAEmJEwAAAEBS4gQAAACQlDgBAAAAJCVOAAAA AEmJEwAAAEBS4gQAAACQlDgBAAAAJCVOAAAAAEmJEwAAAEBS4gQAAACQlDgBAAAAJCVOAAAAAEmJ EwAAAEBS4gQAAACQlDgBAAAAJCVOAAAAAEmJEwAAAEBS4gQAAACQlDgBAAAAJCVOAAAAAEmJEwAA AEBS4gQAAACQlDgBAAAAJCVOAAAAAEmJEwAAAEBS4gQAAACQlDgBAAAAJCVOAAAAAEmJEwAAAEBS 4gQAAACQlDgBAAAAJCVOAAAAAEmJEwAAAEBS4gQAAACQlDgBAAAAJCVOAAAAAEmJEwAAAEBS4gQA AACQlDgBAAAAJCVOAAAAAEmJEwAAAEBS4gQAAACQVFFE7Eg9AgAAAMhbNf8PExuS87GY0l4AAAAA SUVORK5CYII= "
       height="41.696846"
       width="41.688999"
       style="fill:#000000;fill-opacity:0" />
  </g>
</svg>
