<?xml version="1.0" encoding="UTF-8" standalone="no"?>
<!-- Created with Inkscape (http://www.inkscape.org/) -->

<svg
   xmlns:dc="http://purl.org/dc/elements/1.1/"
   xmlns:cc="http://creativecommons.org/ns#"
   xmlns:rdf="http://www.w3.org/1999/02/22-rdf-syntax-ns#"
   xmlns:svg="http://www.w3.org/2000/svg"
   xmlns="http://www.w3.org/2000/svg"
   xmlns:xlink="http://www.w3.org/1999/xlink"
   xmlns:sodipodi="http://sodipodi.sourceforge.net/DTD/sodipodi-0.dtd"
   xmlns:inkscape="http://www.inkscape.org/namespaces/inkscape"
   width="1600"
   height="900"
   id="svg10877"
   version="1.1"
   inkscape:version="0.48.5 r10040"
   sodipodi:docname="muster_100%.svg">
  <defs
     id="defs10879">
    <linearGradient
       inkscape:collect="always"
       id="linearGradient3754">
      <stop
         style="stop-color:#000000;stop-opacity:1;"
         offset="0"
         id="stop3756" />
      <stop
         style="stop-color:#000000;stop-opacity:0;"
         offset="1"
         id="stop3758" />
    </linearGradient>
    <radialGradient
       inkscape:collect="always"
       xlink:href="#linearGradient3754"
       id="radialGradient3760"
       cx="560"
       cy="397.14285"
       fx="560"
       fy="397.14285"
       r="85.714287"
       gradientTransform="matrix(1,0,0,1.0333333,0,-13.23808)"
       gradientUnits="userSpaceOnUse" />
    <filter
       inkscape:collect="always"
       id="filter3778"
       x="-0.30499999"
       width="1.61"
       y="-0.2951613"
       height="1.5903226">
      <feGaussianBlur
         inkscape:collect="always"
         stdDeviation="21.785714"
         id="feGaussianBlur3780" />
    </filter>
    <radialGradient
       inkscape:collect="always"
       xlink:href="#linearGradient3754"
       id="radialGradient3782"
       gradientUnits="userSpaceOnUse"
       gradientTransform="matrix(1,0,0,1.0333333,0,-13.23808)"
       cx="560"
       cy="397.14285"
       fx="560"
       fy="397.14285"
       r="85.714287" />
    <radialGradient
       inkscape:collect="always"
       xlink:href="#linearGradient3754"
       id="radialGradient2992"
       gradientUnits="userSpaceOnUse"
       gradientTransform="matrix(1,0,0,1.0333333,0,-13.23808)"
       cx="560"
       cy="397.14285"
       fx="560"
       fy="397.14285"
       r="85.714287" />
  </defs>
  <sodipodi:namedview
     id="base"
     pagecolor="#00ebf4"
     bordercolor="#666666"
     borderopacity="1.0"
     inkscape:pageopacity="0"
     inkscape:pageshadow="2"
     inkscape:zoom="0.49497474"
     inkscape:cx="831.09968"
     inkscape:cy="377.74047"
     inkscape:document-units="px"
     inkscape:current-layer="layer1"
     showgrid="false"
     units="cm"
     inkscape:showpageshadow="false"
     inkscape:window-width="1024"
     inkscape:window-height="715"
     inkscape:window-x="2"
     inkscape:window-y="78"
     inkscape:window-maximized="0" />
  <metadata
     id="metadata10882">
    <rdf:RDF>
      <cc:Work
         rdf:about="">
        <dc:format>image/svg+xml</dc:format>
        <dc:type
           rdf:resource="http://purl.org/dc/dcmitype/StillImage" />
        <dc:title></dc:title>
      </cc:Work>
    </rdf:RDF>
  </metadata>
  <g
     inkscape:label="Ebene 1"
     inkscape:groupmode="layer"
     id="layer1"
     transform="translate(0,-152.36467)">
    <rect
       style="fill:#000000;fill-rule:evenodd;stroke:#000000;stroke-width:0.99999987999999995px;stroke-linecap:butt;stroke-linejoin:miter;stroke-opacity:1"
       id="rect11736"
       width="1599.1575"
       height="899"
       x="-1599.5787"
       y="-1051.8646"
       transform="scale(-1,-1)" />
    <path
       sodipodi:type="arc"
       style="fill:#ffffff;fill-opacity:1;fill-rule:evenodd;stroke:url(#radialGradient2992);stroke-width:1.87142611;filter:url(#filter3778)"
       id="path2984"
       sodipodi:cx="560"
       sodipodi:cy="397.14285"
       sodipodi:rx="85.714287"
       sodipodi:ry="88.571426"
       d="m 645.71429,397.14285 c 0,48.91665 -38.3756,88.57143 -85.71429,88.57143 -47.33869,0 -85.71429,-39.65478 -85.71429,-88.57143 0,-48.91665 38.3756,-88.57142 85.71429,-88.57142 47.33869,0 85.71429,39.65477 85.71429,88.57142 z"
       transform="matrix(0.53985508,0,0,0.52890468,497.68116,392.31396)" />
    <image
       y="590.90021"
       x="788.53552"
       id="image12375"
       xlink:href="data:image/png;base64,iVBORw0KGgoAAAANSUhEUgAABCcAAAQnCAYAAADINQakAAAABHNCSVQICAgIfAhkiAAAIABJREFU eJzs3Xd0F+Td/vErE4hA2MgICAEhGEUIkACRqIWIZUoEJQgCMrQ/CuKE+qjgpggiQ5FNwDAFkRGQ sFeAsJeyl4wgECIjgyS/P56Wp1ZFRpLPd7xf5+TU9o/6bs9Rkyv3fX89srOzswUAAAAAAGAj29O6 AAAAAAAAuDfGCQAAAAAAYIpxAgAAAAAAmGKcAAAAAAAAphgnAAAAAACAKcYJAAAAAABginECAAAA AACYYpwAAAAAAACmGCcAAAAAAIApxgkAAAAAAGCKcQIAAAAAAJhinAAAAAAAAKYYJwAAAAAAgCnG CQAAAAAAYIpxAgAAAAAAmGKcAAAAAAAAphgnAAAAAACAKcYJAAAAAABginECAAAAAACYYpwAAAAA AACmGCcAAAAAAIApxgkAAAAAAGCKcQIAAAAAAJhinAAAAAAAAKYYJwAAAAAAgCnGCQAAAAAAYIpx AgAAAAAAmGKcAAAAAAAAphgnAAAAAACAKcYJAAAAAABginECAAAAAACYYpwAAAAAAACmGCcAAAAA AIApxgkAAAAAAGCKcQIAAAAAAJhinAAAAAAAAKYYJwAAAAAAgCnGCQAAAAAAYIpxAgAAAAAAmGKc AAAAAAAAphgnAAAAAACAKcYJAAAAAABginECAAAAAACYYpwAAAAAAACmGCcAAAAAAIApxgkAAAAA AGCKcQIAAAAAAJhinAAAAAAAAKYYJwAAAAAAgCnGCQAAAAAAYIpxAgAAAAAAmGKcAAAAAAAAphgn AAAAAACAKcYJAAAAAABginECAAAAAACYYpwAAAAAAACmGCcAAAAAAIApxgkAAAAAAGCKcQIAAAAA AJhinAAAAAAAAKYYJwAAAAAAgCnGCQAAAAAAYIpxAgAAAAAAmGKcAAAAAAAAphgnAAAAAACAKcYJ AAAAAABginECAAAAAACYYpwAAAAAAACmGCcAAAAAAIApxgkAAAAAAGCKcQIAAAAAAJhinAAAAAAA AKYYJwAAAAAAgCnGCQAAAAAAYIpxAgAAAAAAmGKcAAAAAAAAphgnAAAAAACAKcYJAAAAAABginEC AAAAAACYYpwAAAAAAACmGCcAAAAAAIApxgkAAAAAAGCKcQIAAAAAAJhinAAAAAAAAKYYJwAAAAAA gCnGCQAAAAAAYIpxAgAAAAAAmGKcAAAAAAAAphgnAAAAAACAKcYJAAAAAABginECAAAAAACY8rYO AAAAuSc9PV2XLl268XXt2jWlpqbq0qVLSktL0+XLl3XlyhWlpaUpOTlZqampunbtmlJSUpSZmfmr /67MzEylpKTc8p+7cOHC8vLy+tV/5uXlpcKFC8vPz0/58uVTkSJFlC9fPt1zzz0qVKiQfH195e/v rwIFCih//vzy9/e/8eXr65sj/58AAADHwzgBAIATuHbtms6dO6dTp07p3LlzSkpK0unTp2+MDsnJ yUpOTv7VEPHvMcJVFChQ4Fdjhb+/v4oUKaIiRYrc+Pdly5ZVyZIlVapUqRt/nD9/fut0AADwJzyy s7OzrSMAAHBXqampOn78uE6cOKGTJ0/q2LFjN4aHpKSkG4PEL7/8Yp3qtAoXLqwyZcqoVKlSKlWq lMqUKaOSJUuqYsWKCggIuPHFiAEAgJlsxgkAAHJRUlKSDh48+JsB4t9/nJSUZJ2IfyldurTKly+v gIAAVahQ4cZoUaFCBVWpUkUlS5a0TgQAwFUxTgAAcDeuXbumvXv36vDhw7/5OnHihDIyMqwTkUN8 fX1Vvnx5Va5c+TdfDzzwACcvAAC4c4wTAADcitTUVO3bt0/79u3Tnj17tG/fPh04cECHDh1yqXcd cGf8/PwUGBioqlWrKigoSMHBwapevbqCgoKUL18+6zwAABwd4wQAAP/p2rVr2rdvn/bu3Xvja8+e PTpy5MhvPr0C+DNeXl6qXLmygoODFRQUpAceeEBBQUEKCgripAUAAP+HcQIA4L7Onj2rbdu2/err 8OHDysrKsk6Di/Py8lJgYKBq1ar1qy/etQAAuCnGCQCAezhy5MhvhohTp05ZZwG/Uq5cud8MFvfd d591FgAAuY1xAgDgen7++WclJCRo48aNSkhIUGJiopKTk62zgDtStGhR1alTR2FhYQoNDVVYWJiK Fy9unQUAQE5inAAAOLerV69q/fr1Wrt2rbZs2aItW7bo9OnT1llAripTpoxCQkIUEhKi8PBwNWzY UAUKFLDOAgDgTjFOAACcy4ULF7R27VqtXr1aCQkJ2rp1K5+WAbfn5+enkJAQhYWFKTw8XOHh4SpW rJh1FgAAt4pxAgDg2M6dO6fVq1dr9erVWrlypXbv3s2DlcCf8PDw0AMPPKBGjRopPDxcjRo1Urly 5ayzAAD4I4wTAADHsmfPHq1bt07x8fFau3YtVzSAHFK6dGnVrVtX4eHhaty4sWrVqiVPT0/rLAAA JMYJAIC1S5cuacWKFYqPj1d8fLx+/PFH6yTALZQpU0aRkZFq0qSJmjRpolKlSlknAQDcF+MEACBv paenKyEh4cYYsXnzZl2/ft06C3BrHh4eevjhh2+MFeHh4cqXL591FgDAfTBOAABy365du26MEatX r9bly5etkwDchJ+fnyIiIhQZGanIyEjVqFHDOgkA4NoYJwAAOe/atWtavny5FixYoIULF+rEiRPW SQDuwn333admzZqpefPmevTRR5U/f37rJACAa2GcAADkjL1792r+/PmaP3++EhISlJmZaZ0EIBd4 e3srNDRULVq0UMuWLRUUFGSdBABwfowTAIA7k5mZqU2bNt04HbFjxw7rJAB57N9vVfz7VEXdunX5 BBAAwJ1gnAAA3LorV65o0aJFN05IJCcnWycBcCBFixZV8+bN1bZtW0VGRvKoJgDgVjFOAABu7pdf ftHcuXM1a9YsLV++XFevXrVOAuAE/Pz89Pjjj6tt27Zq06aNChYsaJ0EAHBcjBMAgN+6evWqFi9e rG+++UYLFixQSkqKdRIAJ1akSBG1aNFCUVFReuKJJ3hQEwDw3xgnAAD/Ky0tTXFxcYqNjdXChQs5 IQEgVxQsWFDNmzdXdHS0nnjiCfn6+lonAQDsMU4AgDvLyMjQ4sWLNWXKFC1YsEDXrl2zTgLgRgoU KKDmzZurY8eOatq0qXx8fKyTAAA2GCcAwB3t2LFDX3/9taZNm6aTJ09a5wCAKlasqPbt26tDhw4K Dg62zgEA5C3GCQBwF0ePHlVsbKxiY2O1Z88e6xwA+EMPPfSQoqOjFR0drYCAAOscAEDuY5wAAFd2 /vx5TZ06VVOmTNGWLVuscwDgtoWEhKhHjx5q3769ChUqZJ0DAMgdjBMA4IrWrVuniRMnatasWXzS BgCX4O/vr2effVadO3dWWFiYdQ4AIGcxTgCAqzh48KDGjRunqVOn6qeffrLOAYBcExAQoOjoaPXo 0UOVK1e2zgEA3D3GCQBwZunp6Zo3b54mTpyo77//XpmZmdZJAJBnvL291bRpU3Xt2lUtWrSQt7e3 dRIA4M4wTgCAM9qzZ4+GDx+uGTNm6NKlS9Y5AGCuSJEi6tSpk3r37q3AwEDrHADA7WGcAABnkZWV pSVLlujLL7/UokWLOCUBAL/D29tbzZs310svvaTGjRvL09PTOgkA8OcYJwDA0R07dkxffvmlJk+e rDNnzljnAIDTKFOmjDp16qT/9//+Hx9JCgCOjXECABzV2rVr9eWXX+qbb75RWlqadQ4AOK38+fOr bdu2eumll1S/fn3rHADAbzFOAIAjuXLlisaNG6dRo0bpwIED1jkA4HKqVauml156Sd27d5efn591 DgDgfzFOAIAjSEpK0ujRo/Xll19ydQMA8kDZsmX1t7/9TT179lSJEiWscwDA3TFOAICl+Ph4ff75 51q0aJGysrKscwDA7fj4+Kh169Z6+eWX1aBBA+scAHBXjBMAkNcyMjI0bdo0DR8+XFu2bLHOAQD8 S0hIiHr37q327dvLx8fHOgcA3AnjBADkldTUVE2ePFmDBw/WoUOHrHMAAH/g/vvv1+uvv66OHTsq X7581jkA4A4YJwAgt126dEmjR4/WsGHDeE8CAJxI2bJl9corr6hHjx4qVKiQdQ4AuDLGCQDILceP H9eQIUM0fvx4XblyxToHAHCHChYsqK5du+r1119X+fLlrXMAwBUxTgBATtuzZ48GDRqk6dOnKyMj wzoHAJBDfH199cwzz6h///4KCgqyzgEAV8I4AQA5ZdeuXfroo480a9YsZWZmWucAAHKJt7e3nn32 WfXv3181atSwzgEAV8A4AQB3a8eOHXrvvfc0d+5c8bdUAHAfnp6eatu2rd5++2098MAD1jkA4MwY JwDgTq1cuVL/8z//o3Xr1lmnAACMNW7cWB9++KHq1atnnQIAzijb07oAAJzNihUrFB4erscee4xh AgAgSYqPj1doaKiaNGmijRs3WucAgNNhnACAW7R8+XKFh4fr8ccfZ5QAAPyu+Ph4hYWFqUmTJkpI SLDOAQCnwbUOAPgT27dv19tvv60FCxZYpwAAnIiHh4dat26t999/nzcpAODmeHMCAP7I9u3b9frr rys+Pt46BQDgxDw8PNSsWTN9+OGHeuihh6xzAMARMU4AwH87cOCA3nrrLX3zzTfKysqyzgEAuAhP T09FRUXp448/VmBgoHUOADgSxgkA+LeffvpJ7733niZOnKiMjAzrHACAi/Lx8VGXLl00YMAAlSlT xjoHABwB4wQAnD17Vu+8844mTZqk9PR06xwAgJvw8/PT3//+d7355psqWrSodQ4AWGKcAOC+MjIy 9MUXX+j999/X+fPnrXMAAG6qZMmSevfdd9WzZ095e3tb5wCABcYJAO4nKytL48aN0/vvv6+TJ09a 5wAAIEmqUKGC3n//fXXs2FEeHh7WOQCQlxgnALiX1atX69VXX1ViYqJ1CgAAv6tevXoaOnSoGjZs aJ0CAHkl29O6AADywqFDh9SiRQtFREQwTAAAHNqmTZv0yCOPqF27djpy5Ih1DgDkCcYJAC4tOTlZ ffr0UVBQkBYsWGCdAwDALcnOztasWbNUvXp19enTR5cuXbJOAoBcxbUOAC4pOztbkyZN0ltvvaXT p09b5wAAcFfKly+vTz75RNHR0bxHAcAV8eYEANezZs0a9e7dW9u3b7dOAQAgR9WuXVsjRoxQgwYN rFMAICfx5gQA13HixAm1aNFCjRo1YpgAALikrVu3Kjw8XJ06ddLZs2etcwAgxzBOAHB6aWlpGjBg AO9KAADcQnZ2tqZMmaLq1atr0KBBSk9Pt04CgLvGtQ4ATi0uLk59+vTRgQMHrFMAADBRrVo1DR8+ XJGRkdYpAHCnuNYBwDmdOnVKHTp0ULNmzRgmAABu7ccff1TTpk3VpUsXrnoAcFqcnADgVNLT0/XR Rx/pn//8p65du2adAwCAQ/Hz89M777yj1157TV5eXtY5AHCr+LQOAM5jw4YNevHFF7Vz507rFAAA HNrDDz+sr776SvXq1bNOAYBbwbUOAI7v/Pnz6tSpkxo2bMgwAQDALdi+fbvq16+vnj17KiUlxToH AP4U4wQAhxYTE6Pg4GBNmTJFHPQCAODWZWVlacyYMapevbpiYmKscwDgprjWAcAhnTx5Un//+9/1 7bffWqcAAOAS2rVrp2HDhqlMmTLWKQDw37jWAcCxZGVlafjw4apRowbDBAAAOWjmzJkKCgrS6NGj OY0IwOFwcgKAw9i6dau6du2qHTt2WKcAAODSwsLCNH78eNWoUcM6BQAkTk4AcATp6enq16+fwsLC GCYAAMgDCQkJevjhh9WvXz+lp6db5wAAJycA2Nq8ebO6du2q3bt3W6cAAOCWHnroIU2YMEEhISHW KQDcFycnANhITU1Vv3791KBBA4YJAAAM7dy5U2FhYerXr5/S0tKscwC4KU5OAMhzvC0BAIBjql27 tiZOnKiHHnrIOgWAe+HkBIC8k5GRoXfeeUehoaEMEwAAOKCtW7eqTp06ev/993X9+nXrHABuhJMT APLE9u3b9dxzz2nPnj3WKQAA4BY8+OCDmjp1KqcoAOQFTk4AyF1ZWVkaNGiQwsLCGCYAAHAiu3bt UmhoqAYNGqSsrCzrHAAujpMTAHLN4cOH1bFjR61fv946BQAA3IXGjRtr4sSJKl++vHUKANfEyQkA uWPMmDGqVasWwwQAAC4gPj5eDz74oL7++mvrFAAuipMTAHJUSkqK+vTpo0mTJlmnAACAXNCjRw8N HTpU99xzj3UKANeRzTgBIMds2LBBHTp00JEjR6xTAABALqpatapiY2NVp04d6xQAroFrHQDuXkZG hvr06aOGDRsyTAAA4AYOHDigsLAwDRgwQJmZmdY5AFwAJycA3JVDhw4pOjpamzZtsk4BAAAGIiIi NHXqVB7LBHA3ODkB4M7Fxsaqdu3aDBMAALixVatWKTg4WDNmzLBOAeDEGCcA3LbLly+rU6dO6tCh g1JSUqxzAACAsUuXLunZZ59Vp06ddPXqVescAE6Iax0AbsvevXvVvn177dy50zoFAAA4oJCQEE2b Nk1Vq1a1TgHgPLjWAeDWjR8/XnXr1mWYAAAAf2jLli2qXbu2pkyZYp0CwIlwcgLAn7p06ZI6d+6s b7/91joFAAA4keeee06jR4/WPffcY50CwLFlM04AuKmdO3eqbdu22r9/v3UKAABwQtWrV9esWbMU HBxsnQLAcXGtA8AfGzdunEJDQxkmAADAHfvhhx9Uv359TZs2zToFgANjnADwG1evXlWnTp3UvXt3 paamWucAAAAnd/nyZUVHR6tnz55KS0uzzgHggLjWAeBXjh8/rnbt2mnjxo3WKQAAwAWFh4dr+vTp KleunHUKAMfBtQ4A/ycuLk61a9dmmAAAALlm7dq1ql27tpYtW2adAsCBME4AUFZWlvr166dmzZrp /Pnz1jkAAMDFJSUlqUmTJurXr5+ysrKscwA4AK51AG7u0qVLio6O1qJFi6xTAACAG2rRooWmTp2q woULW6cAsMNHiQLu7IcfflCrVq34NA4AAGDqwQcf1Lx581SpUiXrFAA2eHMCcFfz58/nY0IBAIBD 2LVrl+rWrav4+HjrFABGGCcANzRq1ChFRUUpJSXFOgUAAECSdP78eTVr1kxjx461TgFggGsdgBu5 evWqXnjhBU2fPt06BQAA4A916NBBY8eOVYECBaxTAOQN3pwA3MXZs2cVFRWldevWWacAAAD8qYiI CM2ePVslSpSwTgGQ+xgnAHeQmJioli1b6vTp09YpAAAAt6xcuXL67rvvVLt2besUALmLBzEBVzd3 7lw9+uijDBMAAMDp/PTTT4qIiNC8efOsUwDkMsYJwIUNGDBAUVFRunLlinUKAADAHbl8+bKioqI0 aNAg6xQAuYhrHYALSk1NVZcuXXj4EgAAuJRu3brpiy++kI+Pj3UKgJzFmxOAq0lOTla7du20dOlS 6xQAAIAc16xZM02bNk2FChWyTgGQcxgnAFeyb98+NW/eXIcPH7ZOAQAAyDVVqlTRggULVK1aNesU ADmDBzEBV7F+/Xo1atSIYQIAALi8gwcPKiIiQomJidYpAHII4wTgAmJjY/XYY4/p559/tk4BAADI E2fPnlV4eLhmzpxpnQIgBzBOAE5uwIABeu6555Senm6dAgAAkKfS0tIUHR2tUaNGWacAuEu8OQE4 qaysLPXt21fDhw+3TgEAADDXu3dvffbZZ/L05PevgBPiQUzAGWVkZOiFF17QlClTrFMAAAAcxgsv vKDRo0fL29vbOgXA7WGcAJzNzz//rJYtW2rDhg3WKQAAAA7n8ccf15w5c+Tv72+dAuDWMU4AzuT4 8eN68skntXfvXusUAAAAhxUcHKxFixYpICDAOgXArWGcAJzF/v379cQTT+jo0aPWKQAAAA4vMDBQ S5YsUWBgoHUKgD+XzWsxgBNYv369wsLCGCYAAABu0aFDh1SvXj0lJCRYpwC4BYwTgINbvHixIiMj dfHiResUAAAAp3LhwgU1adJES5cutU4B8CcYJwAHNnPmTLVq1UpXrlyxTgEAAHBKly9fVosWLTR7 9mzrFAA3wTgBOKiYmBh16NBB6enp1ikAAABOLS0tTdHR0Zo+fbp1CoA/wDgBOKB+/frp+eef1/Xr 161TAAAAXEJGRoaio6M1ePBg6xQAv4NP6wAcSFZWll5++WWNGDHCOgUAAMBlvfnmm/r444/l4eFh nQLgf/FRooCjyM7OVq9evfTFF19YpwAAALi8vn37asiQIQwUgGNgnAAcwfXr19WxY0fuQQIAAOSh rl27auzYsfL05LY7YIxxArB2/fp1dejQQTNnzrROAQAAcDvPPvuspkyZIm9vb+sUwJ0xTgCW/v0w Ex9tBQAAYKddu3b6+uuvGSgAO9mcXwKMXL9+XZ06dWKYAAAAMDZz5kx17dpVmZmZ1imA2+LkBGAg NTVVbdq0UVxcnHUKAAAA/qV58+aaPXu28uXLZ50CuBtOTgB57dq1a3rqqacYJgAAABzMggUL1KZN G6WmplqnAG6HcQLIQ2lpaWrXrp0WL15snQIAAIDfsWjRIkVHRys9Pd06BXArXOsA8khqaqpatmyp pUuXWqcAAADgT0RGRmrevHnKnz+/dQrgDrjWAeSF1NRUtW7dmmECAADASXz//fdq06aN0tLSrFMA t8A4AeSytLQ0tWnTRkuWLLFOAQAAwG2Ii4tTdHS0rl+/bp0CuDzGCSAXXb9+XdHR0Tx+CQAA4KTm zJmj9u3bM1AAuYxxAsglWVlZ6tatm+bMmWOdAgAAgLswe/Zs/e1vfxPP9QG5hwcxgVyQmZmp6Oho zZw50zoFAAAAOaRz584aP368PD35HS+Qw3gQE8hp/z4xwTABAADgWiZNmqQePXpwggLIBYwTQA57 9dVXNWnSJOsMAAAA5ILx48erf//+1hmAy2GcAHLQW2+9pWHDhllnAAAAIBcNGjRIAwcOtM4AXApv TgA5ZPDgwXrjjTesMwAAAJBHhg4dqr59+1pnAK4gm3ECyAHjxo3j/iEAAICb8fDw0Pjx49WlSxfr FMDZMU4Ad2vhwoV66qmnlJGRYZ0CAACAPObr66v58+crMjLSOgVwZowTwN1YsmSJWrZsqfT0dOsU AAAAGClQoIDi4uIUERFhnQI4K8YJ4E6tX79eTZo00dWrV61TAAAAYKxw4cJavny5QkJCrFMAZ8Q4 AdyJvXv3qlGjRjp//rx1CgAAABxEyZIltXr1alWvXt06BXA2jBPA7Tp9+rQaNGigo0ePWqcAAADA wVSpUkXr1q1TqVKlrFMAZ5LtaV0AOJOLFy+qcePGDBMAAAD4XQcPHtRf/vIXJScnW6cAToVxArhF qampat26tfbu3WudAgAAAAe2e/duPfXUU0pLS7NOAZwG4wRwCzIzM/XMM89o9erV1ikAAABwAitX rlTnzp2VlZVlnQI4BcYJ4Bb84x//0HfffWedAQAAACcyffp0DRw40DoDcAo8iAn8icGDB+uNN96w zgAAAICTGjZsmPr06WOdATgyPq0DuJmYmBh17txZ/GUCAACAO+Xp6akZM2bo6aeftk4BHBXjBPBH li5dqmbNmikjI8M6BQAAAE4uf/78+v777/XII49YpwCOiHEC+D0HDhxQWFiYLly4YJ0CAAAAF1Gy ZElt3LhRlSpVsk4BHE02D2IC/yUpKUmRkZEMEwAAAMhR586dU+PGjfXzzz9bpwAOh3EC+A9paWlq 06aNjh49ap0CAAAAF3T48GFFRUUpPT3dOgVwKIwTwH/o1auX1q1bZ50BAAAAF7Z69Wq9+uqr1hmA Q2GcAP7lww8/1Lhx46wzAAAA4AZGjhypIUOGWGcADoMHMQFJ06ZNU4cOHfjIUAAAAOQZT09PzZkz R61atbJOAazxaR3Axo0b9dhjj+natWvWKQAAAHAzBQsW1Nq1a1WzZk3rFMAS4wTc24kTJ1SvXj2d OXPGOgUAAABuqmzZstq0aZPKlStnnQJY4aNE4b7S0tLUtm1bhgkAAACYOnXqlNq3b6+MjAzrFMAM 4wTcVteuXbVx40brDAAAAEBr1qxRt27drDMAM4wTcEuffvqpYmNjrTMAAACAG2JiYjRy5EjrDMAE b07A7axcuVKRkZEcmwMAAIDD8fX11YoVK9SgQQPrFCAv8SAm3MvBgwdVr149Xbx40ToFAAAA+F3F ixfX5s2bValSJesUIK/wICbcR0pKilq0aMEwAQAAAId2/vx5tWnTRlevXrVOAfIM4wTcQnZ2tp5/ /nn98MMP1ikAAADAn9q+fbu6d+9unQHkGcYJuIUPPvhA3377rXUGAAAAcMtiY2P16aefWmcAeYI3 J+Dyli5dqieffFKZmZnWKQAAAMBt8fHxUXx8vBo1amSdAuQmHsSEazty5IhCQkJ4ZwIAAABOq1Sp Utq6davKlStnnQLkFh7EhOtKS0vTM888wzABAAAAp5aUlKSnn35a6enp1ilArmGcgMv6xz/+oc2b N1tnAAAAAHctISFBAwcOtM4Acg3XOuCSpkyZok6dOllnAAAAADnGw8NDs2fPVps2baxTgJzGmxNw PXv37lVoaKguX75snQIAAADkqCJFiigxMVGBgYHWKUBO4s0JuJYrV66oXbt2DBMAAABwScnJyWrT po2uXbtmnQLkKMYJuJTu3btrz5491hkAAABArtm5c6f69OljnQHkKK51wGVMnjxZnTt3ts4AAIdX rFgxFStWTP7+/ipatKiKFCkif3//G//q6+urokWLKl++fPLz81OhQoXk6+srf3//2/5zXbp0SWlp abp8+bKuXLmi9PR0Xbx4Uenp6UpOTtalS5du/OvFixeVnJysixcv6sKFC7nwvxwAXMu0adP07LPP WmcAOYE3J+AaduzYobCwMKWmplqnAIAZf39/BQQEqGLFiipfvrzKlSs4L5L+AAAgAElEQVSnsmXL qlSpUipduvSNP/b19bVO/VNpaWlKSkrSqVOnlJSUpLNnz+r06dM6efKkTp48qWPHjunEiRNKSUmx TgUAM/fcc48SExNVvXp16xTgbjFOwPldvXpVdevW1d69e61TACBXeXp6KiAgQFWrVr3xdf/99+u+ ++5ThQoVVKhQIevEPJeSkqITJ07oyJEj2r9/vw4cOHDj68SJE+LbHACu7sEHH9SmTZuUP39+6xTg bjBOwPm9+OKL+uqrr6wzACDHeHl5KTAwUMHBwapRo4aCg4MVFBSk+++/n28+b8O1a9e0f/9+7du3 T7t379bevXu1e/duHT58WJmZmdZ5AJBj+vTpo2HDhllnAHeDcQLO7bvvvlPr1q35zRgAp+Xv76+a NWuqVq1aqlWrlmrWrKmgoCDly5fPOs1lpaamat++fdqxY4e2bdumbdu2aceOHVwRAeC0PD09FRcX p8jISOsU4E4xTsB5HT16VLVq1VJycrJ1CgDckgIFCigkJEQNGjRQnTp1VLt2bVWuXFkeHh7WaW4v Oztbhw4d0rZt27R582Zt2LBBiYmJvGUEwGmUKFFCO3bsUNmyZa1TgDvBOAHnlJGRofDwcG3atMk6 BQD+ULly5RQeHq769eurfv36qlWrlnx8fKyzcIvS09O1detWJSQkaP369Vq3bp1OnTplnQUAfygi IkLLli2Tl5eXdQpwuxgn4JzefvttffDBB9YZAPAr5cuX12OPPaaIiAhFRESoSpUq1knIYfv379eq Vau0atUqrVy5Uj/99JN1EgD8ygcffKC33nrLOgO4XYwTcD7Lli1TZGSksrKyrFMAuLnixYurcePG atKkiR599FEFBgZaJyGPHThwQCtXrtTSpUu1bNkyXbhwwToJgJvz9vbWypUr1bBhQ+sU4HYwTsC5 XLp0STVr1tSxY8esUwC4IV9fX9WvX1+RkZGKjIxU7dq15enpaZ0FB5GZmaktW7bo+++/1/fff6+E hARlZGRYZwFwQ1WqVNG2bdtUsGBB6xTgVjFOwLlERUVpzpw51hkA3EjRokX117/+Va1atVLTpk1V qFAh6yQ4iZSUFMXFxWnevHmKi4vjAWcAeapz586aOHGidQZwqxgn4DxiY2PVoUMH6wwAbqBixYpq 1aqVWrVqpUaNGsnb29s6CU4uIyNDq1at0rx58/Tdd9/p+PHj1kkA3MDMmTPVtm1b6wzgVjBOwDmc Pn1aDz74oM6fP2+dAsAFeXh4qEGDBmrbtq1atGihypUrWyfBxe3Zs0cLFizQ/PnztW7dOuscAC6q dOnS2rVrl0qWLGmdAvwZxgk4vqysLEVGRmrZsmXWKQBcTM2aNRUVFaU2bdrogQcesM6Bm9q1a5fm zJmj2bNna/fu3dY5AFxMZGSkFi9eLA8PD+sU4GYYJ+D4hg0bpr59+1pnAHAR999/v7p27ar27dur QoUK1jnArxw7dkzTp0/X+PHjdeDAAescAC7iiy++0EsvvWSdAdwM4wQc265du1S3bl2lpaVZpwBw Yv7+/oqKilLHjh3VqFEjPmEDDi8rK0srVqzQ1KlTNWfOHKWkpFgnAXBifn5+2rp1q6pVq2adAvwR xgk4rvT0dIWFhWnbtm3WKQCckIeHhyIiItS1a1c9/fTTKlCggHUScEeuXr2qWbNmafz48Vq7dq34 1g3AnQgJCdGGDRvk4+NjnQL8HsYJOK6BAwdqwIAB1hkAnExgYKC6d++ujh07qmzZstY5QI766aef NHXqVI0ZM0aHDx+2zgHgZD766CP179/fOgP4PYwTcEybN29W/fr1lZmZaZ0CwAl4eHiocePG6tWr l5o1ayYvLy/rJCBXXb9+XfPnz9fIkSO1fPly6xwATsLb21sJCQkKCQmxTgH+G+MEHE9aWppq1aql ffv2WacAcHDFixdXt27d1KNHDz7+E27r0KFDGjt2rMaOHasLFy5Y5wBwcDVr1tTmzZu53gFHk82L YHA4H3/8McMEgJsKDAzUZ599pkOHDumTTz5hmIBbCwwM1CeffKJDhw5pyJAh/PUA4KZ27NihwYMH W2cAv8HJCTiUvXv3qnbt2nw6B4Df1ahRI/Xt21ctW7bkEzeAP5CZmal58+bps88+09q1a61zADig AgUKaPv27br//vutU4B/41oHHEdGRobq1aun7du3W6cAcCB+fn7q1q2bevXqpapVq1rnAE5l//79 GjVqlMaOHatr165Z5wBwIKGhoVq3bh3vNMFRcK0DjuPTTz9lmABwQ6FChfTaa6/pwIED+vzzzxkm gDtw//336/PPP9ePP/6ol19+Wffcc491EgAHsXHjRn3++efWGcANnJyAQ9izZ49CQkK4zgFAJUqU UO/evdWrVy8VLVrUOgdwKefPn9eIESM0YsQIHs8EID8/P23fvp1fAMARcK0D9jIzM9WwYUNt3LjR OgWAoYCAAL366qvq1q0bv90Fctnly5c1ZswYDRkyRKdOnbLOAWAoIiJCK1askIeHh3UK3BvXOmBv 9OjRDBOAGwsMDNTMmTN19OhR9enTh2ECyAMFCxbUK6+8oqNHj2ry5MmqVKmSdRIAI6tWrdKECROs MwCudcDWkSNHFBwcrKtXr1qnAMhjJUuW1Jtvvqm//e1vKlCggHUO4NauXLmikSNHavDgwTp//rx1 DoA8VrhwYe3du1flypWzToH74loHbP31r39VXFycdQaAPFS0aFG99tpr6t27twoWLGidA+A/pKSk 6LPPPtPQoUOVkpJinQMgDz399NOaNWuWdQbcF+ME7Hz77bd66qmnrDMA5BF/f3/1799fvXr14uoG 4OAuX76sUaNG6aOPPmKkANzI4sWL9cQTT1hnwD0xTsBGcnKygoKCdObMGesUALnM29tbXbp00bvv vstxUcDJHD9+XAMGDFBMTIwyMzOtcwDksgoVKmjPnj2cbIQFHsSEjX/84x8ME4AbiIqK0u7duzVm zBiGCcAJVahQQRMmTNDOnTvVqlUr6xwAuez48eN69913rTPgpjg5gTy3bt06NWrUSFlZWdYpAHJJ o0aNNHToUIWEhFinAMhBmzdv1iuvvKK1a9dapwDIJV5eXtq0aZNq165tnQL3wrUO5K2MjAzVrl1b u3fvtk4BkAsCAwP12WefqUWLFtYpAHJJdna2Zs+erTfffFNHjhyxzgGQC+rUqaOEhAR5eXlZp8B9 cK0DeevTTz9lmABckJ+fnwYOHKidO3cyTAAuzsPDQ23bttXOnTv11ltvKX/+/NZJAHJYYmKiRo4c aZ0BN8PJCeSZY8eO6YEHHtCVK1esUwDkoI4dO2rQoEEqU6aMdQoAA6dOnVK/fv00ZcoU6xQAOcjf 31/79u3jn+/IK5ycQN75+9//zjABuJDq1atr+fLliomJ4RsXwI2VLVtWMTExmj9/vipVqmSdAyCH XLp0SX379rXOgBthnECeWLRokebPn2+dASAH+Pj46I033lBiYqIee+wx6xwADqJ58+basWOH+vbt K29vb+scADlgxowZWrFihXUG3ATXOpDrMjIyVLNmTe3bt886BcBdCgsL05gxY/Tggw9apwBwYNu3 b1f37t2VmJhonQLgLtWqVUubN2/mcUzkNq51IPcNGTKEYQJwciVKlNDkyZO1fv16hgkAf+rhhx/W pk2bNHnyZBUrVsw6B8Bd2LZtm0aNGmWdATfAyQnkquPHjysoKEhXr161TgFwhzp27KjBgwerdOnS 1ikAnNCZM2f0xhtv8GAm4MQKFy6sH3/8Uffee691ClwXJyeQu/r168cwATipUqVKafbs2YqJiWGY AHDH7r33XsXExCg2NlYlSpSwzgFwB1JSUvQ///M/1hlwcZycQK5ZuXIlj+UBTqpHjx765z//KX9/ f+sUAC4kOTlZb775psaMGWOdAuA2eXp6av369QoNDbVOgWvKZpxArrh+/boefvhh7dmzxzoFwG0o X768xo4dq6ZNm1qnAHBhCxcuVI8ePXTq1CnrFAC3ISQkRJs2bZKnJwfwkeO41oHcMX78eIYJwMlE RUVpy5YtDBMAcl2zZs20ZcsWtWrVyjoFwG3YsmWLvv76a+sMuChOTiDHXbhwQVWqVNHFixetUwDc gmLFimnMmDGKioqyTgHghmbNmqWePXvyfQPgJEqVKqUDBw6ocOHC1ilwLZycQM776KOP+AYDcBKP PfaYtm/fzjABwEzbtm21fft2RUREWKcAuAVJSUn69NNPrTPggjg5gRx17NgxVa9eXampqdYpAG4i X758GjRokHr37i0PDw/rHABQVlaWRowYoTfeeEPp6enWOQBuomDBgtq/f7/KlCljnQLXwckJ5KzX X3+dYQJwcJUqVdKqVavUp08fhgkADsPT01N9+vTRsmXLFBAQYJ0D4CYuX76sfv36WWfAxXByAjlm 7dq1euSRR6wzANxEhw4dNHr0aBUsWNA6BQD+UEpKinr27Knp06dbpwD4A56entq4caPq1KljnQLX wMkJ5Izs7Gy9+uqr1hkA/oCfn58mT56sqVOnMkwAcHiFCxfWtGnTNHnyZBUoUMA6B8DvyMrK0muv vWadARfCOIEcMWPGDG3atMk6A8DvCA4OVmJiojp16mSdAgC3pVOnTlq3bp2qVKlinQLgd6xatUrz 5s2zzoCL4FoH7lpqaqqCgoJ09OhR6xQA/6Vly5aKiYmRv7+/dQoA3LELFy6oQ4cOWrx4sXUKgP8S GBiovXv3ytfX1zoFzo1rHbh7w4cPZ5gAHIyPj4+++uorzZs3j2ECgNMrVqyYFi1apE8++UReXl7W OQD+w6FDhzR69GjrDLgATk7griQnJyswMFAXLlywTgHwL/fee69mzJihRo0aWacAQI5buXKlnnnm GSUlJVmnAPiXUqVK6dChQ7xrhbvByQncnY8//phhAnAgYWFhSkxMZJgA4LIeffRRJSYmqm7dutYp AP4lKSlJgwcPts6Ak+PkBO7Y2bNnFRgYqCtXrlinAJD0zDPPaMKECfLz87NOAYBcd/nyZXXq1Elz 5861TgEgyd/fX4cOHVLx4sWtU+CcODmBOzdgwACGCcABeHt766uvvtL06dMZJgC4jYIFC2rOnDka NmyYPD35lhawdunSJX3wwQfWGXBinJzAHTl48KBq1KihjIwM6xTArRUtWlTTp09XZGSkdQoAmImL i1N0dLSSk5OtUwC3li9fPu3fv18VKlSwToHz4eQE7sy7777LMAEYCwwM1Jo1axgmALi9J598UitX rtR9991nnQK4tbS0NA0cONA6A06KkxO4bdu3b1dISIiysrKsUwC3FR4erm+//ZZ7nQDwH5KSktSq VSslJCRYpwBuy8vLS7t27VJQUJB1CpwLJydw+95++22GCcDQiy++qBUrVjBMAMB/KVWqlFatWqWO HTtapwBuKzMzU++88451BpwQJydwW9atW6fw8HDrDMAteXp6aujQoerTp491CgA4tOzsbA0cOFDv vfee+FYXyHseHh7asGGDQkNDrVPgPLIZJ3BbmjRpovj4eOsMwO0UKFBAMTExevrpp61TAMBpzJgx Q507d1Zqaqp1CuB2mjdvrvnz51tnwHkwTuDWrVixQo8//rh1BuB2ChYsqLlz56px48bWKQDgdBYu XKh27drp6tWr1imA21mzZg2nrnGreHMCt46Xd4G8V7JkSa1YsYJhAgDuULNmzRQfH69ixYpZpwBu 58MPP7ROgBPh5ARuCW9NAHmvWrVqWrx4MR+NBwA54MiRI3riiSd04MAB6xTAbXh4eGjz5s0KCQmx ToHj4+QEbs3bb79tnQC4lbCwMK1fv55hAgBySKVKlbR69WrVqlXLOgVwG9nZ2XxyB24ZJyfwp1at WqVHH33UOgNwG2FhYYqLi1ORIkWsUwDA5Vy4cEFNmzbV5s2brVMAt7Fx40bVq1fPOgOOjZMT+HPv vfeedQLgNsLDw7VkyRKGCQDIJcWKFVN8fLweeeQR6xTAbfDzBG4F4wRuavXq1Vq+fLl1BuAWWrRo ofj4eBUuXNg6BQBcWuHChbV06VK1bt3aOgVwCwsXLtSmTZusM+DgGCdwU++//751AuAWWrVqpdmz ZytfvnzWKQDgFvLly6eZM2fq6aeftk4B3AI/V+DP8OYE/tCaNWvUqFEj6wzA5f31r3/VN998o/z5 81unAIDbycjIUIcOHTRr1izrFMDlbdq0SXXr1rXOgGPizQn8sU8//dQ6AXB5LVu21Jw5cxgmAMCI j4+PYmNj9cwzz1inAC6Pny9wM5ycwO/atm2bateubZ0BuLROnTppwoQJ8vLysk4BALeXlZWlF154 QZMmTbJOAVyWh4eHdu/erRo1alinwPFwcgK/7/PPP7dOAFxaly5dGCYAwIF4enpqwoQJevHFF61T AJeVnZ2t4cOHW2fAQXFyAr9x6NAhVatWTZmZmdYpgEvixAQAOK7MzEw9//zz+vrrr61TAJfk4+Oj Q4cOKSAgwDoFjoWTE/itYcOGMUwAueTfR4YZJgDAMXl5eSkmJkbR0dHWKYBLysjI4PQEfhcnJ/Ar 586d03333aerV69apwAup23btpo2bRrDBAA4gYyMDLVp00YLFiywTgFcTqFChXTs2DEVLVrUOgWO g5MT+LURI0YwTAC5oGnTppo6dSrDBAA4CR8fH82cOVOPPvqodQrgcn755Rd98cUX1hlwMJycwA2/ /PKLKlasqIsXL1qnAC4lPDxcS5YskZ+fn3UKAOA2paSk6C9/+YsSExOtUwCXUqpUKR09elQFChSw ToFj4OQE/s/YsWMZJoAcVqtWLS1YsIBhAgCcVOHChRUXF8dHHwI5LCkpSRMnTrTOgAPh5AQkSdev X1eVKlV07Ngx6xTAZVSrVk2rV69WqVKlrFMAAHfpp59+0iOPPKIjR45YpwAuo2rVqvrhhx/k6cnv zMHJCfzLzJkzGSaAHHTvvfdq/vz5DBMA4CLKlSunhQsXqkSJEtYpgMs4cOCA5s6da50BB8E4AUnS 0KFDrRMAl1G6dGmtWrVKVatWtU4BAOSgoKAgLV++XMWKFbNOAVzG559/bp0AB8G1DmjTpk0KDQ21 zgBcQpEiRbRy5UrVrFnTOgUAkEs2btyoxo0b6/Lly9YpgEvYvn073zuBax2QhgwZYp0AuARvb2/F xsbyD1cAcHGhoaGKiYnhnjyQQ/h5BBInJ9ze8ePHFRgYqOvXr1unAE7Nw8NDX3/9tdq3b2+dAgDI I+PGjVP37t2tMwCn5+PjoyNHjqhcuXLWKbDDyQl398UXXzBMADng9ddfZ5gAADfTrVs39erVyzoD cHoZGRn66quvrDNgjJMTbuzKlSsKCAjQxYsXrVMAp/b8889r4sSJ8vDwsE4BAOSx7OxsPffcc4qN jbVOAZxayZIldezYMRUoUMA6BTY4OeHOYmJiGCaAu9SwYUONHj2aYQIA3JSHh4fGjBmjkJAQ6xTA qZ07d46Rz81xcsJNZWVlKSgoSPv377dOAZxW1apVlZCQwEfKAQD0888/KzQ0VIcPH7ZOAZxWcHCw du7cyS993BMnJ9zVihUrGCaAu1CkSBHNnz+fYQIAIEkqUaKE5s+fr8KFC1unAE5r9+7dWrNmjXUG jDBOuKkRI0ZYJwBOy9PTUzExMapWrZp1CgDAgdSoUUPjxo3jt77AXRg5cqR1AoxwrcMNnTp1ShUr VuRTOoA7NGzYMPXp08c6AwDgoD755BP179/fOgNwSr6+vjpx4oRKlSplnYK8xbUOd/TVV18xTAB3 qGPHjgwTAICbevPNN9WuXTvrDMAppaena8yYMdYZMMDJCTeTkZGhihUr6vTp09YpgNNp2LChVqxY IR8fH+sUAICDS01NVXh4uLZs2WKdAjidgIAAHTlyRF5eXtYpyDucnHA33333HcMEcAfKlCmjWbNm MUwAAG5J/vz59c0336hEiRLWKYDTOXHihOLi4qwzkMcYJ9zM6NGjrRMAp+Pl5aXJkyerTJky1ikA ACdSsWJFTZgwQZ6efMsN3C5+bnE//J3Sjezfv1/Lli2zzgCczuDBg9WkSRPrDACAE2rRooXee+89 6wzA6cTFxeno0aPWGchDjBNuZMyYMeKJEeD2tGnTRi+//LJ1BgDAifXv319PPvmkdQbgVLKysjRu 3DjrDOQhHsR0E6mpqSpfvrzOnz9vnQI4jaCgIG3atEkFCxa0TgEAOLnk5GSFhITo8OHD1imA07j3 3nt17Ngx+fr6Wqcg9/EgpruYO3cuwwRwG/z8/DRz5kyGCQBAjihSpIhmzJihfPnyWacATuPMmTNa uHChdQbyCOOEmxg7dqx1AuBU/vnPfyo4ONg6AwDgQurUqaMPP/zQOgNwKvwc4z641uEGjh07psqV KysrK8s6BXAKnTp10uTJk60zAAAuqm3btpo9e7Z1BuAUvL29dfz4cT41zfVxrcMdTJgwgWECuEVV qlTRiBEjrDMAAC5szJgxqlixonUG4BSuX7+uiRMnWmcgD3BywsVlZmbqvvvu08mTJ61TAIfn6+ur hIQE1apVyzoFAODiEhMT1aBBA2VkZFinAA6vatWq+vHHH+Xh4WGdgtzDyQlXt3z5coYJ4BZ98MEH DBMAgDxRp04dvf3229YZgFM4cOCA1qxZY52BXMY44eI4AgXcmkceeUSvvPKKdQYAwI30799foaGh 1hmAU+DnGtfHtQ4XdvHiRZUtW1apqanWKYBDK168uHbs2KFy5cpZpwAA3MyJEydUs2ZNXbx40ToF cGj33HOPTp8+rUKFClmnIHdwrcOVTZs2jWECuAUjR45kmAAAmAgICNDQoUOtMwCHd+XKFc2cOdM6 A7mIccKFcfQJ+HMdO3bUs88+a50BAHBjnTt3Vrt27awzAIfHzzeujWsdLmrfvn2qUaOGdQbg0AIC ArRr1y75+/tbpwAA3Nz58+cVHBysM2fOWKcADsvDw0MHDx5U5cqVrVOQ87jW4aqmTp1qnQA4vFGj RjFMAAAcQvHixTVy5EjrDMChZWdna8qUKdYZyCWMEy4oOztbM2bMsM4AHFrPnj3VokUL6wwAAG6I iopS586drTMAh8a7E66Lax0uaMOGDWrQoIF1BuCwKlSooJ07d3JqAgDgcC5evKjg4GCdOnXKOgVw WFu2bFHt2rWtM5CzuNbhiqZNm2adADgsDw8PTZo0iWECAOCQihYtqnHjxllnAA6Nn3dcEycnXMz1 69dVtmxZnTt3zjoFcEhdunTRhAkTrDMAALipDh06KDY21joDcEhly5bViRMn5OnJ79pdSDbjhItZ smSJmjZtap0BOKTSpUtr7969KlasmHUKAAA39fPPP6tGjRr8wgn4AytXrlRERIR1BnIO1zpcDUec gD82ZMgQhgkAgFMoUaKEPv74Y+sMwGHxc4/r4eSEC7l27ZruvfdepaSkWKcADqd169aaO3eudQYA ALeladOmWrJkiXUG4HCKFi2qM2fOyNfX1zoFOYOTE65k4cKFDBP/n737Ds+6vvc//rozIEFiEvZe gbBlyFSWKMiSqEzFgUXFaiuOnh7qqRW1rtaq1FM91XJctVrRWlBAhhYQZEuQKSRSQmRECVlABsn9 +6P+PFUZyU3u+/0dz8d19Wqv9o8+q9L4ffH5fL/AKdSqVUvPPPOMdQYAAFX27LPPqmbNmtYZgOMc PXpUS5Yssc5ANWKc8BC++Quc2oMPPqiWLVtaZwAAUGXt2rXTL3/5S+sMwJF4/vEWrnV4xLFjx1S/ fn2dOHHCOgVwlG7dumnjxo2KiYmxTgEAICSlpaXq1q2bdu3aZZ0COEpCQoJycnIUFxdnnYJzx7UO r1iyZAnDBPA9gUBATz/9NMMEAMDVatSooaeeeso6A3CcwsJCffTRR9YZqCaMEx7BkSbgh6ZOnapL LrnEOgMAgHM2cuRITZ482ToDcJy5c+daJ6CacK3DA4qLi1W/fn0VFRVZpwCOkZiYqF27dqlRo0bW KQAAVIvs7Gx17NiRv+cD/k1SUpIOHz7MVzvcj2sdXrB06VJ+SAHf8/DDDzNMAAA8pVmzZrr//vut MwBHycvL0/Lly60zUA0YJzzgnXfesU4AHKVr1666/fbbrTMAAKh2d911l1JTU60zAEfhecgbuNbh cqWlpWrYsKHy8vKsUwDH+PDDDzV06FDrDAAAwuL999/XFVdcYZ0BOEaDBg104MABRUdHW6cgdFzr cLvly5czTAD/ZvTo0QwTAABPGzNmjC699FLrDMAxcnJytGrVKusMnCPGCZfjCBPwf+Li4vT73//e OgMAgLD77//+b8XGxlpnAI7Bc5H7MU64WEVFhd577z3rDMAxfvzjH6tNmzbWGQAAhF2HDh00bdo0 6wzAMebNmyfeWOBuvHPCxVavXq0BAwZYZwCOULduXWVkZCgpKck6BQCAiPj666+VkpKigoIC6xTA EdavX6/evXtbZyA0vHPCzRYtWmSdADjGzJkzGSYAAL5Sr149/cd//Id1BuAYPB+5GycnXKxr167a tm2bdQZgrmnTptqzZ4/i4+OtUwAAiKjCwkK1a9dOhw8ftk4BzPXs2VObNm2yzkBoODnhVnv37mWY AL7x6KOPMkwAAHwpISFBDz30kHUG4AibN29Wdna2dQZCxDjhUgsWLLBOAByhU6dOmjJlinUGAABm brrpJrVr1846AzAXDAa1cOFC6wyEiHHCpd5//33rBMARHn/8cUVHR1tnAABgJjY2Vo8++qh1BuAI PCe5F++ccKHCwkLVr19fJSUl1imAqYsuukirV6+2zgAAwFwwGFSvXr306aefWqcApuLj4/X111+r Vq1a1imoGt454UZLly5lmAD0r1MTAABACgQCevjhh60zAHMnTpzQP/7xD+sMhIBxwoU4qgRIgwcP 1sCBA60zAABwjFGjRqlv377WGYA5npfciWsdLlNRUaHGjRsrJ+7RvbwAACAASURBVCfHOgUwEwgE tH79evXq1cs6BQAAR1m1ahXjPXyvWbNmysrKUiAQsE5B5XGtw23S09MZJuB7I0aMYJgAAOAUBgwY oMGDB1tnAKays7O1fft26wxUEeOEyyxZssQ6ATA3a9Ys6wQAAByLn5PAv97TB3dhnHCZxYsXWycA poYPH64+ffpYZwAA4FhDhgzhagd8j+cm9+GdEy5SVFSkunXrqrS01DoFMLNixQoNGjTIOgMAAEdb vHixRowYYZ0BmImLi1Nubq7i4+OtU1A5vHPCTVauXMkwAV+76KKLGCYAAKiE4cOHq2fPntYZgJni 4mJ98skn1hmoAsYJF+HeFPzugQcesE4AAMAVAoEA756A7/H85C6MEy7CLy74Wffu3TVs2DDrDAAA XGP06NHq2LGjdQZgho8JuAvjhEvwORz43cyZM/lWNQAAVRAVFaX//M//tM4AzKSnpysnJ8c6A5XE OOESH374oXUCYCYlJUXjx4+3zgAAwHWuvfZatWjRwjoDMBEMBnmOchHGCZfgSgf87K677lJ0dLR1 BgAArhMbG6uf/vSn1hmAGZ6j3INPibpAMBhU06ZNdfDgQesUIOKSk5OVlZWl2rVrW6cAAOBKeXl5 atGihQoLC61TgIhr0aKF9u3bZ52Bs+NTom6wa9cuhgn41o9//GOGCQAAzkFSUpJuueUW6wzARFZW ljIzM60zUAmMEy7w8ccfWycAJmrWrKkZM2ZYZwAA4Hr33HOPYmNjrTMAE6tWrbJOQCUwTrjA8uXL rRMAE+PHj1eDBg2sMwAAcL2mTZvqyiuvtM4ATPA85Q6MEy6wcuVK6wTABC/wAgCg+vBzFX61YsUK 6wRUAuOEw2VmZurLL7+0zgAirk+fPurbt691BgAAnjFw4ED16tXLOgOIuL179yorK8s6A2fBOOFw rHzwq9tvv906AQAAz5k+fbp1AmCC9/g5H+OEw/GLCH5Uv359TZo0yToDAADPmTJliurUqWOdAUQc V+Wdj3HC4Tg5AT+aNm2a4uLirDMAAPCc+Ph4/ehHP7LOACKOccL5AsFgMGgdgVPLyspSy5YtrTOA iIqKitKePXvUpk0b6xQAADxp9+7d6tChg3gMgJ8EAgEdPHhQDRs2tE7BqQU5OeFgXOmAHw0dOpRh AgCAMEpNTdXAgQOtM4CICgaDnJ5wOMYJB1u9erV1AhBxt9xyi3UCAACex89b+NEnn3xinYAzYJxw sHXr1lknABFVr149paWlWWcAAOB5V199tZKSkqwzgIhau3atdQLOgHHCoYqKirRlyxbrDCCibrjh BtWsWdM6AwAAz6tVq5amTJlinQFE1Keffqri4mLrDJwG44RDbdq0SeXl5dYZQETx7XUAACJn2rRp 1glARJWWlmrz5s3WGTgNxgmH4sgR/KZv375KTU21zgAAwDd69Oihbt26WWcAEcVzlnMxTjgU75uA 39x4443WCQAA+A4/f+E3PGc5VyDIB44dqUmTJjp48KB1BhAR8fHxOnjwoBITE61TAADwlZycHDVr 1kxlZWXWKUBEtGzZUv/85z+tM/BDQU5OOFBWVhbDBHxl1KhRDBMAABho0KCBhg8fbp0BRMy+fft0 4MAB6wycAuOEA3EPCn7DkVIAAOzwcxh+s379eusEnALjhANxDwp+0qBBA40cOdI6AwAA3xo7diwn GOErPG85U4x1AH5ozJgx6tev3yn/s8LCQp08eTLCRVVXVlamoqIi64xK4Y9p9SsoKKj0p3CHDRum mBj+rwgAACs1a9bUlVdeqVdeecU6BYgIxgln4oWYAAAAgM8tWrRIo0aNss4AIiIhIUF5eXmKiuIi gYMEGScAAAAAnysrK1Pjxo115MgR6xQgIjIyMpSSkmKdgf/D1zoAAAAAv4uNjVVaWpp1BhAxn376 qXUCvodxAgAAAIAmTZpknQBEzObNm60T8D2MEwAAAAB06aWXqn79+tYZQESkp6dbJ+B7GCcAAAAA KDo6WmPHjrXOACKCkxPOwzgBAAAAQJJ01VVXWScAEXHo0CEdOnTIOgP/hnECAAAAgCTpsssu0/nn n2+dAUQEpyechXECAAAAgCSpZs2aGjFihHUGEBG8d8JZGCcAAAAAfOvqq6+2TgAigpMTzhIIBoNB 6wgAAAAAzlBUVKR69eqppKTEOgUIq9TUVH3++efWGfiXICcnAAAAAHyrdu3aGjhwoHUGEHaZmZk6 ceKEdQa+wTgBAAAA4DtGjx5tnQCEXXl5uXbu3GmdgW8wTgAAAAD4DsYJ+MWOHTusE/ANxgkAAAAA 39GuXTu1a9fOOgMIu+3bt1sn4BuMEwAAAAB+YOTIkdYJQNhxcsI5GCcAAAAA/MDll19unQCEHScn nINPiQIAAAD4gePHj6tOnTp8UhSeFhUVpYKCAp133nnWKX7Hp0QBAAAA/FCtWrXUr18/6wwgrCoq KvT5559bZ0Bc6wAAAABwGpdeeql1AhB2vHfCGRgnAAAAAJzSZZddZp0AhB3vnXAGxgkAAAAAp9Sr Vy8lJCRYZwBhtWvXLusEiHECAAAAwGnExsZq4MCB1hlAWO3Zs8c6AWKcAAAAAHAGQ4YMsU4Awioz M1MVFRXWGb7HOAEAAADgtDg5Aa8rLi7Wl19+aZ3he4wTAAAAAE7rwgsv1HnnnWedAYRVRkaGdYLv MU4AAAAAOK3Y2Fj17dvXOgMIq8zMTOsE32OcAAAAAHBGXO2A1zFO2GOcAAAAAHBGF198sXUCEFZc 67DHOAEAAADgjPr166fo6GjrDCBsGCfsMU4AAAAAOKOEhAR17NjROgMIG8YJe4wTAAAAAM6qT58+ 1glA2BQVFSknJ8c6w9cYJwAAAACcVe/eva0TgLD64osvrBN8jXECAAAAwFnxOVF43b59+6wTfI1x AgAAAMBZdenSRXFxcdYZQNhkZWVZJ/ga4wQAAACAs4qNjVX37t2tM4Cw2b9/v3WCrzFOAAAAAKiU nj17WicAYcPJCVuMEwAAAAAqpVu3btYJQNhwcsIW4wQAAACASuFaB7yMkxO2AsFgMGgdAQAAAMD5 Tpw4oYSEBJWXl1unANUuEAjo2LFjio+Pt07xoyAnJwAAAABUSnx8vFJTU60zgLAIBoNc7TDEOAEA AACg0i644ALrBCBsGCfsME4AAAAAqLSuXbtaJwBhw3sn7DBOAAAAAKi0jh07WicAYZOdnW2d4FuM EwAAAAAqrVOnTtYJQNgcPnzYOsG3GCcAAAAAVFpKSopq1KhhnQGExaFDh6wTfItxAgAAAEClxcbG qm3bttYZQFjk5ORYJ/gW4wQAAACAKunQoYN1AhAWXOuwwzgBAAAAoEoYJ+BVjBN2GCcAAAAAVEm7 du2sE4CwyM/PV3FxsXWGLzFOAAAAAKiSlJQU6wQgbL766ivrBF9inAAAAABQJbwQE17G1Q4bjBMA AAAAqqRRo0Y677zzrDOAsGCcsME4AQAAAKBKAoGA2rRpY50BhAXjhA3GCQAAAABVxjgBr+KdEzYY JwAAAABUWatWrawTgLDIzc21TvAlxgkAAAAAVdasWTPrBCAs8vLyrBN8iXECAAAAQJU1b97cOgEI i6NHj1on+BLjBAAAAIAq4+QEvIqTEzYYJwAAAABUGScn4FWMEzYYJwAAAABUWZMmTRQdHW2dAVQ7 xgkbjBMAAAAAqiwmJkYNGjSwzgCqHe+csME4AQAAACAkDRs2tE4Aql1eXp6CwaB1hu8wTgAAAAAI CeMEvOjkyZM6duyYdYbvME4AAAAACAnXOuBVvHci8hgnAAAAAISEcQJexTgReYwTAAAAAEJSv359 6wQgLIqKiqwTfIdxAgAAAEBIODkBrzp+/Lh1gu8wTgAAAAAISb169awTgLBgnIg8xgkAAAAAIUlK SrJOAMLixIkT1gm+wzgBAAAAICSME/AqTk5EHuMEAAAAgJAwTsCrGCcij3ECAAAAQEgYJ+BVjBOR xzgBAAAAICS1a9dWTEyMdQZQ7XjnROQxTgAAAAAISSAQ0Pnnn2+dAVQ7xonIY5wAAAAAELLatWtb JwDVjmsdkcc4AQAAACBktWrVsk4Aqh3jROQxTgAAAAAIWXx8vHUCUO1KSkqsE3yHcQIAAABAyDg5 AS8qLy+3TvAdxgkAAAAAIWOcgBedPHnSOsF3GCcAAAAAhIxrHfAiTk5EHuMEAAAAgJAxTsCLGCci j3ECAAAAQMhiY2OtE4Bqx7WOyGOcAAAAABCy6Oho6wSg2nFyIvIYJwAAAACELCYmxjoBqHacnIg8 xgkAAAAAIePkBLyIkxORxzgBAAAAIGScnIAXMU5EHuMEAAAAgJBxcgJexLWOyGOcAAAAABCyqCge KeA9FRUV1gm+w/+TAAAAAAgZD3HwIk4ERR7jBAAAAICQcfwdXsQ4EXmMEwAAAABCxosD4UWME5HH OAEAAAAgZIwT8CK+QhN5jBMAAAAAQsa1DngRJycij3ECAAAAQMg4OQEvYpyIPMYJAAAAACErKyuz TgCqHdc6Io9xAgAAAEDIjh8/bp0AVDtOTkQe4wQAAACAkJ04ccI6Aah2jBORxzgBAAAAIGScnIAX ca0j8hgnAAAAAISMkxPwIk5ORB7jBAAAAICQcXICXhQXF2ed4DuMEwAAAABCxskJeFGtWrWsE3yH cQIAAABAyIqKiqwTgGoXHx9vneA7jBMAAAAAQhIMBpWfn2+dAVQ7xonIY5wAAAAAEJLCwkKVl5db ZwDVjmsdkcc4AQAAACAkeXl51glAWDBORB7jBAAAAICQME7Aq7jWEXmMEwAAAABCwjgBr+LkROQx TgAAAAAICS/DhFcxTkQe4wQAAACAkHz99dfWCUBYME5EHuMEAAAAgJAcPnzYOgEIC945EXmMEwAA AABCkpOTY50AhEXt2rWtE3yHcQIAAABASBgn4FXJycnWCb7DOAEAAAAgJIwT8KqkpCTrBN9hnAAA AAAQEsYJeFGNGjV03nnnWWf4DuMEAAAAgJAwTsCLEhMTrRN8iXECAAAAQJWVlpbytQ54Eu+bsME4 AQAAAKDKvvzyS1VUVFhnANWO903YYJwAAAAAUGXZ2dnWCUBYME7YYJwAAAAAUGX79++3TgDCgnHC BuMEAAAAgCpjnIBX8c4JG4wTAAAAAKqMcQJexdc6bDBOAAAAAKiyrKws6wQgLOrUqWOd4EuMEwAA AACqLCMjwzoBCIuGDRtaJ/gS4wQAAACAKqmoqNDevXutM4CwYJywwTgBAAAAoEq+/PJLFRcXW2cA YcE4YYNxAgAAAECVZGZmWicAYcM4YYNxAgAAAECVME7AqwKBgBo0aGCd4UuMEwAAAACq5IsvvrBO AMIiOTlZsbGx1hm+xDgBAAAAoEp27dplnQCEBacm7DBOAAAAAKiS7du3WycAYcH7JuwwTgAAAACo tJKSEt45Ac9inLDDOAEAAACg0jIyMnTy5EnrDCAsuNZhh3ECAAAAQKXt2LHDOgEIm0aNGlkn+Bbj BAAAAIBK27lzp3UCEDYtWrSwTvAtxgkAAAAAlcbJCXhZ8+bNrRN8i3ECAAAAQKVt3rzZOgEIG05O 2AkEg8GgdQQAAAAA5ysqKlJiYqIqKiqsU4BqFwgEdOLECdWsWdM6xY+CnJwAAAAAUCmfffYZwwQ8 q0GDBgwThhgnAAAAAFRKenq6dQIQNlzpsMU4AQAAAKBStmzZYp0AhA0vw7TFOAEAAACgUj777DPr BCBsGCdsMU4AAAAAOKvS0lKudcDTGCdsMU4AAAAAOKv09HQVFxdbZwBh06xZM+sEX2OcAAAAAHBW 69evt04Awqply5bWCb7GOAEAAADgrNatW2edAIRV27ZtrRN8jXECAAAAwFkxTsDLkpOTVa9ePesM X2OcAAAAAHBGR44cUUZGhnUGEDYpKSnWCb7HOAEAAADgjNavX69gMGidAYQN44Q9xgkAAAAAZ7Ry 5UrrBCCseN+EPcYJAAAAAGe0atUq6wQgrDg5YY9xAgAAAMBpFRcXa8OGDdYZQFhxcsIe4wQAAACA 09qwYYNKSkqsM4CwYpywxzgBAAAA4LQ+/vhj6wQgrBISEtS4cWPrDN9jnAAAAABwWqtXr7ZOAMKq VatW1gkQ4wQAAACA0ygrK+NLHfC8du3aWSdAjBMAAAAATuOTTz5RUVGRdQYQVl26dLFOgBgnAAAA AJzGsmXLrBOAsOvUqZN1AsQ4AQAAAOA0GCfgB4wTzhAIBoNB6wgAAAAAznL06FHVr19f5eXl1ilA 2MTExOjYsWOqUaOGdYrfBTk5AQAAAOAHPv74Y4YJeF5KSgrDhEMwTgAAAAD4gQ8++MA6AQi7zp07 WyfgG4wTAAAAAL4jGAzqvffes84Awo73TTgH4wQAAACA79i2bZuys7OtM4CwY5xwDsYJAAAAAN+x cOFC6wQgIrjW4RyMEwAAAAC+Y9GiRdYJQNhFR0crNTXVOgPfYJwAAAAA8K28vDytXr3aOgMIu5SU FMXFxVln4BuMEwAAAAC+tWTJEp08edI6Awi7nj17Wifg3zBOAAAAAPjW3/72N+sEICJ69OhhnYB/ wzgBAAAAQJJ0/PhxPiEK32CccBbGCQAAAACS/nWl4/jx49YZQER0797dOgH/hnECAAAAgCTp3Xff tU4AIqJp06aqX7++dQb+DeMEAAAAAJWWlmr+/PnWGUBEcKXDeRgnAAAAAGj58uXKy8uzzgAignHC eRgnAAAAAOivf/2rdQIQMbxvwnkCwWAwaB0BAAAAwE5xcbEaNmyogoIC6xQgIjIyMpSSkmKdgf8T 5OQEAAAA4HOLFy9mmIBvJCcnq02bNtYZ+J4Y6wD80K9+9Svt2rXrB/9+IBBQUlKSQVHVxcfHKy4u zjrjrNz0x7RWrVqqWbOmdcZZVfWPaatWrdS7d+8wFgEAgLPhSgf8pHv37goEAtYZ+B7GCQcqKSnR 3LlzrTOAiEhKStKhQ4dcMbwAAOBFx44d07x586wzgIi56KKLrBNwClzrcKC+fftaJwARk5eXp8WL F1tnAADgWwsXLtTx48etM4CI4XnLmRgnHKh///7WCUBEvfLKK9YJAAD4Fj+H4Tf9+vWzTsAp8LUO h2rRooX2799vnQFERGxsrL788kvVr1/fOgUAAF/Jzs5Wy5YtVVFRYZ0CRERKSooyMjKsM/BDfK3D qVjz4CdlZWV6/fXXrTMAAPCd119/nWECvsJzlnMxTjgU96DgNxwpBQAg8v73f//XOgGIKJ6znItx wqH4RQO/SU9P15YtW6wzAADwjXXr1mn37t3WGUBEcXLCuRgnHOrCCy9UjRo1rDOAiHr11VetEwAA 8A1+7sJv4uPj1b17d+sMnAbjhEPFx8erS5cu1hlARL3yyisqLi62zgAAwPOOHTvG+57gO926dVNs bKx1Bk6DccLBuNoBvzly5Ijeeust6wwAADzvL3/5i/Lz860zgIjiSoezMU442ODBg60TgIj74x// aJ0AAIDnvfDCC9YJQMTxfOVsgWAwGLSOwKkdOnRIjRs3ts4AIu6zzz5T165drTMAAPCkTZs2qVev XtYZQERFRUXpq6++Up06daxTcGpBTk44WKNGjZSammqdAUQcv5sDAED4vPjii9YJQMR17tyZYcLh GCccjqNH8KPXX39dx48ft84AAMBzCgsL9eabb1pnABHHc5XzMU44HL+I4EdHjx7Vn//8Z+sMAAA8 55VXXuFFmPClQYMGWSfgLHjnhMNlZ2erefPm1hlAxHXs2FHbt29XIBCwTgEAwBMqKiqUmpqqzMxM 6xQgogKBgA4dOqQGDRpYp+D0eOeE0zVr1kxt2rSxzgAibufOnVq2bJl1BgAAnrFw4UKGCfhS+/bt GSZcgHHCBTiCBL969tlnrRMAAPAMfq7Cr7gq7w6MEy4wcOBA6wTAxIIFC/gdHgAAqsHOnTu1dOlS 6wzAxIABA6wTUAmMEy5wySWXWCcAJioqKvT8889bZwAA4Hp/+MMfxKvm4Fc8T7kDL8R0iRYtWmj/ /v3WGUDEnX/++crKylJiYqJ1CgAArnTkyBG1aNGCz3TDl1JSUpSRkWGdgbPjhZhucfnll1snACYK Cgr03HPPWWcAAOBazz77LMMEfIvnKPdgnHCJYcOGWScAZmbPnq3i4mLrDAAAXOfYsWO8CBO+xnOU ezBOuMSll16qqCj+dMGfDh8+rDfeeMM6AwAA13n11VeVm5trnQGYiI2N1aWXXmqdgUriadcl6tat q549e1pnAGZmz57Ni7wAAKiCiooK/f73v7fOAMz07t1bCQkJ1hmoJMYJF+FIEvxsy5Ytmj9/vnUG AACuMXfuXO3atcs6AzDD85O7ME64CL+44HePP/64dQIAAK4QDAb5uQnfGz58uHUCqoBPibpIaWmp 6tatq6KiIusUwMyCBQs0atQo6wwAABztnXfe0fjx460zADOJiYn6+uuvFRMTY52CyuFTom5So0YN DRw40DoDMPXQQw9ZJwAA4GjBYFAPP/ywdQZg6pJLLmGYcBnGCZfhbbPwu3Xr1mnJkiXWGQAAONb8 +fO1ZcsW6wzAFM9N7sM44TK8dwKQHnvsMesEAAAci5+TAM9NbsQ44TIXXHCBWrVqZZ0BmFq+fLkW L15snQEAgOP8/e9/17p166wzAFOpqalq3769dQaqiHHChUaPHm2dAJh78MEHrRMAAHAU3jUB/MuY MWOsExACxgkXYpwApDVr1mjevHnWGQAAOMbcuXP16aefWmcA5nhecic+JepCJSUlqlevHp8Uhe91 6dJFW7ZsUVQUOysAwN9Onjypzp07a/fu3dYpgKmkpCTl5OQoNjbWOgVVw6dE3ahmzZq8fRaQtG3b Nr399tvWGQAAmHvjjTcYJgD960WYDBPuxDjhUhxVAv7loYceUnl5uXUGAABmysrK9Otf/9o6A3AE npPci3HCpcaMGaNAIGCdAZjbvn27/vSnP1lnAABg5vnnn+fUBCApOjpao0aNss5AiHjnhIv16tVL mzZtss4AzDVr1ky7d+9WfHy8dQoAABFVVFSktm3b6vDhw9YpgLn+/fvrk08+sc5AaHjnhJuNHDnS OgFwhOzsbD355JPWGQAARNxjjz3GMAF8g+cjd+PkhIutX79effv2tc4AHKF27drKyMhQw4YNrVMA AIiI/fv3q3379jpx4oR1CuAI6enp6tatm3UGQsPJCTfr1auXGjdubJ0BOEJRUZGeeOIJ6wwAACLm 0UcfZZgAvtGiRQtdcMEF1hk4B4wTLhYVFaVx48ZZZwCO8eyzz2rbtm3WGQAAhN3GjRv1wgsvWGcA jjF+/Hg+GOByjBMuxzgB/J+TJ09q5syZ1hkAAITdzJkzVVFRYZ0BOAbPRe7HOydcrry8XE2aNFFO To51CuAY8+bN09ixY60zAAAIi7feekuTJk2yzgAco2nTpsrKylJUFL/37mK8c8LtoqOjlZaWZp0B OMo999yjkpIS6wwAAKrdsWPHdO+991pnAI5y1VVXMUx4AH8GPYAjTMB3ZWZm6plnnrHOAACg2j35 5JPKzs62zgAchechb+BahweUlZWpUaNGys3NtU4BHCMxMVG7du1So0aNrFMAAKgW2dnZ6tixo4qK iqxTAMdo0KCBDhw4oOjoaOsUnBuudXhBbGysxowZY50BOEp+fr5mzJhhnQEAQLW54447GCaA70lL S2OY8AjGCY+48sorrRMAx5k7d67+8Y9/WGcAAHDOFi1apPnz51tnAI7Dc5B3cK3DI0pKStSgQQMV FBRYpwCO0rZtW23dulVxcXHWKQAAhOTYsWPq1KmTsrKyrFMAR6lTp44OHTqk2NhY6xScO651eEXN mjU1YsQI6wzAcTIyMvSb3/zGOgMAgJA98sgjDBPAKYwZM4ZhwkM4OeEh7733nsaOHWudAThOrVq1 tGPHDrVs2dI6BQCAKtmzZ4+6du3KJ7KBU1iyZImGDRtmnYHqEWSc8JCysjI1btxYR44csU4BHGfI kCH66KOPFAgErFMAAKiUiooKXXzxxVq7dq11CuA4jRo1UnZ2Ni/D9A6udXhJbGysxo8fb50BONLy 5cv16quvWmcAAFBpL774IsMEcBqTJk1imPAYTk54zMqVKzV48GDrDMCRzj//fG3fvl3NmjWzTgEA 4Iy++OILXXDBBTp27Jh1CuBIa9euVd++fa0zUH04OeE1AwcOVKtWrawzAEcqKCjQbbfdZp0BAMBZ 3XHHHQwTwGmkpqYyTHgQ44THBAIBTZw40ToDcKwFCxbozTfftM4AAOC0XnvtNX3wwQfWGYBjTZ48 2ToBYcC1Dg/asmWLunfvbp0BOFbDhg21bds21atXzzoFAIDvOHz4sLp27aqvvvrKOgVwrJ07d6pD hw7WGaheXOvwom7duvGLFTiDw4cPa9q0adYZAAB8RzAY1PXXX88wAZwBzzrexTjhUdddd511AuBo 8+fP53oHAMBRXnvtNS1dutQ6A3A0nnO8i2sdHpWRkaHU1FTxpxc4vcTERH322Wdq0aKFdQoAwOcy MzPVrVs3XoIJnEFUVJT27t3L37t5E9c6vKpt27Z8UhQ4i/z8fE2bNo0RDwBgqqKiQlOnTmWYAM5i 2LBhDBMexjjhYTfddJN1AuB4y5Yt05w5c6wzAAA+9txzz2nVqlXWGYDj8XzjbVzr8LBjx46pSZMm KigosE4BHC0uLk7r169X165drVMAAD6Tnp6ufv36qaSkxDoFcLTk5GQdOHBAcXFx1ikID651eNl5 552nCRMmWGcAjldcXKwf/ehHKisrs04BAPhISUmJbrzxRoYJoBKuueYahgmPY5zwOI4+AZWzceNG zZw50zoDAOAj99xzjz777DPrDMAVeK7xPq51+EDHjh21a9cu6wzA8QKBgN5//32NGjXKOgUA4HHz 589XWlqadQbgCt26dVN6erp1BsKLax1+cMMNN1gnAK4QrWaaaAAAIABJREFUDAY1ffp0ff3119Yp AAAPO3TokKZPn26dAbjGjTfeaJ2ACODkhA9kZWWpdevWqqiosE4BXGHIkCFatmyZoqOjrVMAAB5T WlqqwYMHa+3atdYpgCvExMRo//79atSokXUKwouTE37QokULDR8+3DoDcI3ly5frkUcesc4AAHjQ rFmzGCaAKhgzZgzDhE8wTvgEVzuAqpk1a5bmzZtnnQEA8JB33nlHjz/+uHUG4Co8x/gH1zp8oqys TK1atdKBAwesUwDXSE5O1qZNm9S6dWvrFACAy+3atUt9+vRRYWGhdQrgGi1btlRmZiZXbf2Bax1+ ERsby+d3gCo6evSoJk2axPfnAQDn5Pjx45o4cSLDBFBF06ZNY5jwEcYJH5k+fTq/uIEq2rBhg+69 917rDACAi915553aunWrdQbgKrGxsbrlllusMxBBjBM+0rx5c40ePdo6A3CdP/zhD3rttdesMwAA LvTSSy9pzpw51hmA66SlpfEiTJ/hnRM+88EHH2jkyJHWGYDrnHfeeVq/fr06depknQIAcInNmzfr oosuUnFxsXUK4Doffvihhg4dap2ByAkyTvhMMBhU+/bttWfPHusUwHXat2+vDRs2KCEhwToFAOBw +fn56tWrlzIyMqxTANdp3769du7cqUAgYJ2CyOGFmH4TCAR08803W2cArvT555/rjjvusM4AADhc MBjUrbfeyjABhOi2225jmPAhTk74UE5Ojpo3b67S0lLrFMCV7r//fj300EPWGQAAh/r5z3+u3/72 t9YZgCvFxcUpOztbdevWtU5BZHFywo8aNGigiRMnWmcArvXrX/9ab731lnUGAMCBXnvtNT355JPW GYBrXXPNNQwTPsXJCZ9atWqVBg4caJ0BuFZsbKwWL16sSy65xDoFAOAQy5Yt06hRo1RWVmadArjW 2rVr1bdvX+sMRB4vxPSzfv36ad26ddYZgGvVrVtXa9asUbt27axTAADGtm3bposvvlgFBQXWKYBr DRgwQB9//LF1BmxwrcPP7rzzTusEwNWOHDmiK664QkePHrVOAQAYysnJ0dixYxkmgHM0Y8YM6wQY 4uSEj5WVlalNmzbKzs62TgFcbdCgQVq6dKlq1KhhnQIAiLCSkhJdeumlWr16tXUK4GqtW7fWnj17 FB0dbZ0CG5yc8LPY2Fjddttt1hmA661cuZJfSwDgQ8FgUDfccAPDBFANbr/9doYJn+PkhM/l5uaq efPmOn78uHUK4HpPPPGEfv7zn1tnAAAi5KGHHtIDDzxgnQG4Xu3atbV//34lJSVZp8AOJyf8rk6d Orr22mutMwBPuO+++7RgwQLrDABABPztb3/Tgw8+aJ0BeMLUqVMZJsDJCUjp6enq0aOHdQbgCfHx 8frggw80aNAg6xQAQJgsXrxYY8eOVWlpqXUK4HqBQEDbt29Xx44drVNgi5MTkLp3767LLrvMOgPw hBMnTuiKK67Q5s2brVMAAGGwceNGTZgwgWECqCajR49mmIAkiXECkvhsD1CdCgoKNHbsWGVlZVmn AACq0RdffKGxY8eqsLDQOgXwDJ5D8P9xrQOSpPLycnXo0EEZGRnWKYBnpKSkaNWqVWrUqJF1CgDg HGVlZeniiy/mE+xANercubO2bt2qQCBgnQJ7XOvAv0RHR2vmzJnWGYCnZGZm8jtsAOABeXl5SktL Y5gAqtl9993HMIFvcXIC3yorK1NKSor2799vnQJ4St++fbV06VIlJCRYpwAAqujo0aMaOnSo0tPT rVMAT0lJSdHnn3+u6Oho6xQ4Aycn8H9iY2N15513WmcAnrNu3TqlpaXpxIkT1ikAgCooKirS6NGj GSaAMLj77rsZJvAdnJzAdxQWFqply5Y6evSodQrgOVdddZXeeustxcTEWKcAAM6irKxMV199td5/ /33rFMBzGjVqpL179youLs46Bc7ByQl8V0JCgm6//XbrDMCT3n33XU2cOFEnT560TgEAnEFZWZnG jx/PMAGEyR133MEwgR/g5AR+ICcnR61ateIIOhAmU6dO1Zw5cxQVxT4MAE5TXl6uqVOn6s9//rN1 CuBJCQkJ2rdvn5KTk61T4CycnMAPNWjQQNdff711BuBZL7/8siZPnswJCgBwmLKyMk2aNIlhAgij m266iWECp8TJCZzS3r17lZqaysMTEEbjx4/XG2+8wTsoAMABSkpKNG7cOC1YsMA6BfCsGjVq6Isv vlDTpk2tU+A8nJzAqbVu3VpXX321dQbgaW+//bZ+9KMfqby83DoFAHzt5MmTuvHGGxkmgDCbPHky wwROi5MTOK0dO3aoa9euqqiosE4BPG3KlCl6+eWXOUEBAAbKyso0ZcoUzZ071zoF8LSYmBjt3LlT bdu2tU6BM3FyAqfXqVMnjRs3zjoD8LzXX39daWlpvIQWACKsqKhIw4cPZ5gAIuCaa65hmMAZcXIC Z7R9+3ZdcMEFnJ4AImDw4MF67733lJCQYJ0CAJ5XUFCgMWPG6OOPP7ZOATyPUxOoBE5O4Mw6d+6s q666yjoD8IUVK1boyiuvVFFRkXUKAHgawwQQWZMnT2aYwFlxcgJnxekJILIuuugiLViwQElJSdYp AOA5ubm5GjFihDZs2GCdAvhCTEyMduzYoXbt2lmnwNk4OYGz69y5s6688krrDMA3PvnkE/Xq1UsZ GRnWKQDgKbt371avXr0YJoAImjRpEsMEKoWTE6iUTZs2qXfv3uIvFyByGjVqpIULF6pHjx7WKQDg emvWrNEVV1yhI0eOWKcAvhEVFaUtW7aoS5cu1ilwPk5OoHIuvPBCpaWlWWcAvnLo0CFddtllWrVq lXUKALjaRx99pJEjRzJMABE2adIkhglUGicnUGnp6enq2bMnpyeACIuLi9Nf/vIXXk4LACF48803 NXXqVJWUlFinAL4SFRWlbdu2qWPHjtYpcAdOTqDyunfvrtGjR1tnAL5TXFyscePGadasWdYpAOAq s2bN0rXXXsswARgYN24cwwSqhJMTqJLt27erW7duKi8vt04BfGnatGn6n//5H8XExFinAIBjlZWV 6dZbb9XLL79snQL4UmxsrLZv386LMFEVnJxA1XTu3FlTpkyxzgB8a86cORo9erQKCwutUwDAkQoK CjRq1CiGCcDQTTfdxDCBKuPkBKps3759at++PUckAUMXXXSR5s+fr7p161qnAIBj5OTk6IorrtD6 9eutUwDfqlWrlvbs2aMmTZpYp8BdODmBqmvZsqVuueUW6wzA1z755BP169dPO3bssE4BAEf47LPP 1K9fP4YJwNjtt9/OMIGQcHICIfnqq6+UkpLC0XLAWFxcnF588UVdd9111ikAYOaVV17R9OnTOdUJ GEtMTFRmZiYnOxEKTk4gNPXr19dPf/pT6wzA94qLi3XDDTdo5syZqqiosM4BgIgqLy/XjBkz+FQo 4BD33nsvwwRCxskJhCw3N1dt2rRRfn6+dQoASZMnT9acOXNUq1Yt6xQACLuioiLdcMMNevfdd61T AEiqW7euvvjiC51//vnWKXAnTk4gdHXq1NEvfvEL6wwA33jzzTfVs2dP3kMBwPO2bt2qHj16MEwA DnL//fczTOCccHIC56SoqEht27bV4cOHrVMAfCMhIUEvvfSSxo0bZ50CANXurbfe0rRp01RUVGSd AuAbzZo10+7duxUfH2+dAvfi5ATOTe3atfXII49YZwD4N4WFhZowYYJmzpyp8vJy6xwAqBZlZWWa Pn26Jk2axDABOMzjjz/OMIFzxskJnLOKigr17t1bn376qXUKgO8ZO3asXn31VSUmJlqnAEDIcnNz dd1112nRokXWKQC+p0+fPlq7dq0CgYB1CtyNkxM4d1FRUfrtb39rnQHgFObPn68uXbpo5cqV1ikA EJKFCxeqY8eODBOAAwUCAT3zzDMME6gWjBOoFkOHDtXIkSOtMwCcQnZ2toYOHapZs2ZxzQOAa5SU lGjGjBkaM2aMcnJyrHMAnMJVV12l/v37W2fAI7jWgWqzc+dOXXDBBTp58qR1CoDTGDx4sF5//XU1 bdrUOgUATmv37t265ppruDIKOFjNmjW1Y8cOtWnTxjoF3sC1DlSfjh076uabb7bOAHAGK1asUK9e vbRkyRLrFAA4pTfeeEN9+vRhmAAc7vbbb2eYQLXi5ASq1cGDB5WamspbtAEXuP766/Xcc8+pdu3a 1ikAoNzcXN1yyy3629/+Zp0C4CySkpK0Z88e1atXzzoF3sHJCVSvxo0b67777rPOAFAJr732mnr1 6qVNmzZZpwDwuZUrV6pHjx4ME4BLPPDAAwwTqHacnEC1Ky4uVocOHbRv3z7rFACVEBMTo//6r//S /fffr+joaOscAD5SVlam+++/X08++SQv7AVcIjU1Vdu2bVNsbKx1CryFkxOofnFxcXr44YetMwBU 0smTJ/Xggw9qxIgR2r9/v3UOAJ/Yu3evhg8frieeeIJhAnCRRx99lGECYcE4gbC4/vrrdckll1hn AKiCZcuWqX379po9e7Y4VAcgXMrLy/XEE0+oU6dOWr58uXUOgCoYNWqUxo0bZ50Bj+JaB8Jm+/bt 6tGjh8rKyqxTAFTR8OHDNWfOHDVr1sw6BYCH7Nq1SzfddJPWrl1rnQKgimrWrKlt27apbdu21inw Jq51IHw6d+6s2267zToDQAiWLFminj176u2337ZOAeABwWBQzz//vPr06cMwAbjUXXfdxTCBsOLk BMLq6NGjat++vb766ivrFAAhGjJkiP74xz8qNTXVOgWAC3366ae6+eabtXnzZusUACFq2rSpdu3a xefHEU6cnEB4JScn69FHH7XOAHAOli9fru7du2vWrFkqLS21zgHgEiUlJZo5c6b69evHMAG43G9+ 8xuGCYQdJycQduXl5erduzd/YwJ4QL9+/fTCCy+oa9eu1ikAHGzz5s2aNm0aP/sBD+jfv79Wr16t QCBgnQJv4+QEwi86OlovvviioqL4yw1wu7Vr1+rCCy/Uz372MxUWFlrnAHCY/Px83XXXXerTpw/D BOABMTExeuGFFxgmEBE8LSIiLrzwQt14443WGQCqQVlZmX73u9+pVatWmj17tioqKqyTABgrLy/X 7Nmz1bp1a82ePVsnT560TgJQDW699VZ16dLFOgM+wbUORMzBgwfVsWNH5efnW6cAqEa9evXSH/7w B/Xp08c6BYCBNWvW6I477uCkBOAxdevW1a5du1SvXj3rFPgD1zoQOY0bN9Zvf/tb6wwA1Wzjxo0a MGCA7rnnHuXl5VnnAIiQI0eO6Cc/+YkGDRrEMAF40DPPPMMwgYji5AQiKhgMaujQoVq+fLl1CoAw SEpK0syZM3X33XerRo0a1jkAwqCkpESPPfaYnnzySR07dsw6B0AYXHbZZVq6dKl1BvwlyDiBiNu+ fbt69OihsrIy6xQAYZKamqqnnnpKo0ePtk4BUI3mzp2r++67TxkZGdYpAMIkLi5OW7duVdu2ba1T 4C9c60Dkde7cWT/72c+sMwCE0e7duzVmzBiNHz9en3/+uXUOgHO0Y8cOXXnllZo4cSLDBOBxv/jF LxgmYIKTEzBx4sQJde3aVZmZmdYpAMIsJiZGN910kx544AE1bdrUOgdAFWRlZWnWrFl69dVXVV5e bp0DIMw6duyo9PR0rmbCAicnYCM+Pl5PP/20dQaACDh58qRefPFFtW7dWtOnT9ehQ4eskwCcxYED BzR9+nS1bdtWL730EsME4BO///3vGSZghpMTMDV58mT99a9/tc4AEEHJycm65557dOedd+r888+3 zgHwb/Ly8vTMM8/o6aefVkFBgXUOgAiaOnWqXnrpJesM+BcvxIStQ4cOqVOnTjp69Kh1CoAIq1On zrcjRUJCgnUO4Gv5+fl65pln9Mwzz/BJYMCH6tevr507d6pu3brWKfAvrnXAVqNGjfTQQw9ZZwAw kJubq1/+8pdq0qSJZs6cqdzcXOskwHcOHz6sGTNmqGnTppo1axbDBOBTjz32GMMEzHFyAuaCwaAu v/xyvqUM+FzdunU1Y8YM/fSnP1VSUpJ1DuBpubm5mj17tp599llOLwI+l5aWpr///e/WGQDXOuAM //znP9W1a1cVFRVZpwAwlpiYqDvuuEN333236tWrZ50DeMrhw4f11FNP6fnnn1dhYaF1DgBjSUlJ 2r59u5o0aWKdAnCtA87QqlUrPfLII9YZABwgPz9fjz76qFq1aqV7771XBw4csE4CXC8rK0szZsxQ 69at9Zvf/IZhAoAk6YknnmCYgGNwcgKOUVFRoSFDhujjjz+2TgHgIFFRURo1apRmzJihyy67zDoH cJVly5Zp9uzZWrhwoSoqKqxzADjI8OHD9cEHHygQCFinABLXOuA0O3bsUM+ePVVSUmKdAsCBBg0a pLvvvltjx45VVBSH/4BTKS8v17x58/T0009r1apV1jkAHCg+Pl5btmxRu3btrFOA/49rHXCWTp06 6eGHH7bOAOBQK1eu1FVXXaXU1FQ99dRTvMgP+De5ubn63e9+p9TUVI0bN45hAsBpPf744wwTcBxO TsBxKioqNHDgQH3yySfWKQAcrkaNGkpLS9Ott97KlQ/4UjAY1IcffqgXXnhB8+bNU2lpqXUSAIcb OHCgli9fzglEOA3XOuBMu3btUo8ePVRcXGydAsAl+vXrpx//+MeaMGGC4uPjrXOAsDp27Jj++te/ 6vnnn9fGjRutcwC4RHx8vNLT05WammqdAnwf1zrgTB06dNAvfvEL6wwALrJ27VrdeOONqlOnjiZO nKhly5aJ/R1eEgwGtWzZMk2cOFH16tXTtGnTGCYAVMmvfvUrhgk4Ficn4FgVFRUaOnSoVqxYYZ0C wKW6deumadOmacqUKapTp451DhCSI0eO6M9//rP+9Kc/adu2bdY5AFxq6NChWrp0Kdc54FRc64Cz 7d27V927d1dBQYF1CgAXi4qKUv/+/XXDDTfo2muvVe3ata2TgDMqLCzUG2+8oVdffVVr1qzhM6AA zklycrK2bt2qpk2bWqcAp8M4AeebM2eObr75ZusMAB4RHx+vMWPG6Prrr9fIkSMVExNjnQRIksrK yvTBBx/otdde03vvvcd7lwBUm9dee03XXXeddQZwJowTcIfx48frnXfesc4A4DEtW7bUhAkTNGHC BPXu3VuBQMA6CT4TDAa1du1azZ07V2+//bb2799vnQTAYyZNmqQ333zTOgM4G8YJuMPBgwfVtWtX HTlyxDoFgEfVq1dPI0eO1IQJEzhRgbA6efKkFi1apLlz52rhwoX8bAMQNg0bNtTWrVtVv3596xTg bBgn4B7z589XWlqadQYAH2jZsqXS0tKUlpamQYMGMVTgnJWVlWnFihWaN2+e5s+fr6ysLOskAB4X CAS0ePFiDRs2zDoFqAzGCbjLzTffrDlz5lhnAPCR5ORkjRo1SmlpaRoxYoQSEhKsk+ASBQUFWrRo kebNm6dFixYpLy/POgmAj/zkJz/Rs88+a50BVBbjBNwlPz9f3bp10759+6xTAPhQjRo11L9/fw0f PlzDhw9Xz549+SQbvlVeXq5NmzZpyZIlWrJkidauXauysjLrLAA+1LZtW23evJmvU8FNGCfgPhs2 bNCAAQNUWlpqnQLA5+rWravLLrtMw4YN05AhQ5SSkmKdhAjbs2ePli9frqVLl+rDDz9Ubm6udRIA n4uPj9e6devUtWtX6xSgKhgn4E5PPPGEZs6caZ0BAN/RrFkzDRkyREOGDNHgwYPVtm1b6yRUs927 d2vFihVasWKFli9fri+//NI6CQC+Y/bs2brzzjutM4CqYpyAO1VUVGjEiBFaunSpdQoAnFbTpk01 YMAA9e/fX/3791ePHj0UGxtrnYVKKi0t1aeffqo1a9ZozZo1Wr16tQ4cOGCdBQCnlZaWpnfffZdP Y8ONGCfgXjk5OerWrZsOHTpknQIAlRIfH69evXqpf//+6t27t3r06KE2bdrwN5EOEAwGlZmZqc2b N2vDhg1as2aNNm7cqOLiYus0AKiUFi1aKD09XcnJydYpQCgYJ+Bu8+fP15VXXin+MgbgVomJierW rZt69OihHj166IILLlCnTp1Us2ZN6zTPKi4u1s6dO7VlyxZt3rxZmzdv1pYtW1RQUGCdBgAhiYqK 0qJFizR8+HDrFCBUjBNwv5/97Gf63e9+Z50BANUmOjpaKSkp6tKlizp16qQuXbqoY8eOSk1NVVxc nHWea5w4cUK7d+/Wzp07tW3bNu3YsUNbt27V3r17VV5ebp0HANXml7/8pR5++GHrDOBcME7A/crK yjRo0CCtXbvWOgUAwioqKkrNmzdXu3btvv1HamqqWrVqpRYtWighIcE6MeIKCgq0f/9+7d27V7t3 79aePXu+/cf+/fs5WQfA8y6++GItX75cMTEx1inAuWCcgDdkZmaqZ8+eHMkF4GuJiYlq3ry5WrZs qWbNmqlp06Zq0qSJGjRooIYNG377r2vUqGGdelYlJSXKycnRgQMHlJOTo8OHD+vgwYPKzs5Wdna2 9u3bp+zsbOXn51unAoCZOnXqKD09Xc2bN7dOAc4V4wS845VXXtHUqVOtMwDA8erWravk5GQlJiYq OTlZSUlJSkxM/Pafa9SooeTkZNWsWVO1atVSQkKCatSoocTExCr/d+Xn56ukpERFRUU6duyYSktL dfToUZWWliovL0/5+fnf/vPRo0eVl5eno0ePKjc3Nwz/ywHAW9544w1NnjzZOgOoDowT8JY77rhD zz33nHUGAAAAEFb33HMP712DlzBOwFtKSko0YMAAbdy40ToFAAAACIuBAwfqo48+4j0T8BLGCXhP VlaWevbsqSNHjlinAAAAANWqUaNG2rx5sxo1amSdAlSnYJR1AVDdWrRooRdeeEGBQMA6BQAAAKg2 UVFRmjNnDsMEPIlxAp509dVXa+bMmdYZAAAAQLX51a9+pVGjRllnAGHBtQ54VkVFhS6//HItW7bM OgUAAAA4JyNGjNCCBQsUFcXvL8OTeOcEvO3w4cPq2bOnDhw4YJ0CAAAAhKRVq1batGmT6tSpY50C hAvvnIC3NWzYUC+//LKio6OtUwAAAIAqi42N1SuvvMIwAc9jnIDnDRs2jG9AAwAAwJVeeOEFDRo0 yDoDCDuudcA3br75Zs2ZM8c6AwAAAKiU2267Tc8//7x1BhAJvHMC/lFcXKzBgwdr/fr11ikAAADA GQ0ePFhLly5VbGysdQoQCYwT8JeDBw+qd+/e+vLLL61TAAAAgFNq3ry5Nvy/9u49yuu6zuP4ey4w iCCDDkwgKAxijLiVSypyN1F3F0iUQLxAXARFjTzbqdl0W7I8LXbsSNrZgbYRMNGJCVAhFWFWmSDx EBc1II/iZSMVKRFW5aID+8eubG5a3GY+v9/8Ho9zOGf0r+fxHOGcF5/P57tmTZSWlqZOgcbiQUxy S4cOHeK+++6zQAMAkJGaN28e1dXVhglyjnGCnDNo0KD48Y9/nDoDAAD+TFVVVfTp0yd1BjQ64wQ5 ady4cXHdddelzgAAgINuuummuPrqq1NnQBLenCBn7d27NwYOHBhPP/106hQAAHJc//79o7a21vVj cpUHMcltf/zjH6N3797x4osvpk4BACBHnX766fHUU0/FiSeemDoFUvEgJrntpJNOiocffjiKi4tT pwAAkINKSkri0UcfNUyQ84wT5Lzy8vKorq6OwsLC1CkAAOSQ5s2bx4IFC6KsrCx1CiRnnICIuPji i+POO+9MnQEAQA6ZOXNmDBgwIHUGZATjBPyvG2+8Ma655prUGQAA5IAbb7wxxo8fnzoDMoYHMeFP 1NfXx/Dhw2PJkiWpUwAAaKIuueSSWLhwYeTn+7ti+F++1gH/33/9139F375947nnnkudAgBAE/O5 z30ufvnLX0arVq1Sp0AmMU7Ax3nhhReid+/e8dZbb6VOAQCgiWjXrl08/fTT0bVr19QpkGl8ShQ+ Tvfu3eOxxx6L448/PnUKAABNQJs2baK2ttYwAZ/AOAGf4Oyzz46f/exnPjEKAMBRad68eSxcuDD+ 5m/+JnUKZCzjBPwFQ4YMicrKytQZAABkqby8vJg9e3Z84QtfSJ0CGc04AX/FNddcE9/4xjdSZwAA kIW+9a1vxZVXXpk6AzKeBzHhEBw4cCAmTZoUVVVVqVMAAMgSU6dOjR/+8IepMyAb+FoHHKr6+voY MWJEPPTQQ6lTAADIcJdddlnU1NREfr7D6nAIjBNwON57770YPHhwPPXUU6lTAADIUP369YvHH388 jjvuuNQpkC2ME3C4Xn/99ejTp0+88sorqVMAAMgwp512WqxatSrat2+fOgWyyQFnjOAwdejQIerq 6uKUU05JnQIAQAbp0qVLPPHEE4YJOALGCTgCnTt3jkceeSROOumk1CkAAGSA0tLSWLZsWXTq1Cl1 CmQl4wQcoZ49e8YjjzwSrVq1Sp0CAEBCxcXFsXTp0jjttNNSp0DWMk7AUTjnnHOiuro6mjVrljoF AIAEmjdvHj/72c/is5/9bOoUyGrGCThKQ4YMifnz50dhYWHqFAAAGlFhYWH8/Oc/j4suuih1CmQ9 4wQcA8OHD4+qqqrIy8tLnQIAQCPIz8+POXPmxLBhw1KnQJNgnIBjZOzYsTFjxozUGQAANIK77ror rrrqqtQZ0GQYJ+AYmjp1atx0002pMwAAaEAVFRVxww03pM6AJsU4AcfYnXfeGRUVFakzAABoADff fHNMnz49dQY0OXkHDhw4kDoCmpoDBw7E1KlT40c/+lHqFAAAjpGKigrDBDSMA8YJaCD79++PiRMn xpw5c1KnAABwlCZNmhSzZs3yADo0jAOudUADyc/Pj3vuuSeuvfba1CkAAByF66+/3jABDczJCWhg +/fvj/Hjx8e9996bOgUAgMN07bXXRmVlpWECGpacirliAAAYNElEQVRrHdAY6uvr48tf/nLMmzcv dQoAAIdozJgxMWfOnMjPd+AcGphxAhpLfX19jBkzJh544IHUKQAA/BVXXXVVzJ07NwoKClKnQC4w TkBj2rt3b4waNSoefvjh1CkAAHyCSy+9NKqrq6N58+apUyBXeBATGlNRUVEsXLgwvvzlL6dOAQDg Y4wfPz5qamoME9DIjBPQyAoKCuKee+6JCRMmpE4BAOBP3HDDDVFVVeUqByTgWgckUl9fHxMnToy5 c+emTgEAyHnXXHNNzJo1y+OXkIZrHZBKQUFBzJ49O2666abUKQAAOe2WW26Jf//3fzdMQEL+74OE 8vLy4s4774xbbrkldQoAQE6aNm1a3HbbbakzIOcVpg4AIm677bYoLCyMW2+9NXUKAEDOmD59elRU VKTOAMLJCcgY3/72t+Pmm29OnQEAkBNuvfVWwwRkEA9iQoaprKyMG2+8Mfbv3586BQCgySksLIyq qqoYO3Zs6hTg/xwwTkAGuv/++2PcuHHx/vvvp04BAGgyioqKorq6OoYPH546Bfgo4wRkqpqamrj6 6qtj3759qVMAALKeYQIymnECMtmKFSvii1/8YuzatSt1CgBA1jrxxBPjkUceiXPPPTd1CvDxjBOQ 6dauXRt///d/H9u3b0+dAgCQdTp27BhLly6NM888M3UK8MmME5ANNm/eHBdddFFs3bo1dQoAQNYo KyuLZcuWRVlZWeoU4C874FOikAXKy8ujtrY2unTpkjoFACArdOvWzTABWcQ4AVni9NNPj7Vr10bf vn1TpwAAZLT+/fvHmjVrDBOQRYwTkEVOPPHEePzxx2Po0KGpUwAAMtKoUaNi2bJl0bZt29QpwGEw TkCWadmyZSxcuDDGjBmTOgUAIKNMnDgx5s2bF0VFRalTgMNknIAs1KxZs7j33ntj+vTpkZeXlzoH ACCp/Pz8mDFjRvzkJz+JwsLC1DnAEfC1Dshyc+fOjUmTJsX777+fOgUAoNG1aNEifvrTn8aXvvSl 1CnAkfMpUWgKli9fHiNGjIhdu3alTgEAaDRt2rSJRYsWxfnnn586BTg6xgloKn71q1/FJZdcEn/4 wx9SpwAANLjS0tJYsmRJfP7zn0+dAhy9A96cgCaiT58+sWHDhvjbv/3b1CkAAA3q7LPPjvXr1xsm oAkxTkATcvLJJ0dtbW1ceOGFqVMAABrEkCFDora2Njp06JA6BTiGjBPQxBQXF8ejjz4aFRUVqVMA AI6padOmxeLFi6N169apU4BjzJsT0IRVVVXFlClTfMkDAMhqLVq0iNmzZ8fo0aNTpwANw4OY0NTV 1tbGyJEjY8eOHalTAAAOW/v27WPRokXRp0+f1ClAwzFOQC548cUXY+jQofH888+nTgEAOGTl5eWx ZMmSKCsrS50CNCxf64BccNppp8WKFSuib9++qVMAAA7JwIEDo66uzjABOcI4ATmitLQ0VqxY4aFM ACCj5eXlRUVFRdTW1kZJSUnqHKCRuNYBOejHP/5xfOUrX4l9+/alTgEAOKhFixZRWVkZ48aNS50C NC5vTkCu2rBhQ1x66aXxyiuvpE4BAIiuXbvGgw8+GJ/5zGdSpwCNz5sTkKs+97nPxZo1a+ILX/hC 6hQAIMddeOGFsWbNGsME5DDjBOSwkpKSWLp0qXcoAIBkKioq4tFHH42TTjopdQqQkGsdQEREzJs3 LyZNmhS7d+9OnQIA5ICWLVtGVVVVjB49OnUKkJ43J4D/s2rVqrj88svj97//feoUAKAJO+WUU6Km pibOOeec1ClAZvDmBPB/+vbtG2vXro3zzz8/dQoA0ERdfPHFsXbtWsME8BHGCeAjSktLo7a2NqZP nx4FBQWpcwCAJqJZs2YxY8aMePTRR6OkpCR1DpBhXOsAPtETTzwRV1xxRWzbti11CgCQxTp06BDV 1dUxYMCA1ClAZvLmBPCXbd26NUaNGhVPPfVU6hQAIAv17ds35s+fHx07dkydAmQub04Af1mnTp2i rq7O50YBgMOSl5cXFRUV8eSTTxomgL/KyQngkFVVVcXUqVPjvffeS50CAGSwVq1aRWVlZVx99dWp U4Ds4FoHcHg2bdoUV1xxRTz77LOpUwCADNSrV6944IEHonv37qlTgOzhWgdweM4444xYu3ZtTJs2 LfLz/RYCAPyPgoKCmDZtWqxevdowARw2JyeAI1ZbWxtjx46N1157LXUKAJDQySefHPfdd18MGjQo dQqQnZycAI7cBRdcEBs2bIghQ4akTgEAEvniF78YGzZsMEwAR8U4ARyVdu3axeLFi2PGjBlRVFSU OgcAaCQtW7aMuXPnxkMPPRQlJSWpc4As51oHcMw89dRTcdVVV8XLL7+cOgUAaEDdu3ePefPmxdln n506BWgaXOsAjp3zzjsvnnnmmZg4cWLqFACgAeTl5cV1110X69evN0wAx5STE0CDWL58eYwfPz62 bt2aOgUAOAa6desW9957b/Tp0yd1CtD0ODkBNIzBgwfHb37zm5g8eXLqFADgKE2ePDnWrVtnmAAa jJMTQIP7+c9/Htddd1388Y9/TJ0CAByGDh06xE9+8pP4h3/4h9QpQNPm5ATQ8L70pS/Fxo0bY9iw YalTAIBDdMkll8SGDRsME0CjME4AjaK0tDQefPDB+MEPfhDHHXdc6hwA4BO0bNky7r777li0aFG0 b98+dQ6QI1zrABrd888/HxMmTIhf/epXqVMAgD8xYMCAuOeee6Jbt26pU4Dc4loH0Pg+/elPx8qV K2PWrFnRunXr1DkAkPNOPPHEmD9/fqxYscIwASTh5ASQ1KuvvhrXXHNNLF++PHUKAOSkSy65JCor K6NDhw6pU4Dc5eQEkNapp54ajz/+uFMUANDIPjwt8eCDDxomgOScnAAyxquvvhqTJk2KZcuWpU4B gCZt+PDhUVlZGZ/61KdSpwBEODkBZJJTTz01HnvssbjrrrucogCABtCmTZuYOXNmLFy40DABZBQn J4CMtHXr1vjKV74SDz74YOoUAGgSRo0aFTNmzHCFA8hEB4wTQEZ78sknY8qUKfHb3/42dQoAZKUz zjgjZs6cGf3790+dAvBJXOsAMtugQYNi3bp1MW3atCgqKkqdAwBZo0WLFjF9+vTYsGGDYQLIeE5O AFnjhRdeiClTpkRtbW3qFADIaBdddFH827/9W3Tr1i11CsChcHICyB7du3ePZcuWxdy5c6OkpCR1 DgBknPbt28f8+fNj6dKlhgkgqxgngKySl5cXY8eOjWeeeSauvvrqyMvLS50EAMnl5+fHhAkT4tln n42RI0emzgE4bK51AFlt/fr1MXXq1Fi5cmXqFABI4uKLL44ZM2ZEjx49UqcAHCnXOoDsdtZZZ0Vd XV3Mnz8/TjnllNQ5ANBounTpEg8//HA89thjhgkg6zk5ATQZ7733Xnz/+9+P22+/Pfbs2ZM6BwAa RKtWreKf//mfY+rUqXHcccelzgE4Fg4YJ4AmZ8uWLfHNb34zampqUqcAwDE1ZsyY+N73vhedOnVK nQJwLBkngKZr0aJF8fWvfz22bNmSOgUAjkqPHj3ijjvuiCFDhqROAWgI3pwAmq5LL700fvvb38as WbOitLQ0dQ4AHLYOHTrE3LlzY+PGjYYJoElzcgLICe+8807ccccd3qMAICt8+K7EjTfeGMcff3zq HICG5loHkFu2bt0aN998c9x3333htz8AMk1BQUFMnDgx/uVf/iVOPvnk1DkAjcU4AeSmNWvWxNe+ 9rX45S9/mToFACIiYuDAgfGDH/wgevXqlToFoLF5cwLITWeffXY8+eSTMWfOnOjcuXPqHABy2Kmn nhrz5s2LJ554wjAB5CwnJ4Cc9/7778fs2bPj29/+drz++uupcwDIEV26dIlbb701rrzyyigsLEyd A5CSax0AH3rvvffi7rvvjunTp8fbb7+dOgeAJqp9+/bx3e9+N8aNGxfNmzdPnQOQCYwTAP/fW2+9 Fd///vfjrrvuit27d6fOAaCJaN26ddxyyy1xww03RKtWrVLnAGQS4wTAJ/n9738f3/nOd+Kee+6J Dz74IHUOAFmqqKgobrrppvja174W7dq1S50DkImMEwB/zbPPPhu33HJLLFmyJHUKAFkkLy8vhg8f HrfddlucccYZqXMAMplxAuBQbdy4MW6//fa4//77o76+PnUOABmqsLAwJkyYEBUVFVFWVpY6ByAb GCcADtemTZti+vTpRgoAPuLDUeKf/umfomvXrqlzALKJcQLgSG3evDn+9V//1UgBkOOMEgBHzTgB cLSeeeaZ+M53vhOLFi0Kv6UC5I78/PwYOXJkfOtb34qePXumzgHIZsYJgGPlueeei+9973tRU1Pj JAVAE1ZYWBijR4+Ob37zmx66BDg2jBMAx9obb7wRM2fOjBkzZsTOnTtT5wBwjBQXF8dXv/rVuP76 66N9+/apcwCaEuMEQEPZtWtXzJ49O6ZPnx5vvPFG6hwAjlDHjh3jG9/4RkyYMCFat26dOgegKTJO ADS0nTt3RmVlZfzwhz80UgBkkY4dO8Y//uM/xuTJk40SAA3LOAHQWPbs2RNz5syJO+64I7Zs2ZI6 B4BPcPrpp8fXv/71GDNmTBQVFaXOAcgFxgmAFFauXBm33357/OIXv/CFD4AMUFBQEJdddllMnTo1 +vXrlzoHINcYJwBSevHFF+Puu++OqqqqePfdd1PnAOSc4uLiuPbaa2PSpEnRrVu31DkAuco4AZAJ tm3bFrNmzYrKykrvUgA0go4dO8b1118f1157bZSUlKTOAch1xgmATLJ///74xS9+EXfddVcsX748 dQ5AkzN48OCYOnVqDBkyJPLz81PnAPA/jBMAmWrlypVRWVkZCxYsiL1796bOAchaLVq0iJEjR8aU KVPivPPOS50DwJ8zTgBkul27dkV1dXX86Ec/iueeey51DkDW+MxnPhM33HBDjB49Ok444YTUOQB8 MuMEQLbYv39/LF26NCorK+ORRx6J+vr61EkAGaewsDCGDh0aU6ZMicGDB7u6AZAdjBMA2Wjbtm0x Z86cmDlzZrzyyiupcwCSKysri8mTJ8f48eOjffv2qXMAODzGCYBstm/fvnjooYdi9uzZ8fjjjztN AeSUwsLC+Lu/+7uYMGFCDBs2LAoLC1MnAXBkjBMATcWOHTuipqYmZs2aFevWrUudA9Bg+vbtG2PH jo1Ro0ZFcXFx6hwAjp5xAqApWrVqVcyePTtqampi165dqXMAjlqbNm1i9OjRMW7cuOjdu3fqHACO LeMEQFO2b9++WLp0afz0pz+NRYsWxQcffJA6CeCQNWvWLIYPHx6TJ0+O888/PwoKClInAdAwjBMA ueKVV16J6urqeOCBB+LZZ59NnQPwic4666y48sor4/LLL4/OnTunzgGg4RknAHLRxo0bDw4VW7Zs SZ0DEKeffnpcccUVMXr06OjRo0fqHAAal3ECINdt3Lgxampq4v77748XXnghdQ6QQz4cJC6//PIo Ly9PnQNAOsYJAP7H/v37Y8WKFVFdXR2LFi2K7du3p04CmqDS0tK47LLLYvTo0dGvX7/Iz89PnQRA esYJAP5cfX191NXVxYIFC2LRokXx2muvpU4CslinTp3isssuixEjRhgkAPg4xgkA/roPr37U1NTE pk2bUucAWaBXr14xdOjQGDlyZPTs2TN1DgCZzTgBwOH59a9/HQsWLIgFCxZ4owL4iB49esSIESNi xIgRcdZZZ6XOASB7GCcAOHKbNm2KxYsXx+LFi2P16tVRX1+fOgloRAUFBdG3b98YNmxYDBs2LD79 6U+nTgIgOxknADg23n333fiP//iPWLJkSTz88MPxxhtvpE4CGkCHDh1i2LBhMXTo0LjggguiZcuW qZMAyH7GCQCOvb1798aTTz4ZixcvjiVLlsSrr76aOgk4Cl27dj14OmLAgAHRvHnz1EkANC3GCQAa 3nPPPRfLly+P5cuXR11dXbzzzjupk4C/oHXr1jFo0KAYPHhwXHjhhVFeXp46CYCmzTgBQOPat29f rF69+uBYsWbNmvjggw9SZ0FOKywsjHPPPTcGDx4cgwcPjt69e0dhYWHqLAByh3ECgLR27twZTzzx xMGx4vnnn0+dBDnhjDPOiAsuuCAuvPDCGDRoULRu3Tp1EgC5yzgBQGZ5/fXXY8WKFVFXVxcrVqyI zZs3hz+q4Ojk5eVFz549Y+DAgTFw4MAYMGBAlJaWps4CgA8ZJwDIbO+8806sXr06Vq5cGatWrYq6 urrYt29f6izIaEVFRdG/f//o27dv9OvXL84777w4/vjjU2cBwCcxTgCQXd56661YuXJl1NXVxerV q2PdunWxe/fu1FmQVMuWLaNXr17Ru3fv6N+/f/Tv3z+Ki4tTZwHAoTJOAJD9XnrppVi5cmWsXbs2 Vq1aFevXr4/9+/enzoIG0axZszjnnHOiV69e0atXr+jXr1+UlZWlzgKAo2GcAKDp2b59ezz99NPx 9NNPx+rVq+PXv/51vP3226mz4Ii0bds2Pv/5z0fv3r3j3HPPjd69e8dJJ52UOgsAjiXjBAC54eWX X47169d/5Ndrr72WOgs+4uSTT46zzjrrI7+6dOmSOgsAGppxAoDctW3btli/fn1s2LAh1q1bF+vX r4+XXnrJlRAaXEFBQXTr1u3Phoh27dqlTgOAFIwTAPCndu/eHZs3b47NmzfHxo0bY9OmTbFx48Z4 +eWXo76+PnUeWaagoCDKysrizDPPjPLy8ujZs2eUl5dHeXl5tGjRInUeAGQK4wQAHIo9e/Z8ZLTY vHlzvPDCC7FlyxZfCyFatmwZ3bp1i+7du0d5eXmceeaZ0aNHjygvL4+ioqLUeQCQ6YwTAHC0duzY ES+99NLH/nr55ZfDH7XZLy8vL7p27RplZWUf+6tt27apEwEgmxknAKAhvfnmm/Hiiy/Gf/7nf8bv fve72Lp1a7z66qsHf37zzTdTJ/K/SktLo1OnTtG5c+c45ZRTonPnzgd/Pu2007wHAQANxzgBACnt 2bPnz4aL7du3x/bt22Pbtm2xffv2+MMf/hDbt2/3UOcRKCgoiJKSkmjXrl2UlJTEpz71qYM/n3rq qQcHiM6dO3sDAgDSMU4AQDY4cODAR4aKN998M958883YsWNH7NixI95+++2DP//pP+/atSt1+jHT pk2bKC4ujrZt20bbtm0/9ufS0tJo3779RwaJvLy81OkAwF9mnACApqy+vv7gULFz587YvXt37Nmz J3bu3Bl79+6Nd955J959993Yu3dvvP3227Fnz57YvXt37Nq168++TlJfX39YY8cJJ5wQBQUFH/l3 BQUFccIJJ0TLli2jqKgoiouLo6ioKI4//vho1apVFBUVRZs2beK4446LFi1aRJs2bQ4OEPn5+cfk vwkAkHGMEwAAAEBSB/wVBAAAAJCUcQIAAABIyjgBAAAAJGWcAAAAAJIyTgAAAABJGScAAACApIwT AAAAQFLGCQAAACAp4wQAAACQlHECAAAASMo4AQAAACRlnAAAAACSMk4AAAAASRknAAAAgKSMEwAA AEBSxgkAAAAgKeMEAAAAkJRxAgAAAEjKOAEAAAAkZZwAAAAAkjJOAAAAAEkZJwAAAICkjBMAAABA UsYJAAAAICnjBAAAAJCUcQIAAABIyjgBAAAAJGWcAAAAAJIyTgAAAABJGScAAACApIwTAAAAQFLG CQAAACAp4wQAAACQlHECAAAASMo4AQAAACRlnAAAAACSMk4AAAAASRknAAAAgKSMEwAAAEBSxgkA AAAgKeMEAAAAkJRxAgAAAEjKOAEAAAAkZZwAAAAAkjJOAAAAAEkZJwAAAICkjBMAAABAUsYJAAAA ICnjBAAAAJCUcQIAAABIyjgBAAAAJGWcAAAAAJIyTgAAAABJGScAAACApIwTAAAAQFLGCQAAACAp 4wQAAACQlHECAAAASMo4AQAAACRlnAAAAACSMk4AAAAASRknAAAAgKSMEwAAAEBSxgkAAAAgKeME AAAAkJRxAgAAAEjKOAEAAAAkZZwAAAAAkjJOAAAAAEkZJwAAAICkjBMAAABAUsYJAAAAICnjBAAA AJCUcQIAAABIyjgBAAAAJGWcAAAAAJIyTgAAAABJGScAAACApIwTAAAAQFLGCQAAACAp4wQAAACQ lHECAAAASMo4AQAAACRlnAAAAACSMk4AAAAASRknAAAAgKSMEwAAAEBSxgkAAAAgKeMEAAAAkJRx AgAAAEiqMCIOpI4AAAAActb+/wb3WW/riAnfRwAAAABJRU5ErkJggg== "
       height="22.928949"
       width="22.928949" />
  </g>
</svg>
