<?xml version="1.0" encoding="UTF-8" standalone="no"?>
<!-- Created with Inkscape (http://www.inkscape.org/) -->

<svg
   xmlns:dc="http://purl.org/dc/elements/1.1/"
   xmlns:cc="http://creativecommons.org/ns#"
   xmlns:rdf="http://www.w3.org/1999/02/22-rdf-syntax-ns#"
   xmlns:svg="http://www.w3.org/2000/svg"
   xmlns="http://www.w3.org/2000/svg"
   xmlns:xlink="http://www.w3.org/1999/xlink"
   xmlns:sodipodi="http://sodipodi.sourceforge.net/DTD/sodipodi-0.dtd"
   xmlns:inkscape="http://www.inkscape.org/namespaces/inkscape"
   width="960"
   height="540"
   id="svg3023"
   version="1.1"
   inkscape:version="0.48.5 r10040"
   sodipodi:docname="0.png">
  <defs
     id="defs3025">
    <pattern
       inkscape:collect="always"
       xlink:href="#pattern7109"
       id="pattern8992"
       patternTransform="translate(5e-5,974.86213)" />
    <pattern
       inkscape:collect="always"
       xlink:href="#pattern3436"
       id="pattern7109"
       patternTransform="translate(236.74456,1408.3001)" />
    <pattern
       patternUnits="userSpaceOnUse"
       width="80"
       height="77"
       patternTransform="translate(248.43796,970.98627)"
       id="pattern3436">
      <g
         inkscape:label="Ebene 1"
         id="layer1-6"
         transform="translate(0,-975.36218)">
        <rect
           style="fill:#000000;fill-rule:evenodd;stroke:none"
           id="rect3850-2"
           width="80"
           height="77"
           x="0"
           y="975.36218" />
        <text
           xml:space="preserve"
           style="font-size:50px;font-style:normal;font-variant:normal;font-weight:bold;font-stretch:normal;text-align:start;line-height:125%;letter-spacing:0px;word-spacing:0px;writing-mode:lr-tb;text-anchor:start;fill:#ff0000;fill-opacity:1;stroke:none;font-family:Courier New;-inkscape-font-specification:Courier New Bold"
           x="24.973145"
           y="1028.6693"
           id="text3019-1"
           sodipodi:linespacing="125%"><tspan
             sodipodi:role="line"
             id="tspan3021-3"
             x="24.973145"
             y="1028.6693">O</tspan></text>
      </g>
    </pattern>
  </defs>
  <sodipodi:namedview
     id="base"
     pagecolor="#ffffff"
     bordercolor="#666666"
     borderopacity="1.0"
     inkscape:pageopacity="0.0"
     inkscape:pageshadow="2"
     inkscape:zoom="0.76966292"
     inkscape:cx="478.06296"
     inkscape:cy="246.62978"
     inkscape:document-units="px"
     inkscape:current-layer="layer1"
     showgrid="false"
     inkscape:window-width="1207"
     inkscape:window-height="763"
     inkscape:window-x="2"
     inkscape:window-y="4"
     inkscape:window-maximized="0" />
  <metadata
     id="metadata3028">
    <rdf:RDF>
      <cc:Work
         rdf:about="">
        <dc:format>image/svg+xml</dc:format>
        <dc:type
           rdf:resource="http://purl.org/dc/dcmitype/StillImage" />
        <dc:title></dc:title>
      </cc:Work>
    </rdf:RDF>
  </metadata>
  <g
     inkscape:label="Ebene 1"
     inkscape:groupmode="layer"
     id="layer1"
     transform="translate(0,-512.36218)">
    <rect
       style="fill:#000000;fill-opacity:1;fill-rule:evenodd;stroke:none"
       id="rect10516"
       width="960"
       height="540"
       x="0"
       y="512.36218" />
    <g
       transform="translate(879.99999,-0.50002)"
       id="layer1-0"
       inkscape:label="Ebene 1">
      <rect
         y="975.36218"
         x="0"
         height="77"
         width="80"
         id="rect3850"
         style="fill:#000000;fill-rule:evenodd;stroke:none" />
      <text
         sodipodi:linespacing="125%"
         id="text3019"
         y="1028.6693"
         x="24.973145"
         style="font-size:50px;font-style:normal;font-variant:normal;font-weight:bold;font-stretch:normal;text-align:start;line-height:125%;letter-spacing:0px;word-spacing:0px;writing-mode:lr-tb;text-anchor:start;fill:#ff0000;fill-opacity:1;stroke:none;font-family:Courier New;-inkscape-font-specification:Courier New Bold"
         xml:space="preserve"><tspan
           y="1028.6693"
           x="24.973145"
           id="tspan3021"
           sodipodi:role="line">O</tspan></text>
    </g>
    <rect
       style="fill:url(#pattern8992);stroke:none"
       width="80"
       height="77"
       x="2.7353515e-05"
       y="974.86218"
       id="rect3442" />
    <g
       transform="translate(80.00002,-231.50002)"
       id="layer1-9"
       inkscape:label="Ebene 1">
      <rect
         y="975.36218"
         x="0"
         height="77"
         width="80"
         id="rect3850-0"
         style="fill:#000000;fill-rule:evenodd;stroke:none" />
      <text
         sodipodi:linespacing="125%"
         id="text3019-7"
         y="1028.6693"
         x="24.973145"
         style="font-size:50px;font-style:normal;font-variant:normal;font-weight:bold;font-stretch:normal;text-align:start;line-height:125%;letter-spacing:0px;word-spacing:0px;writing-mode:lr-tb;text-anchor:start;fill:#ff0000;fill-opacity:1;stroke:none;font-family:Courier New;-inkscape-font-specification:Courier New Bold"
         xml:space="preserve"><tspan
           y="1028.6693"
           x="24.973145"
           id="tspan3021-4"
           sodipodi:role="line">O</tspan></text>
    </g>
    <g
       transform="translate(2e-5,-154.50002)"
       id="layer1-06"
       inkscape:label="Ebene 1">
      <rect
         y="975.36218"
         x="0"
         height="77"
         width="80"
         id="rect3850-1"
         style="fill:#000000;fill-rule:evenodd;stroke:none" />
      <text
         sodipodi:linespacing="125%"
         id="text3019-8"
         y="1028.6693"
         x="24.973145"
         style="font-size:50px;font-style:normal;font-variant:normal;font-weight:bold;font-stretch:normal;text-align:start;line-height:125%;letter-spacing:0px;word-spacing:0px;writing-mode:lr-tb;text-anchor:start;fill:#ff0000;fill-opacity:1;stroke:none;font-family:Courier New;-inkscape-font-specification:Courier New Bold"
         xml:space="preserve"><tspan
           y="1028.6693"
           x="24.973145"
           id="tspan3021-7"
           sodipodi:role="line">O</tspan></text>
    </g>
    <g
       transform="translate(879.99999,-231.50002)"
       id="layer1-5"
       inkscape:label="Ebene 1">
      <rect
         y="975.36218"
         x="0"
         height="77"
         width="80"
         id="rect3850-4"
         style="fill:#000000;fill-rule:evenodd;stroke:none" />
      <text
         sodipodi:linespacing="125%"
         id="text3019-3"
         y="1028.6693"
         x="24.973145"
         style="font-size:50px;font-style:normal;font-variant:normal;font-weight:bold;font-stretch:normal;text-align:start;line-height:125%;letter-spacing:0px;word-spacing:0px;writing-mode:lr-tb;text-anchor:start;fill:#ff0000;fill-opacity:1;stroke:none;font-family:Courier New;-inkscape-font-specification:Courier New Bold"
         xml:space="preserve"><tspan
           y="1028.6693"
           x="24.973145"
           id="tspan3021-1"
           sodipodi:role="line">O</tspan></text>
    </g>
    <g
       transform="translate(160.00002,-77.500003)"
       id="layer1-56"
       inkscape:label="Ebene 1">
      <rect
         y="975.36218"
         x="0"
         height="77"
         width="80"
         id="rect3850-48"
         style="fill:#000000;fill-rule:evenodd;stroke:none" />
      <text
         sodipodi:linespacing="125%"
         id="text3019-4"
         y="1028.6693"
         x="24.973145"
         style="font-size:50px;font-style:normal;font-variant:normal;font-weight:bold;font-stretch:normal;text-align:start;line-height:125%;letter-spacing:0px;word-spacing:0px;writing-mode:lr-tb;text-anchor:start;fill:#ff0000;fill-opacity:1;stroke:none;font-family:Courier New;-inkscape-font-specification:Courier New Bold"
         xml:space="preserve"><tspan
           y="1028.6693"
           x="24.973145"
           id="tspan3021-9"
           sodipodi:role="line">O</tspan></text>
    </g>
    <g
       transform="translate(240.00002,-77.500003)"
       id="layer1-1"
       inkscape:label="Ebene 1">
      <rect
         y="975.36218"
         x="0"
         height="77"
         width="80"
         id="rect3850-7"
         style="fill:#000000;fill-rule:evenodd;stroke:none" />
      <text
         sodipodi:linespacing="125%"
         id="text3019-9"
         y="1028.6693"
         x="24.973145"
         style="font-size:50px;font-style:normal;font-variant:normal;font-weight:bold;font-stretch:normal;text-align:start;line-height:125%;letter-spacing:0px;word-spacing:0px;writing-mode:lr-tb;text-anchor:start;fill:#ff0000;fill-opacity:1;stroke:none;font-family:Courier New;-inkscape-font-specification:Courier New Bold"
         xml:space="preserve"><tspan
           y="1028.6693"
           x="24.973145"
           id="tspan3021-96"
           sodipodi:role="line">O</tspan></text>
    </g>
    <g
       transform="translate(80.00002,-154.50002)"
       id="layer1-68"
       inkscape:label="Ebene 1">
      <rect
         y="975.36218"
         x="0"
         height="77"
         width="80"
         id="rect3850-8"
         style="fill:#000000;fill-rule:evenodd;stroke:none" />
      <text
         sodipodi:linespacing="125%"
         id="text3019-6"
         y="1028.6693"
         x="24.973145"
         style="font-size:50px;font-style:normal;font-variant:normal;font-weight:bold;font-stretch:normal;text-align:start;line-height:125%;letter-spacing:0px;word-spacing:0px;writing-mode:lr-tb;text-anchor:start;fill:#ff0000;fill-opacity:1;stroke:none;font-family:Courier New;-inkscape-font-specification:Courier New Bold"
         xml:space="preserve"><tspan
           y="1028.6693"
           x="24.973145"
           id="tspan3021-8"
           sodipodi:role="line">O</tspan></text>
    </g>
    <g
       transform="translate(720.00002,-231.5)"
       id="layer1-3"
       inkscape:label="Ebene 1">
      <rect
         y="975.36218"
         x="0"
         height="77"
         width="80"
         id="rect3850-486"
         style="fill:#000000;fill-rule:evenodd;stroke:none" />
      <text
         sodipodi:linespacing="125%"
         id="text3019-65"
         y="1028.6693"
         x="24.973145"
         style="font-size:50px;font-style:normal;font-variant:normal;font-weight:bold;font-stretch:normal;text-align:start;line-height:125%;letter-spacing:0px;word-spacing:0px;writing-mode:lr-tb;text-anchor:start;fill:#ff0000;fill-opacity:1;stroke:none;font-family:Courier New;-inkscape-font-specification:Courier New Bold"
         xml:space="preserve"><tspan
           y="1028.6693"
           x="24.973145"
           id="tspan3021-5"
           sodipodi:role="line">O</tspan></text>
    </g>
    <g
       transform="translate(240.00002,-231.5)"
       id="layer1-4"
       inkscape:label="Ebene 1">
      <rect
         y="975.36218"
         x="0"
         height="77"
         width="80"
         id="rect3850-02"
         style="fill:#000000;fill-rule:evenodd;stroke:none" />
      <text
         sodipodi:linespacing="125%"
         id="text3019-77"
         y="1028.6693"
         x="24.973145"
         style="font-size:50px;font-style:normal;font-variant:normal;font-weight:bold;font-stretch:normal;text-align:start;line-height:125%;letter-spacing:0px;word-spacing:0px;writing-mode:lr-tb;text-anchor:start;fill:#ff0000;fill-opacity:1;stroke:none;font-family:Courier New;-inkscape-font-specification:Courier New Bold"
         xml:space="preserve"><tspan
           y="1028.6693"
           x="24.973145"
           id="tspan3021-72"
           sodipodi:role="line">O</tspan></text>
    </g>
    <g
       transform="translate(80.00002,-77.50002)"
       id="layer1-2"
       inkscape:label="Ebene 1">
      <rect
         y="975.36218"
         x="0"
         height="77"
         width="80"
         id="rect3850-85"
         style="fill:#000000;fill-rule:evenodd;stroke:none" />
      <text
         sodipodi:linespacing="125%"
         id="text3019-31"
         y="1028.6693"
         x="24.973145"
         style="font-size:50px;font-style:normal;font-variant:normal;font-weight:bold;font-stretch:normal;text-align:start;line-height:125%;letter-spacing:0px;word-spacing:0px;writing-mode:lr-tb;text-anchor:start;fill:#ff0000;fill-opacity:1;stroke:none;font-family:Courier New;-inkscape-font-specification:Courier New Bold"
         xml:space="preserve"><tspan
           y="1028.6693"
           x="24.973145"
           id="tspan3021-78"
           sodipodi:role="line">O</tspan></text>
    </g>
    <g
       transform="translate(799.99999,-154.50002)"
       id="layer1-44"
       inkscape:label="Ebene 1">
      <rect
         y="975.36218"
         x="0"
         height="77"
         width="80"
         id="rect3850-9"
         style="fill:#000000;fill-rule:evenodd;stroke:none" />
      <text
         sodipodi:linespacing="125%"
         id="text3019-45"
         y="1028.6693"
         x="24.973145"
         style="font-size:50px;font-style:normal;font-variant:normal;font-weight:bold;font-stretch:normal;text-align:start;line-height:125%;letter-spacing:0px;word-spacing:0px;writing-mode:lr-tb;text-anchor:start;fill:#ff0000;fill-opacity:1;stroke:none;font-family:Courier New;-inkscape-font-specification:Courier New Bold"
         xml:space="preserve"><tspan
           y="1028.6693"
           x="24.973145"
           id="tspan3021-2"
           sodipodi:role="line">O</tspan></text>
    </g>
    <g
       transform="translate(640.00002,-154.5)"
       id="layer1-8"
       inkscape:label="Ebene 1">
      <rect
         y="975.36218"
         x="0"
         height="77"
         width="80"
         id="rect3850-86"
         style="fill:#000000;fill-rule:evenodd;stroke:none" />
      <text
         sodipodi:linespacing="125%"
         id="text3019-62"
         y="1028.6693"
         x="24.973145"
         style="font-size:50px;font-style:normal;font-variant:normal;font-weight:bold;font-stretch:normal;text-align:start;line-height:125%;letter-spacing:0px;word-spacing:0px;writing-mode:lr-tb;text-anchor:start;fill:#ff0000;fill-opacity:1;stroke:none;font-family:Courier New;-inkscape-font-specification:Courier New Bold"
         xml:space="preserve"><tspan
           y="1028.6693"
           x="24.973145"
           id="tspan3021-54"
           sodipodi:role="line">O</tspan></text>
    </g>
    <g
       transform="translate(240.00002,-154.5)"
       id="layer1-09"
       inkscape:label="Ebene 1">
      <rect
         y="975.36218"
         x="0"
         height="77"
         width="80"
         id="rect3850-857"
         style="fill:#000000;fill-rule:evenodd;stroke:none" />
      <text
         sodipodi:linespacing="125%"
         id="text3019-49"
         y="1028.6693"
         x="24.973145"
         style="font-size:50px;font-style:normal;font-variant:normal;font-weight:bold;font-stretch:normal;text-align:start;line-height:125%;letter-spacing:0px;word-spacing:0px;writing-mode:lr-tb;text-anchor:start;fill:#ff0000;fill-opacity:1;stroke:none;font-family:Courier New;-inkscape-font-specification:Courier New Bold"
         xml:space="preserve"><tspan
           y="1028.6693"
           x="24.973145"
           id="tspan3021-89"
           sodipodi:role="line">O</tspan></text>
    </g>
    <g
       transform="translate(640.00002,-231.5)"
       id="layer1-98"
       inkscape:label="Ebene 1">
      <rect
         y="975.36218"
         x="0"
         height="77"
         width="80"
         id="rect3850-47"
         style="fill:#000000;fill-rule:evenodd;stroke:none" />
      <text
         sodipodi:linespacing="125%"
         id="text3019-19"
         y="1028.6693"
         x="24.973145"
         style="font-size:50px;font-style:normal;font-variant:normal;font-weight:bold;font-stretch:normal;text-align:start;line-height:125%;letter-spacing:0px;word-spacing:0px;writing-mode:lr-tb;text-anchor:start;fill:#ff0000;fill-opacity:1;stroke:none;font-family:Courier New;-inkscape-font-specification:Courier New Bold"
         xml:space="preserve"><tspan
           y="1028.6693"
           x="24.973145"
           id="tspan3021-0"
           sodipodi:role="line">O</tspan></text>
    </g>
    <g
       transform="translate(240.00002,-385.5)"
       id="layer1-97"
       inkscape:label="Ebene 1">
      <rect
         y="975.36218"
         x="0"
         height="77"
         width="80"
         id="rect3850-29"
         style="fill:#000000;fill-rule:evenodd;stroke:none" />
      <text
         sodipodi:linespacing="125%"
         id="text3019-96"
         y="1028.6693"
         x="24.973145"
         style="font-size:50px;font-style:normal;font-variant:normal;font-weight:bold;font-stretch:normal;text-align:start;line-height:125%;letter-spacing:0px;word-spacing:0px;writing-mode:lr-tb;text-anchor:start;fill:#ff0000;fill-opacity:1;stroke:none;font-family:Courier New;-inkscape-font-specification:Courier New Bold"
         xml:space="preserve"><tspan
           y="1028.6693"
           x="24.973145"
           id="tspan3021-595"
           sodipodi:role="line">O</tspan></text>
    </g>
    <g
       transform="translate(879.99999,-77.50002)"
       id="layer1-61"
       inkscape:label="Ebene 1">
      <rect
         y="975.36218"
         x="0"
         height="77"
         width="80"
         id="rect3850-67"
         style="fill:#000000;fill-rule:evenodd;stroke:none" />
      <text
         sodipodi:linespacing="125%"
         id="text3019-34"
         y="1028.6693"
         x="24.973145"
         style="font-size:50px;font-style:normal;font-variant:normal;font-weight:bold;font-stretch:normal;text-align:start;line-height:125%;letter-spacing:0px;word-spacing:0px;writing-mode:lr-tb;text-anchor:start;fill:#ff0000;fill-opacity:1;stroke:none;font-family:Courier New;-inkscape-font-specification:Courier New Bold"
         xml:space="preserve"><tspan
           y="1028.6693"
           x="24.973145"
           id="tspan3021-46"
           sodipodi:role="line">O</tspan></text>
    </g>
    <g
       transform="translate(799.99999,-77.50002)"
       id="layer1-38"
       inkscape:label="Ebene 1">
      <rect
         y="975.36218"
         x="0"
         height="77"
         width="80"
         id="rect3850-92"
         style="fill:#000000;fill-rule:evenodd;stroke:none" />
      <text
         sodipodi:linespacing="125%"
         id="text3019-0"
         y="1028.6693"
         x="24.973145"
         style="font-size:50px;font-style:normal;font-variant:normal;font-weight:bold;font-stretch:normal;text-align:start;line-height:125%;letter-spacing:0px;word-spacing:0px;writing-mode:lr-tb;text-anchor:start;fill:#ff0000;fill-opacity:1;stroke:none;font-family:Courier New;-inkscape-font-specification:Courier New Bold"
         xml:space="preserve"><tspan
           y="1028.6693"
           x="24.973145"
           id="tspan3021-20"
           sodipodi:role="line">O</tspan></text>
    </g>
    <g
       transform="translate(720.00002,-77.500003)"
       id="layer1-40"
       inkscape:label="Ebene 1">
      <rect
         y="975.36218"
         x="0"
         height="77"
         width="80"
         id="rect3850-04"
         style="fill:#000000;fill-rule:evenodd;stroke:none" />
      <text
         sodipodi:linespacing="125%"
         id="text3019-67"
         y="1028.6693"
         x="24.973145"
         style="font-size:50px;font-style:normal;font-variant:normal;font-weight:bold;font-stretch:normal;text-align:start;line-height:125%;letter-spacing:0px;word-spacing:0px;writing-mode:lr-tb;text-anchor:start;fill:#ff0000;fill-opacity:1;stroke:none;font-family:Courier New;-inkscape-font-specification:Courier New Bold"
         xml:space="preserve"><tspan
           y="1028.6693"
           x="24.973145"
           id="tspan3021-60"
           sodipodi:role="line">O</tspan></text>
    </g>
    <g
       transform="translate(640.00002,-77.500003)"
       id="layer1-433"
       inkscape:label="Ebene 1">
      <rect
         y="975.36218"
         x="0"
         height="77"
         width="80"
         id="rect3850-46"
         style="fill:#000000;fill-rule:evenodd;stroke:none" />
      <text
         sodipodi:linespacing="125%"
         id="text3019-90"
         y="1028.6693"
         x="24.973145"
         style="font-size:50px;font-style:normal;font-variant:normal;font-weight:bold;font-stretch:normal;text-align:start;line-height:125%;letter-spacing:0px;word-spacing:0px;writing-mode:lr-tb;text-anchor:start;fill:#ff0000;fill-opacity:1;stroke:none;font-family:Courier New;-inkscape-font-specification:Courier New Bold"
         xml:space="preserve"><tspan
           y="1028.6693"
           x="24.973145"
           id="tspan3021-68"
           sodipodi:role="line">O</tspan></text>
    </g>
    <g
       transform="translate(799.99999,-0.50002)"
       id="layer1-929"
       inkscape:label="Ebene 1">
      <rect
         y="975.36218"
         x="0"
         height="77"
         width="80"
         id="rect3850-03"
         style="fill:#000000;fill-rule:evenodd;stroke:none" />
      <text
         sodipodi:linespacing="125%"
         id="text3019-30"
         y="1028.6693"
         x="24.973145"
         style="font-size:50px;font-style:normal;font-variant:normal;font-weight:bold;font-stretch:normal;text-align:start;line-height:125%;letter-spacing:0px;word-spacing:0px;writing-mode:lr-tb;text-anchor:start;fill:#ff0000;fill-opacity:1;stroke:none;font-family:Courier New;-inkscape-font-specification:Courier New Bold"
         xml:space="preserve"><tspan
           y="1028.6693"
           x="24.973145"
           id="tspan3021-00"
           sodipodi:role="line">O</tspan></text>
    </g>
    <g
       transform="translate(720,-0.50002)"
       id="layer1-42"
       inkscape:label="Ebene 1">
      <rect
         y="975.36218"
         x="0"
         height="77"
         width="80"
         id="rect3850-828"
         style="fill:#000000;fill-rule:evenodd;stroke:none" />
      <text
         sodipodi:linespacing="125%"
         id="text3019-22"
         y="1028.6693"
         x="24.973145"
         style="font-size:50px;font-style:normal;font-variant:normal;font-weight:bold;font-stretch:normal;text-align:start;line-height:125%;letter-spacing:0px;word-spacing:0px;writing-mode:lr-tb;text-anchor:start;fill:#ff0000;fill-opacity:1;stroke:none;font-family:Courier New;-inkscape-font-specification:Courier New Bold"
         xml:space="preserve"><tspan
           y="1028.6693"
           x="24.973145"
           id="tspan3021-051"
           sodipodi:role="line">O</tspan></text>
    </g>
    <g
       transform="translate(640.00002,-0.50000262)"
       id="layer1-21"
       inkscape:label="Ebene 1">
      <rect
         y="975.36218"
         x="0"
         height="77"
         width="80"
         id="rect3850-83"
         style="fill:#000000;fill-rule:evenodd;stroke:none" />
      <text
         sodipodi:linespacing="125%"
         id="text3019-32"
         y="1028.6693"
         x="24.973145"
         style="font-size:50px;font-style:normal;font-variant:normal;font-weight:bold;font-stretch:normal;text-align:start;line-height:125%;letter-spacing:0px;word-spacing:0px;writing-mode:lr-tb;text-anchor:start;fill:#ff0000;fill-opacity:1;stroke:none;font-family:Courier New;-inkscape-font-specification:Courier New Bold"
         xml:space="preserve"><tspan
           y="1028.6693"
           x="24.973145"
           id="tspan3021-10"
           sodipodi:role="line">O</tspan></text>
    </g>
    <g
       transform="translate(240,-0.50002)"
       id="layer1-91"
       inkscape:label="Ebene 1">
      <rect
         y="975.36218"
         x="0"
         height="77"
         width="80"
         id="rect3850-25"
         style="fill:#000000;fill-rule:evenodd;stroke:none" />
      <text
         sodipodi:linespacing="125%"
         id="text3019-98"
         y="1028.6693"
         x="24.973145"
         style="font-size:50px;font-style:normal;font-variant:normal;font-weight:bold;font-stretch:normal;text-align:start;line-height:125%;letter-spacing:0px;word-spacing:0px;writing-mode:lr-tb;text-anchor:start;fill:#ff0000;fill-opacity:1;stroke:none;font-family:Courier New;-inkscape-font-specification:Courier New Bold"
         xml:space="preserve"><tspan
           y="1028.6693"
           x="24.973145"
           id="tspan3021-61"
           sodipodi:role="line">O</tspan></text>
    </g>
    <g
       transform="translate(160.00002,-0.50000262)"
       id="layer1-54"
       inkscape:label="Ebene 1">
      <rect
         y="975.36218"
         x="0"
         height="77"
         width="80"
         id="rect3850-34"
         style="fill:#000000;fill-rule:evenodd;stroke:none" />
      <text
         sodipodi:linespacing="125%"
         id="text3019-64"
         y="1028.6693"
         x="24.973145"
         style="font-size:50px;font-style:normal;font-variant:normal;font-weight:bold;font-stretch:normal;text-align:start;line-height:125%;letter-spacing:0px;word-spacing:0px;writing-mode:lr-tb;text-anchor:start;fill:#ff0000;fill-opacity:1;stroke:none;font-family:Courier New;-inkscape-font-specification:Courier New Bold"
         xml:space="preserve"><tspan
           y="1028.6693"
           x="24.973145"
           id="tspan3021-466"
           sodipodi:role="line">O</tspan></text>
    </g>
    <g
       transform="translate(80.00002,-0.50002)"
       id="layer1-424"
       inkscape:label="Ebene 1">
      <rect
         y="975.36218"
         x="0"
         height="77"
         width="80"
         id="rect3850-30"
         style="fill:#000000;fill-rule:evenodd;stroke:none" />
      <text
         sodipodi:linespacing="125%"
         id="text3019-58"
         y="1028.6693"
         x="24.973145"
         style="font-size:50px;font-style:normal;font-variant:normal;font-weight:bold;font-stretch:normal;text-align:start;line-height:125%;letter-spacing:0px;word-spacing:0px;writing-mode:lr-tb;text-anchor:start;fill:#ff0000;fill-opacity:1;stroke:none;font-family:Courier New;-inkscape-font-specification:Courier New Bold"
         xml:space="preserve"><tspan
           y="1028.6693"
           x="24.973145"
           id="tspan3021-32"
           sodipodi:role="line">O</tspan></text>
    </g>
    <g
       transform="translate(80.00002,-385.50002)"
       id="layer1-36"
       inkscape:label="Ebene 1">
      <rect
         y="975.36218"
         x="0"
         height="77"
         width="80"
         id="rect3850-45"
         style="fill:#000000;fill-rule:evenodd;stroke:none" />
      <text
         sodipodi:linespacing="125%"
         id="text3019-498"
         y="1028.6693"
         x="24.973145"
         style="font-size:50px;font-style:normal;font-variant:normal;font-weight:bold;font-stretch:normal;text-align:start;line-height:125%;letter-spacing:0px;word-spacing:0px;writing-mode:lr-tb;text-anchor:start;fill:#ff0000;fill-opacity:1;stroke:none;font-family:Courier New;-inkscape-font-specification:Courier New Bold"
         xml:space="preserve"><tspan
           y="1028.6693"
           x="24.973145"
           id="tspan3021-77"
           sodipodi:role="line">O</tspan></text>
    </g>
    <g
       transform="translate(640.00002,-308.5)"
       id="layer1-665"
       inkscape:label="Ebene 1">
      <rect
         y="975.36218"
         x="0"
         height="77"
         width="80"
         id="rect3850-69"
         style="fill:#000000;fill-rule:evenodd;stroke:none" />
      <text
         sodipodi:linespacing="125%"
         id="text3019-80"
         y="1028.6693"
         x="24.973145"
         style="font-size:50px;font-style:normal;font-variant:normal;font-weight:bold;font-stretch:normal;text-align:start;line-height:125%;letter-spacing:0px;word-spacing:0px;writing-mode:lr-tb;text-anchor:start;fill:#ff0000;fill-opacity:1;stroke:none;font-family:Courier New;-inkscape-font-specification:Courier New Bold"
         xml:space="preserve"><tspan
           y="1028.6693"
           x="24.973145"
           id="tspan3021-13"
           sodipodi:role="line">O</tspan></text>
    </g>
    <g
       transform="translate(2e-5,-308.50002)"
       id="layer1-87"
       inkscape:label="Ebene 1">
      <rect
         y="975.36218"
         x="0"
         height="77"
         width="80"
         id="rect3850-66"
         style="fill:#000000;fill-rule:evenodd;stroke:none" />
      <text
         sodipodi:linespacing="125%"
         id="text3019-01"
         y="1028.6693"
         x="24.973145"
         style="font-size:50px;font-style:normal;font-variant:normal;font-weight:bold;font-stretch:normal;text-align:start;line-height:125%;letter-spacing:0px;word-spacing:0px;writing-mode:lr-tb;text-anchor:start;fill:#ff0000;fill-opacity:1;stroke:none;font-family:Courier New;-inkscape-font-specification:Courier New Bold"
         xml:space="preserve"><tspan
           y="1028.6693"
           x="24.973145"
           id="tspan3021-820"
           sodipodi:role="line">O</tspan></text>
    </g>
    <g
       transform="translate(640.00002,-385.5)"
       id="layer1-79"
       inkscape:label="Ebene 1">
      <rect
         y="975.36218"
         x="0"
         height="77"
         width="80"
         id="rect3850-223"
         style="fill:#000000;fill-rule:evenodd;stroke:none" />
      <text
         sodipodi:linespacing="125%"
         id="text3019-94"
         y="1028.6693"
         x="24.973145"
         style="font-size:50px;font-style:normal;font-variant:normal;font-weight:bold;font-stretch:normal;text-align:start;line-height:125%;letter-spacing:0px;word-spacing:0px;writing-mode:lr-tb;text-anchor:start;fill:#ff0000;fill-opacity:1;stroke:none;font-family:Courier New;-inkscape-font-specification:Courier New Bold"
         xml:space="preserve"><tspan
           y="1028.6693"
           x="24.973145"
           id="tspan3021-99"
           sodipodi:role="line">O</tspan></text>
    </g>
    <g
       transform="translate(879.99999,-462.50002)"
       id="layer1-10"
       inkscape:label="Ebene 1">
      <rect
         y="975.36218"
         x="0"
         height="77"
         width="80"
         id="rect3850-301"
         style="fill:#000000;fill-rule:evenodd;stroke:none" />
      <text
         sodipodi:linespacing="125%"
         id="text3019-07"
         y="1028.6693"
         x="24.973145"
         style="font-size:50px;font-style:normal;font-variant:normal;font-weight:bold;font-stretch:normal;text-align:start;line-height:125%;letter-spacing:0px;word-spacing:0px;writing-mode:lr-tb;text-anchor:start;fill:#ff0000;fill-opacity:1;stroke:none;font-family:Courier New;-inkscape-font-specification:Courier New Bold"
         xml:space="preserve"><tspan
           y="1028.6693"
           x="24.973145"
           id="tspan3021-62"
           sodipodi:role="line">O</tspan></text>
    </g>
    <g
       transform="translate(2e-5,-385.50002)"
       id="layer1-46"
       inkscape:label="Ebene 1">
      <rect
         y="975.36218"
         x="0"
         height="77"
         width="80"
         id="rect3850-61"
         style="fill:#000000;fill-rule:evenodd;stroke:none" />
      <text
         sodipodi:linespacing="125%"
         id="text3019-83"
         y="1028.6693"
         x="24.973145"
         style="font-size:50px;font-style:normal;font-variant:normal;font-weight:bold;font-stretch:normal;text-align:start;line-height:125%;letter-spacing:0px;word-spacing:0px;writing-mode:lr-tb;text-anchor:start;fill:#ff0000;fill-opacity:1;stroke:none;font-family:Courier New;-inkscape-font-specification:Courier New Bold"
         xml:space="preserve"><tspan
           y="1028.6693"
           x="24.973145"
           id="tspan3021-65"
           sodipodi:role="line">O</tspan></text>
    </g>
    <g
       transform="translate(2e-5,-462.50002)"
       id="layer1-689"
       inkscape:label="Ebene 1">
      <rect
         y="975.36218"
         x="0"
         height="77"
         width="80"
         id="rect3850-407"
         style="fill:#000000;fill-rule:evenodd;stroke:none" />
      <text
         sodipodi:linespacing="125%"
         id="text3019-4985"
         y="1028.6693"
         x="24.973145"
         style="font-size:50px;font-style:normal;font-variant:normal;font-weight:bold;font-stretch:normal;text-align:start;line-height:125%;letter-spacing:0px;word-spacing:0px;writing-mode:lr-tb;text-anchor:start;fill:#ff0000;fill-opacity:1;stroke:none;font-family:Courier New;-inkscape-font-specification:Courier New Bold"
         xml:space="preserve"><tspan
           y="1028.6693"
           x="24.973145"
           id="tspan3021-43"
           sodipodi:role="line">O</tspan></text>
    </g>
    <g
       transform="translate(879.99999,-308.50002)"
       id="layer1-443"
       inkscape:label="Ebene 1">
      <rect
         y="975.36218"
         x="0"
         height="77"
         width="80"
         id="rect3850-869"
         style="fill:#000000;fill-rule:evenodd;stroke:none" />
      <text
         sodipodi:linespacing="125%"
         id="text3019-75"
         y="1028.6693"
         x="24.973145"
         style="font-size:50px;font-style:normal;font-variant:normal;font-weight:bold;font-stretch:normal;text-align:start;line-height:125%;letter-spacing:0px;word-spacing:0px;writing-mode:lr-tb;text-anchor:start;fill:#ff0000;fill-opacity:1;stroke:none;font-family:Courier New;-inkscape-font-specification:Courier New Bold"
         xml:space="preserve"><tspan
           y="1028.6693"
           x="24.973145"
           id="tspan3021-24"
           sodipodi:role="line">O</tspan></text>
    </g>
    <g
       transform="translate(160.00002,-308.5)"
       id="layer1-88"
       inkscape:label="Ebene 1">
      <rect
         y="975.36218"
         x="0"
         height="77"
         width="80"
         id="rect3850-067"
         style="fill:#000000;fill-rule:evenodd;stroke:none" />
      <text
         sodipodi:linespacing="125%"
         id="text3019-08"
         y="1028.6693"
         x="24.973145"
         style="font-size:50px;font-style:normal;font-variant:normal;font-weight:bold;font-stretch:normal;text-align:start;line-height:125%;letter-spacing:0px;word-spacing:0px;writing-mode:lr-tb;text-anchor:start;fill:#ff0000;fill-opacity:1;stroke:none;font-family:Courier New;-inkscape-font-specification:Courier New Bold"
         xml:space="preserve"><tspan
           y="1028.6693"
           x="24.973145"
           id="tspan3021-324"
           sodipodi:role="line">O</tspan></text>
    </g>
    <g
       transform="translate(80.00002,-462.50002)"
       id="layer1-24"
       inkscape:label="Ebene 1">
      <rect
         y="975.36218"
         x="0"
         height="77"
         width="80"
         id="rect3850-72"
         style="fill:#000000;fill-rule:evenodd;stroke:none" />
      <text
         sodipodi:linespacing="125%"
         id="text3019-948"
         y="1028.6693"
         x="24.973145"
         style="font-size:50px;font-style:normal;font-variant:normal;font-weight:bold;font-stretch:normal;text-align:start;line-height:125%;letter-spacing:0px;word-spacing:0px;writing-mode:lr-tb;text-anchor:start;fill:#ff0000;fill-opacity:1;stroke:none;font-family:Courier New;-inkscape-font-specification:Courier New Bold"
         xml:space="preserve"><tspan
           y="1028.6693"
           x="24.973145"
           id="tspan3021-23"
           sodipodi:role="line">O</tspan></text>
    </g>
    <g
       transform="translate(799.99999,-308.50002)"
       id="layer1-35"
       inkscape:label="Ebene 1">
      <rect
         y="975.36218"
         x="0"
         height="77"
         width="80"
         id="rect3850-49"
         style="fill:#000000;fill-rule:evenodd;stroke:none" />
      <text
         sodipodi:linespacing="125%"
         id="text3019-530"
         y="1028.6693"
         x="24.973145"
         style="font-size:50px;font-style:normal;font-variant:normal;font-weight:bold;font-stretch:normal;text-align:start;line-height:125%;letter-spacing:0px;word-spacing:0px;writing-mode:lr-tb;text-anchor:start;fill:#ff0000;fill-opacity:1;stroke:none;font-family:Courier New;-inkscape-font-specification:Courier New Bold"
         xml:space="preserve"><tspan
           y="1028.6693"
           x="24.973145"
           id="tspan3021-98"
           sodipodi:role="line">O</tspan></text>
    </g>
    <g
       transform="translate(80.00002,-308.50002)"
       id="layer1-4243"
       inkscape:label="Ebene 1">
      <rect
         y="975.36218"
         x="0"
         height="77"
         width="80"
         id="rect3850-98"
         style="fill:#000000;fill-rule:evenodd;stroke:none" />
      <text
         sodipodi:linespacing="125%"
         id="text3019-05"
         y="1028.6693"
         x="24.973145"
         style="font-size:50px;font-style:normal;font-variant:normal;font-weight:bold;font-stretch:normal;text-align:start;line-height:125%;letter-spacing:0px;word-spacing:0px;writing-mode:lr-tb;text-anchor:start;fill:#ff0000;fill-opacity:1;stroke:none;font-family:Courier New;-inkscape-font-specification:Courier New Bold"
         xml:space="preserve"><tspan
           y="1028.6693"
           x="24.973145"
           id="tspan3021-21"
           sodipodi:role="line">O</tspan></text>
    </g>
    <g
       transform="translate(2e-5,-231.50002)"
       id="layer1-660"
       inkscape:label="Ebene 1">
      <rect
         y="975.36218"
         x="0"
         height="77"
         width="80"
         id="rect3850-42"
         style="fill:#000000;fill-rule:evenodd;stroke:none" />
      <text
         sodipodi:linespacing="125%"
         id="text3019-71"
         y="1028.6693"
         x="24.973145"
         style="font-size:50px;font-style:normal;font-variant:normal;font-weight:bold;font-stretch:normal;text-align:start;line-height:125%;letter-spacing:0px;word-spacing:0px;writing-mode:lr-tb;text-anchor:start;fill:#ff0000;fill-opacity:1;stroke:none;font-family:Courier New;-inkscape-font-specification:Courier New Bold"
         xml:space="preserve"><tspan
           y="1028.6693"
           x="24.973145"
           id="tspan3021-249"
           sodipodi:role="line">O</tspan></text>
    </g>
    <g
       transform="translate(879.99999,-385.50002)"
       id="layer1-884"
       inkscape:label="Ebene 1">
      <rect
         y="975.36218"
         x="0"
         height="77"
         width="80"
         id="rect3850-065"
         style="fill:#000000;fill-rule:evenodd;stroke:none" />
      <text
         sodipodi:linespacing="125%"
         id="text3019-28"
         y="1028.6693"
         x="24.973145"
         style="font-size:50px;font-style:normal;font-variant:normal;font-weight:bold;font-stretch:normal;text-align:start;line-height:125%;letter-spacing:0px;word-spacing:0px;writing-mode:lr-tb;text-anchor:start;fill:#ff0000;fill-opacity:1;stroke:none;font-family:Courier New;-inkscape-font-specification:Courier New Bold"
         xml:space="preserve"><tspan
           y="1028.6693"
           x="24.973145"
           id="tspan3021-12"
           sodipodi:role="line">O</tspan></text>
    </g>
    <g
       transform="translate(799.99999,-385.50002)"
       id="layer1-30"
       inkscape:label="Ebene 1">
      <rect
         y="975.36218"
         x="0"
         height="77"
         width="80"
         id="rect3850-76"
         style="fill:#000000;fill-rule:evenodd;stroke:none" />
      <text
         sodipodi:linespacing="125%"
         id="text3019-00"
         y="1028.6693"
         x="24.973145"
         style="font-size:50px;font-style:normal;font-variant:normal;font-weight:bold;font-stretch:normal;text-align:start;line-height:125%;letter-spacing:0px;word-spacing:0px;writing-mode:lr-tb;text-anchor:start;fill:#ff0000;fill-opacity:1;stroke:none;font-family:Courier New;-inkscape-font-specification:Courier New Bold"
         xml:space="preserve"><tspan
           y="1028.6693"
           x="24.973145"
           id="tspan3021-66"
           sodipodi:role="line">O</tspan></text>
    </g>
    <g
       transform="translate(720.00002,-385.5)"
       id="layer1-351"
       inkscape:label="Ebene 1">
      <rect
         y="975.36218"
         x="0"
         height="77"
         width="80"
         id="rect3850-88"
         style="fill:#000000;fill-rule:evenodd;stroke:none" />
      <text
         sodipodi:linespacing="125%"
         id="text3019-318"
         y="1028.6693"
         x="24.973145"
         style="font-size:50px;font-style:normal;font-variant:normal;font-weight:bold;font-stretch:normal;text-align:start;line-height:125%;letter-spacing:0px;word-spacing:0px;writing-mode:lr-tb;text-anchor:start;fill:#ff0000;fill-opacity:1;stroke:none;font-family:Courier New;-inkscape-font-specification:Courier New Bold"
         xml:space="preserve"><tspan
           y="1028.6693"
           x="24.973145"
           id="tspan3021-40"
           sodipodi:role="line">O</tspan></text>
    </g>
    <g
       transform="translate(799.99999,-231.50002)"
       id="layer1-64"
       inkscape:label="Ebene 1">
      <rect
         y="975.36218"
         x="0"
         height="77"
         width="80"
         id="rect3850-473"
         style="fill:#000000;fill-rule:evenodd;stroke:none" />
      <text
         sodipodi:linespacing="125%"
         id="text3019-085"
         y="1028.6693"
         x="24.973145"
         style="font-size:50px;font-style:normal;font-variant:normal;font-weight:bold;font-stretch:normal;text-align:start;line-height:125%;letter-spacing:0px;word-spacing:0px;writing-mode:lr-tb;text-anchor:start;fill:#ff0000;fill-opacity:1;stroke:none;font-family:Courier New;-inkscape-font-specification:Courier New Bold"
         xml:space="preserve"><tspan
           y="1028.6693"
           x="24.973145"
           id="tspan3021-859"
           sodipodi:role="line">O</tspan></text>
    </g>
    <g
       transform="translate(160.00002,-231.5)"
       id="layer1-989"
       inkscape:label="Ebene 1">
      <rect
         y="975.36218"
         x="0"
         height="77"
         width="80"
         id="rect3850-37"
         style="fill:#000000;fill-rule:evenodd;stroke:none" />
      <text
         sodipodi:linespacing="125%"
         id="text3019-970"
         y="1028.6693"
         x="24.973145"
         style="font-size:50px;font-style:normal;font-variant:normal;font-weight:bold;font-stretch:normal;text-align:start;line-height:125%;letter-spacing:0px;word-spacing:0px;writing-mode:lr-tb;text-anchor:start;fill:#ff0000;fill-opacity:1;stroke:none;font-family:Courier New;-inkscape-font-specification:Courier New Bold"
         xml:space="preserve"><tspan
           y="1028.6693"
           x="24.973145"
           id="tspan3021-319"
           sodipodi:role="line">O</tspan></text>
    </g>
    <g
       transform="translate(240.00002,-308.5)"
       id="layer1-85"
       inkscape:label="Ebene 1">
      <rect
         y="975.36218"
         x="0"
         height="77"
         width="80"
         id="rect3850-26"
         style="fill:#000000;fill-rule:evenodd;stroke:none" />
      <text
         sodipodi:linespacing="125%"
         id="text3019-041"
         y="1028.6693"
         x="24.973145"
         style="font-size:50px;font-style:normal;font-variant:normal;font-weight:bold;font-stretch:normal;text-align:start;line-height:125%;letter-spacing:0px;word-spacing:0px;writing-mode:lr-tb;text-anchor:start;fill:#ff0000;fill-opacity:1;stroke:none;font-family:Courier New;-inkscape-font-specification:Courier New Bold"
         xml:space="preserve"><tspan
           y="1028.6693"
           x="24.973145"
           id="tspan3021-52"
           sodipodi:role="line">O</tspan></text>
    </g>
    <g
       transform="translate(640,-462.50002)"
       id="layer1-51"
       inkscape:label="Ebene 1">
      <rect
         y="975.36218"
         x="0"
         height="77"
         width="80"
         id="rect3850-425"
         style="fill:#000000;fill-rule:evenodd;stroke:none" />
      <text
         sodipodi:linespacing="125%"
         id="text3019-070"
         y="1028.6693"
         x="24.973145"
         style="font-size:50px;font-style:normal;font-variant:normal;font-weight:bold;font-stretch:normal;text-align:start;line-height:125%;letter-spacing:0px;word-spacing:0px;writing-mode:lr-tb;text-anchor:start;fill:#ff0000;fill-opacity:1;stroke:none;font-family:Courier New;-inkscape-font-specification:Courier New Bold"
         xml:space="preserve"><tspan
           y="1028.6693"
           x="24.973145"
           id="tspan3021-19"
           sodipodi:role="line">O</tspan></text>
    </g>
    <g
       transform="translate(240,-462.5)"
       id="layer1-25"
       inkscape:label="Ebene 1">
      <rect
         y="975.36218"
         x="0"
         height="77"
         width="80"
         id="rect3850-618"
         style="fill:#000000;fill-rule:evenodd;stroke:none" />
      <text
         sodipodi:linespacing="125%"
         id="text3019-940"
         y="1028.6693"
         x="24.973145"
         style="font-size:50px;font-style:normal;font-variant:normal;font-weight:bold;font-stretch:normal;text-align:start;line-height:125%;letter-spacing:0px;word-spacing:0px;writing-mode:lr-tb;text-anchor:start;fill:#ff0000;fill-opacity:1;stroke:none;font-family:Courier New;-inkscape-font-specification:Courier New Bold"
         xml:space="preserve"><tspan
           y="1028.6693"
           x="24.973145"
           id="tspan3021-75"
           sodipodi:role="line">O</tspan></text>
    </g>
    <g
       transform="translate(160.00002,-385.5)"
       id="layer1-53"
       inkscape:label="Ebene 1">
      <rect
         y="975.36218"
         x="0"
         height="77"
         width="80"
         id="rect3850-177"
         style="fill:#000000;fill-rule:evenodd;stroke:none" />
      <text
         sodipodi:linespacing="125%"
         id="text3019-15"
         y="1028.6693"
         x="24.973145"
         style="font-size:50px;font-style:normal;font-variant:normal;font-weight:bold;font-stretch:normal;text-align:start;line-height:125%;letter-spacing:0px;word-spacing:0px;writing-mode:lr-tb;text-anchor:start;fill:#ff0000;fill-opacity:1;stroke:none;font-family:Courier New;-inkscape-font-specification:Courier New Bold"
         xml:space="preserve"><tspan
           y="1028.6693"
           x="24.973145"
           id="tspan3021-25"
           sodipodi:role="line">O</tspan></text>
    </g>
    <g
       transform="translate(720.00002,-308.5)"
       id="layer1-641"
       inkscape:label="Ebene 1">
      <rect
         y="975.36218"
         x="0"
         height="77"
         width="80"
         id="rect3850-15"
         style="fill:#000000;fill-rule:evenodd;stroke:none" />
      <text
         sodipodi:linespacing="125%"
         id="text3019-52"
         y="1028.6693"
         x="24.973145"
         style="font-size:50px;font-style:normal;font-variant:normal;font-weight:bold;font-stretch:normal;text-align:start;line-height:125%;letter-spacing:0px;word-spacing:0px;writing-mode:lr-tb;text-anchor:start;fill:#ff0000;fill-opacity:1;stroke:none;font-family:Courier New;-inkscape-font-specification:Courier New Bold"
         xml:space="preserve"><tspan
           y="1028.6693"
           x="24.973145"
           id="tspan3021-51"
           sodipodi:role="line">O</tspan></text>
    </g>
    <g
       transform="translate(799.99999,-462.50002)"
       id="layer1-72"
       inkscape:label="Ebene 1">
      <rect
         y="975.36218"
         x="0"
         height="77"
         width="80"
         id="rect3850-391"
         style="fill:#000000;fill-rule:evenodd;stroke:none" />
      <text
         sodipodi:linespacing="125%"
         id="text3019-803"
         y="1028.6693"
         x="24.973145"
         style="font-size:50px;font-style:normal;font-variant:normal;font-weight:bold;font-stretch:normal;text-align:start;line-height:125%;letter-spacing:0px;word-spacing:0px;writing-mode:lr-tb;text-anchor:start;fill:#ff0000;fill-opacity:1;stroke:none;font-family:Courier New;-inkscape-font-specification:Courier New Bold"
         xml:space="preserve"><tspan
           y="1028.6693"
           x="24.973145"
           id="tspan3021-826"
           sodipodi:role="line">O</tspan></text>
    </g>
    <g
       transform="translate(720.00002,-462.5)"
       id="layer1-926"
       inkscape:label="Ebene 1">
      <rect
         y="975.36218"
         x="0"
         height="77"
         width="80"
         id="rect3850-32"
         style="fill:#000000;fill-rule:evenodd;stroke:none" />
      <text
         sodipodi:linespacing="125%"
         id="text3019-806"
         y="1028.6693"
         x="24.973145"
         style="font-size:50px;font-style:normal;font-variant:normal;font-weight:bold;font-stretch:normal;text-align:start;line-height:125%;letter-spacing:0px;word-spacing:0px;writing-mode:lr-tb;text-anchor:start;fill:#ff0000;fill-opacity:1;stroke:none;font-family:Courier New;-inkscape-font-specification:Courier New Bold"
         xml:space="preserve"><tspan
           y="1028.6693"
           x="24.973145"
           id="tspan3021-73"
           sodipodi:role="line">O</tspan></text>
    </g>
    <g
       transform="translate(2e-5,-77.50002)"
       id="layer1-6417"
       inkscape:label="Ebene 1">
      <rect
         y="975.36218"
         x="0"
         height="77"
         width="80"
         id="rect3850-70"
         style="fill:#000000;fill-rule:evenodd;stroke:none" />
      <text
         sodipodi:linespacing="125%"
         id="text3019-12"
         y="1028.6693"
         x="24.973145"
         style="font-size:50px;font-style:normal;font-variant:normal;font-weight:bold;font-stretch:normal;text-align:start;line-height:125%;letter-spacing:0px;word-spacing:0px;writing-mode:lr-tb;text-anchor:start;fill:#ff0000;fill-opacity:1;stroke:none;font-family:Courier New;-inkscape-font-specification:Courier New Bold"
         xml:space="preserve"><tspan
           y="1028.6693"
           x="24.973145"
           id="tspan3021-201"
           sodipodi:role="line">O</tspan></text>
    </g>
    <g
       transform="translate(879.99999,-154.50002)"
       id="layer1-646"
       inkscape:label="Ebene 1">
      <rect
         y="975.36218"
         x="0"
         height="77"
         width="80"
         id="rect3850-62"
         style="fill:#000000;fill-rule:evenodd;stroke:none" />
      <text
         sodipodi:linespacing="125%"
         id="text3019-323"
         y="1028.6693"
         x="24.973145"
         style="font-size:50px;font-style:normal;font-variant:normal;font-weight:bold;font-stretch:normal;text-align:start;line-height:125%;letter-spacing:0px;word-spacing:0px;writing-mode:lr-tb;text-anchor:start;fill:#ff0000;fill-opacity:1;stroke:none;font-family:Courier New;-inkscape-font-specification:Courier New Bold"
         xml:space="preserve"><tspan
           y="1028.6693"
           x="24.973145"
           id="tspan3021-45"
           sodipodi:role="line">O</tspan></text>
    </g>
    <g
       transform="translate(720.00002,-154.5)"
       id="layer1-27"
       inkscape:label="Ebene 1">
      <rect
         y="975.36218"
         x="0"
         height="77"
         width="80"
         id="rect3850-87"
         style="fill:#000000;fill-rule:evenodd;stroke:none" />
      <text
         sodipodi:linespacing="125%"
         id="text3019-61"
         y="1028.6693"
         x="24.973145"
         style="font-size:50px;font-style:normal;font-variant:normal;font-weight:bold;font-stretch:normal;text-align:start;line-height:125%;letter-spacing:0px;word-spacing:0px;writing-mode:lr-tb;text-anchor:start;fill:#ff0000;fill-opacity:1;stroke:none;font-family:Courier New;-inkscape-font-specification:Courier New Bold"
         xml:space="preserve"><tspan
           y="1028.6693"
           x="24.973145"
           id="tspan3021-009"
           sodipodi:role="line">O</tspan></text>
    </g>
    <g
       transform="translate(160.00002,-154.5)"
       id="layer1-097"
       inkscape:label="Ebene 1">
      <rect
         y="975.36218"
         x="0"
         height="77"
         width="80"
         id="rect3850-660"
         style="fill:#000000;fill-rule:evenodd;stroke:none" />
      <text
         sodipodi:linespacing="125%"
         id="text3019-933"
         y="1028.6693"
         x="24.973145"
         style="font-size:50px;font-style:normal;font-variant:normal;font-weight:bold;font-stretch:normal;text-align:start;line-height:125%;letter-spacing:0px;word-spacing:0px;writing-mode:lr-tb;text-anchor:start;fill:#ff0000;fill-opacity:1;stroke:none;font-family:Courier New;-inkscape-font-specification:Courier New Bold"
         xml:space="preserve"><tspan
           y="1028.6693"
           x="24.973145"
           id="tspan3021-454"
           sodipodi:role="line">O</tspan></text>
    </g>
    <g
       transform="translate(160,-462.5)"
       id="layer1-08"
       inkscape:label="Ebene 1">
      <rect
         y="975.36218"
         x="0"
         height="77"
         width="80"
         id="rect3850-07"
         style="fill:#000000;fill-rule:evenodd;stroke:none" />
      <text
         sodipodi:linespacing="125%"
         id="text3019-63"
         y="1028.6693"
         x="24.973145"
         style="font-size:50px;font-style:normal;font-variant:normal;font-weight:bold;font-stretch:normal;text-align:start;line-height:125%;letter-spacing:0px;word-spacing:0px;writing-mode:lr-tb;text-anchor:start;fill:#ff0000;fill-opacity:1;stroke:none;font-family:Courier New;-inkscape-font-specification:Courier New Bold"
         xml:space="preserve"><tspan
           y="1028.6693"
           x="24.973145"
           id="tspan3021-6"
           sodipodi:role="line">O</tspan></text>
    </g>
  </g>
</svg>
