trialNum;oddDecisionCorrect;duration;orCol;orRow
1;1;23011;2;1
2;0;3255;2;2
3;0;3528;11;2
4;0;9551;11;2
5;0;959;6;4
6;0;1687;6;4
7;0;7354;6;4
8;0;1158;6;3
9;0;6048;11;2
10;0;7994;11;2
11;0;5728;11;2
12;0;1072;5;5
13;0;4817;10;4
14;0;1287;7;2
15;0;7160;7;2
16;0;3600;11;1
17;0;3816;10;3
18;0;9313;4;4
19;0;2647;2;4
20;0;5360;2;4
21;0;3209;11;2
22;0;6778;11;2
23;0;5289;11;2
24;1;4751;9;5
25;0;1155;5;4
26;1;6353;12;4
27;0;9073;12;4
28;0;8968;12;4
29;0;3463;9;6
30;0;2344;4;3
31;0;1128;7;2
32;0;9896;7;2
33;0;3352;12;2
34;0;6825;12;2
35;0;5472;12;2
36;0;5217;6;6
37;0;3191;1;3
38;0;1680;3;6
39;0;7745;3;6
40;0;6016;3;6
41;0;6433;3;6
42;0;5735;3;6
43;0;6000;3;6
44;0;8420;6;4
45;0;8344;6;4
46;0;2296;2;4
47;0;2680;1;4
48;0;14273;1;4
49;0;6048;1;4
50;0;2478;3;2
51;0;2183;2;2
52;0;8585;2;2
53;0;3888;2;2
54;0;4368;2;2
55;0;5768;2;2
56;0;3464;1;4
57;0;6105;1;4
58;0;4344;1;4
59;0;2728;10;3
60;0;5433;10;3
61;0;5976;10;2
62;0;6761;10;2
63;0;7519;10;2
64;0;4801;10;3
65;0;2336;3;3
66;0;3095;12;4
67;0;5697;12;4
68;0;1647;7;5
69;0;999;7;6
70;0;5543;7;6
