trialNum;oddDecisionCorrect;duration;orCol;orRow
1;0;224831;9;5
2;1;6320;6;5
3;0;8807;12;2
4;0;9613;12;2
5;1;9121;6;2
6;0;18105;5;2
7;0;15825;5;2
8;0;16873;5;2
9;0;11041;10;1
10;0;17785;10;1
11;0;21170;10;1
12;0;19768;10;1
13;0;12425;6;6
14;0;12601;6;6
15;1;13096;6;6
16;0;13633;9;4
17;0;13954;5;1
18;0;15257;5;1
19;0;12489;5;1
20;0;13514;5;1
21;0;9833;10;4
22;0;11534;10;4
23;0;13953;6;6
24;0;14465;6;6
25;0;7920;9;3
26;0;7465;12;2
27;0;8968;12;2
28;0;3639;4;3
29;0;8114;4;3
30;0;8504;8;6
31;0;6359;10;5
32;0;6649;11;7
33;0;2064;4;4
34;0;7721;4;4
35;0;7657;6;4
36;0;8385;6;4
37;0;8839;6;4
38;0;8888;6;4
39;0;7992;6;4
40;0;9441;6;4
41;0;6136;5;1
42;0;8625;5;1
43;0;9449;5;1
44;0;5120;11;3
45;0;1768;4;3
46;0;1456;3;7
47;0;5392;3;7
48;0;6657;3;7
49;0;1767;2;4
50;0;5913;2;4
51;0;5447;2;4
52;0;8322;2;4
53;0;4192;9;7
54;0;7384;5;3
55;0;6320;7;6
56;0;4377;12;3
57;0;3376;2;7
58;0;1424;4;1
59;0;5881;4;1
60;0;3128;9;1
61;0;4952;9;1
62;0;1287;3;2
63;0;7289;3;2
64;0;6473;3;2
65;0;2983;10;6
66;0;3975;10;2
67;0;9104;10;2
68;0;7216;10;2
69;0;1432;4;4
70;0;1327;2;3
