trialNum;oddDecisionCorrect;duration;orCol;orRow
1;0;27475;;
2;1;3182;5;2
3;0;1831;2;3
4;0;3691;2;3
5;0;2281;12;5
6;0;2768;12;5
7;0;2899;12;5
8;0;2973;12;5
9;0;3072;12;5
10;0;1857;9;4
11;1;3016;5;4
12;0;1318;4;6
13;0;3569;4;6
14;0;1638;2;1
15;1;4231;6;4
16;0;1656;4;4
17;1;4527;8;5
18;0;1463;2;5
19;0;3120;2;5
20;0;1985;12;2
21;0;2927;12;2
22;0;3692;12;2
23;0;1471;2;4
24;1;2848;7;3
25;0;1557;3;3
26;0;2233;11;2
27;0;1408;2;4
28;0;2871;2;4
29;0;2944;2;4
30;0;2589;2;4
31;0;2648;2;4
32;0;1487;9;2
33;0;1480;9;6
34;0;2377;9;6
35;0;1543;4;2
36;0;1936;4;5
37;0;2648;4;5
38;0;2133;11;5
39;0;2143;11;5
40;0;2200;11;5
41;1;3721;7;6
42;0;2592;7;6
43;1;1768;6;4
44;1;2787;5;4
45;0;3223;5;4
46;1;4472;6;4
47;0;5393;6;4
48;0;1239;4;4
49;0;2328;4;4
50;1;3880;7;4
51;1;4680;6;4
52;0;4473;6;4
53;1;3544;6;7
54;1;5625;5;2
55;0;4321;5;2
56;0;1295;3;2
57;0;1847;11;3
58;0;2631;10;5
59;0;4840;10;5
60;0;2305;10;5
61;0;1912;12;1
62;0;2767;12;1
63;0;2319;12;1
64;0;2630;12;1
65;0;1504;3;2
66;1;2736;8;3
67;0;1600;10;3
68;0;3648;10;3
69;0;2527;10;3
70;0;1448;10;3
