trialNum;oddDecisionCorrect;duration;orCol;orRow
1;0;337404;9;4
2;0;4343;1;3
3;0;4968;1;3
4;0;4720;1;3
5;0;2920;1;5
6;0;3263;12;3
7;0;3905;12;3
8;0;3070;12;3
9;1;3320;9;1
10;0;3592;9;1
11;0;4208;9;1
12;0;2998;3;2
13;0;3808;3;2
14;0;3841;12;2
15;0;3263;12;2
16;0;3543;12;2
17;0;4355;12;2
18;0;3487;12;2
19;0;1551;7;5
20;0;3425;7;5
21;0;823;7;4
22;0;3090;10;6
23;0;2728;10;6
24;0;760;7;5
25;0;3855;7;5
26;0;2248;10;3
27;0;2856;10;3
28;1;4031;5;2
29;0;3352;5;2
30;0;3249;5;2
31;0;2784;5;2
32;0;2540;4;3
33;0;3457;4;3
34;0;2905;10;3
35;0;1911;12;3
36;0;2961;12;3
37;0;2816;12;4
38;0;4712;12;4
39;0;3767;12;4
40;0;774;7;3
41;0;2648;1;5
42;0;3328;1;5
43;0;3929;9;3
44;0;4079;9;3
45;0;2152;10;6
46;0;4153;10;6
47;0;2063;11;6
48;0;4472;11;6
49;0;5169;11;6
50;0;4351;11;6
51;1;3647;10;3
52;0;5463;10;3
53;0;4480;10;3
54;0;4704;10;3
55;0;712;6;3
56;0;4985;6;3
57;0;3583;1;5
58;0;4048;1;5
59;0;2009;2;4
60;0;4008;2;4
61;0;4128;2;4
62;0;1025;7;1
63;0;3568;7;1
64;0;2599;4;1
65;0;4697;4;1
