trialNum;oddDecisionCorrect;duration;orCol;orRow
1;0;14394;;
2;0;1599;3;4
3;0;1943;4;7
4;0;2185;10;2
5;0;3193;10;2
6;0;3336;10;2
7;0;2983;10;2
8;0;2419;10;2
9;0;2487;10;2
10;0;1824;1;1
11;0;2040;6;3
12;0;3456;6;3
13;0;3919;6;3
14;0;2006;1;7
15;0;2800;1;7
16;0;2391;1;7
17;0;2913;1;7
18;0;2759;1;7
19;0;3871;6;1
20;0;2151;1;4
21;0;3135;1;4
22;0;4136;1;4
23;0;3368;10;3
24;0;2648;10;3
25;0;3367;10;3
26;0;3808;10;3
27;0;3577;10;3
28;0;3192;10;3
29;0;3031;10;3
30;0;2223;4;2
31;0;3568;4;2
32;0;2128;4;2
33;0;2255;4;2
34;1;1934;11;1
35;0;3000;11;1
36;0;2240;11;1
37;0;1943;9;3
38;0;2200;9;2
39;0;3343;9;2
40;0;3897;10;6
41;0;3591;10;6
42;0;3280;10;6
43;0;2864;12;6
44;0;2919;12;6
45;0;2913;12;6
46;0;2337;9;5
47;0;3495;9;5
48;0;2072;9;3
49;0;2024;8;1
50;0;2688;8;1
51;0;2129;9;1
52;1;1071;6;4
53;0;3312;4;3
54;0;2897;4;3
55;1;2536;1;4
56;0;3298;1;4
57;0;3665;11;5
58;0;2551;7;2
59;1;3056;10;7
60;0;4737;2;3
61;0;3016;2;3
62;0;4055;2;3
63;0;3479;2;3
64;0;2840;2;3
65;0;2520;2;3
66;0;4073;2;3
67;0;2936;2;3
68;0;1391;4;5
69;0;4176;4;5
70;0;3432;4;5
