trialNum;oddDecisionCorrect;duration;orCol;orRow
1;1;5562;11;7
2;0;2492;11;7
3;0;1999;11;7
4;0;2401;2;7
5;0;1639;1;4
6;1;2912;12;5
7;0;2319;1;2
8;0;2265;1;2
9;0;2367;10;4
10;0;1432;1;4
11;0;1280;10;6
12;0;3033;10;6
13;0;2624;1;6
14;0;2327;7;1
15;0;1446;3;2
16;0;2745;3;2
17;0;2279;5;6
18;0;1310;5;1
19;0;1760;2;3
20;0;3665;2;3
21;0;1279;4;6
22;0;3530;4;6
23;0;4281;4;6
24;0;3352;4;6
25;0;2816;4;6
26;0;2385;11;3
27;0;1495;6;3
28;0;2832;6;3
29;0;952;7;4
30;0;992;4;1
31;0;969;7;4
32;0;2807;7;4
33;0;2791;2;5
34;0;2858;2;5
35;0;1023;6;3
36;0;1183;2;3
37;0;2824;2;3
38;0;2592;2;3
39;0;1200;3;5
40;0;1752;7;3
41;0;1087;7;2
42;0;2334;1;5
43;0;1719;9;2
44;0;3457;10;7
45;0;1128;4;1
46;0;1536;10;5
47;0;4591;10;5
48;0;3959;10;5
49;0;3145;10;5
50;0;3640;10;5
51;0;2799;10;5
52;0;1015;6;4
53;0;3247;6;4
54;0;2360;6;4
55;0;2480;6;4
56;0;1071;8;2
57;0;1944;4;4
58;0;1136;8;4
59;0;2968;8;4
60;0;3352;8;4
61;0;3183;8;4
62;0;1351;4;7
63;0;1160;3;4
64;0;3193;3;4
65;0;4920;3;4
