trialNum;oddDecisionCorrect;duration;orCol;orRow
1;1;11381;;
2;0;4116;;
3;0;2823;;
4;0;1449;10;2
5;0;3495;10;2
6;0;1183;11;2
7;0;2623;11;2
8;0;1046;6;6
9;0;3455;6;6
10;0;2560;6;6
11;0;950;6;4
12;0;2871;6;4
13;0;999;6;1
14;0;1888;2;6
15;0;3792;2;6
16;0;816;5;3
17;0;2352;5;3
18;0;3464;5;3
19;0;1504;9;6
20;0;1256;3;4
21;0;2632;3;4
22;0;3595;3;4
23;0;903;4;3
24;0;3320;4;3
25;0;1056;10;6
26;0;2857;10;6
27;0;1176;8;6
28;0;960;6;6
29;0;1792;8;7
30;0;3465;8;7
31;0;4136;8;7
32;0;1127;4;4
33;0;1328;11;7
34;0;4001;11;7
35;0;1927;2;3
36;0;3776;2;3
37;0;847;6;5
38;0;3616;6;5
39;0;3304;10;3
40;0;960;7;4
41;0;3599;7;4
42;0;2631;7;4
43;0;904;6;6
44;0;1071;10;6
45;0;2296;10;6
46;0;4807;12;3
47;0;6049;12;3
48;0;3479;12;3
49;0;1728;9;1
50;0;1472;7;2
51;0;2937;5;6
52;0;1415;7;3
53;0;1919;2;7
54;0;1448;3;3
55;0;2704;3;3
56;0;4239;3;3
57;0;2111;3;3
58;0;1375;12;4
59;0;3289;12;4
60;0;992;7;6
61;0;3176;7;6
62;0;1471;10;1
63;0;2065;10;1
64;0;2400;10;1
65;0;1472;2;2
