trialNum;oddDecisionCorrect;duration;orCol;orRow
1;0;1228;6;4
2;0;1934;6;4
3;0;1559;6;4
4;0;997;11;4
5;0;1316;11;4
6;0;2202;11;4
7;0;1061;3;2
8;0;1152;3;2
9;0;1320;3;2
10;0;1672;3;2
11;0;1826;3;2
12;0;1095;1;7
13;0;1383;2;6
14;0;2015;2;6
15;0;967;9;6
16;0;968;6;4
17;0;1999;6;4
18;0;1856;6;4
19;0;1607;6;4
20;0;952;4;4
21;0;1529;4;4
22;0;1705;2;4
23;0;1576;9;2
24;0;2272;9;2
25;0;2208;9;2
26;0;848;3;2
27;0;1839;3;2
28;0;799;2;4
29;0;935;2;4
30;0;975;3;3
31;0;1441;10;3
32;0;1599;10;3
33;0;2016;10;3
34;0;1449;1;1
35;0;1712;11;4
36;0;1031;11;4
37;0;1776;11;4
38;0;2127;11;4
39;0;1007;7;6
40;0;1031;7;6
41;0;982;10;2
42;0;1183;2;5
43;0;1695;2;5
44;0;1029;9;7
45;0;1160;9;7
46;0;1600;9;7
47;0;1552;9;7
48;0;840;8;4
49;0;1248;10;6
50;0;1055;9;4
51;0;1136;9;4
52;0;1696;9;4
53;0;1400;9;4
54;0;1272;7;6
55;0;1024;7;6
56;0;1038;4;3
57;0;1615;4;3
58;0;895;7;3
59;0;887;9;5
60;0;1223;9;5
61;0;2055;6;2
62;0;1376;4;6
63;0;1768;4;6
64;0;1352;8;6
65;0;1864;8;6
66;0;1441;8;6
67;0;1080;8;6
68;0;863;3;4
69;0;1377;3;4
70;0;1928;3;4
