trialNum;oddDecisionCorrect;duration;orCol;orRow
1;0;134961;5;2
2;0;8417;5;2
3;0;2689;3;4
4;0;1438;7;7
5;1;3377;7;7
6;0;1551;6;2
7;0;4135;6;2
8;0;4750;6;2
9;0;3191;6;2
10;0;2351;6;2
11;0;2840;1;5
12;0;4878;1;5
13;0;927;6;3
14;0;3961;6;3
15;0;3463;6;3
16;0;4280;6;3
17;0;5201;6;3
18;0;1624;8;2
19;0;1105;7;2
20;0;4823;7;2
21;0;1328;5;5
22;0;5156;5;5
23;0;2448;1;7
24;0;3193;2;6
25;0;3479;2;6
26;0;2656;2;6
27;0;5456;2;6
28;0;2408;10;2
29;0;6305;10;2
30;0;2807;2;3
31;0;1392;2;5
32;0;2953;11;5
33;0;823;6;2
34;0;4256;6;2
35;0;3280;6;2
36;0;768;6;2
37;0;2528;10;1
38;0;4329;10;1
39;0;2864;2;2
40;1;5920;5;3
41;0;1958;3;5
42;0;6712;3;5
43;0;4703;3;5
44;0;6776;3;5
45;0;792;6;3
46;1;6464;7;6
47;0;6424;7;6
48;0;3592;4;5
49;0;871;5;7
50;0;9192;5;7
51;0;840;5;3
52;0;5872;5;3
53;1;3953;11;1
54;0;3816;3;2
55;0;3072;10;2
56;0;9872;10;2
57;0;1344;8;5
58;0;944;7;6
59;0;800;6;3
60;0;6089;6;3
61;0;792;7;4
62;0;5800;7;4
63;0;2223;2;6
64;0;5632;2;6
65;1;5329;9;7
