trialNum;oddDecisionCorrect;duration;orCol;orRow
1;0;5274;;
2;0;1391;5;3
3;1;1496;4;1
4;0;1571;4;1
5;0;1255;4;1
6;0;1055;3;3
7;0;1046;3;3
8;0;1327;3;3
9;0;1583;3;7
10;0;1327;3;7
11;0;975;7;3
12;0;1272;7;3
13;0;1256;7;3
14;0;1401;2;4
15;0;1264;2;4
16;0;1223;2;4
17;0;1048;11;2
18;0;1383;5;3
19;0;953;3;2
20;0;1319;3;2
21;0;1239;3;2
22;0;1450;3;2
23;0;1719;3;2
24;0;1328;4;4
25;0;1376;9;4
26;0;1543;2;7
27;0;2031;2;7
28;0;1296;10;6
29;0;2880;10;6
30;0;1335;7;2
31;0;1071;3;2
32;0;1288;3;2
33;0;1536;4;6
34;0;1352;4;6
35;0;1415;4;6
36;0;1111;10;6
37;0;1216;4;1
38;0;1255;4;1
39;0;1239;4;1
40;0;1040;4;5
41;0;1264;4;5
42;0;1103;3;3
43;0;1704;3;3
44;0;1582;3;3
45;0;1441;3;3
46;0;1248;9;6
47;0;1399;3;7
48;0;1615;3;2
49;1;2207;12;3
50;0;1217;12;3
51;0;1088;6;5
52;0;1256;6;5
53;0;1384;6;5
54;0;1671;6;5
55;0;1104;6;3
56;0;1447;6;3
57;0;2023;6;3
58;0;1184;6;3
59;0;1295;4;7
60;0;1550;11;7
61;0;928;7;3
62;0;2175;7;3
63;0;1975;7;3
64;0;1376;3;4
65;0;1743;3;4
66;0;1640;2;1
67;0;1863;2;1
68;0;1088;7;7
69;0;2563;7;6
70;0;1344;9;3
