trialNum;oddDecisionCorrect;duration;orCol;orRow
1;0;228151;6;7
2;0;3535;6;7
3;0;2919;12;6
4;0;3441;6;1
5;0;3087;6;1
6;0;6480;6;1
7;0;2111;10;6
8;0;3223;2;1
9;0;6402;2;1
10;0;1007;7;4
11;0;4056;7;4
12;0;3255;7;4
13;0;3606;7;4
14;0;4366;7;4
15;0;1856;3;6
16;1;2135;5;6
17;0;2297;1;1
18;0;2760;1;1
19;0;4264;1;1
20;0;3136;1;1
21;0;3231;9;6
22;0;2911;9;6
23;0;2431;9;6
24;0;1815;11;4
25;0;3064;11;4
26;0;3512;11;4
27;0;3057;11;4
28;0;3048;4;6
29;0;3176;4;6
30;0;4151;4;6
31;0;2688;11;1
32;0;3402;9;3
33;1;2104;6;6
34;0;1136;6;6
35;0;4312;6;6
36;0;4064;6;6
37;0;3712;6;6
38;0;4481;6;6
39;0;1455;4;5
40;0;5383;4;5
41;0;2057;4;6
42;0;3960;4;6
43;1;5321;7;7
44;0;1659;2;4
45;0;3616;2;4
46;0;1671;2;6
47;0;3983;2;6
48;0;2800;9;1
49;0;4816;9;1
50;0;2903;3;3
51;0;2848;3;3
52;0;4873;3;3
53;0;2048;11;4
54;0;2991;4;3
55;0;2928;4;3
56;0;3687;4;3
57;0;2840;11;5
58;0;1880;9;5
59;0;1583;3;6
60;0;2136;3;6
61;0;3799;3;6
62;0;1904;3;5
63;0;2751;3;5
64;0;4496;3;5
65;0;2762;3;5
66;0;2630;3;5
67;0;3928;4;4
68;0;3633;4;4
69;0;3904;4;4
70;0;1895;2;4
