trialNum;oddDecisionCorrect;duration;orCol;orRow
1;0;12140;2;3
2;0;1950;7;1
3;0;2719;7;1
4;0;1291;6;7
5;0;2664;6;7
6;0;1041;2;5
7;0;2440;2;5
8;0;2176;2;5
9;0;1503;11;6
10;0;2192;11;6
11;0;1449;11;6
12;0;1127;9;2
13;0;1319;11;2
14;0;2023;3;3
15;0;3216;3;3
16;0;1048;11;4
17;0;2792;11;4
18;0;3832;11;4
19;0;1399;10;2
20;0;2062;10;2
21;0;3392;10;2
22;0;1314;4;4
23;0;1176;2;3
24;0;4006;2;3
25;0;2967;2;3
26;0;1136;6;3
27;0;2247;6;3
28;0;1615;6;3
29;0;2112;6;3
30;0;928;7;6
31;0;1250;11;3
32;0;1648;5;4
33;0;1872;5;4
34;0;1128;3;2
35;0;1079;5;1
36;0;2055;5;1
37;0;2959;5;1
38;0;1222;8;6
39;0;1200;3;5
40;0;3600;3;5
41;0;1624;3;5
42;0;1783;3;5
43;0;1431;2;6
44;0;2192;2;6
45;0;1159;9;4
46;0;1758;1;6
47;0;920;5;5
48;0;4200;5;5
49;0;1285;9;6
50;0;934;8;6
51;0;1503;2;6
52;0;1510;2;6
53;0;1041;10;3
54;0;1279;4;4
55;0;759;8;6
56;0;1264;8;6
57;0;1200;10;5
58;0;1528;10;5
59;0;1807;10;5
60;0;2008;10;5
61;0;1175;7;3
62;0;2000;7;3
63;0;1639;7;3
64;0;1720;2;1
65;0;2393;2;1
66;0;2088;2;1
67;0;2544;2;1
68;0;1000;8;5
69;0;1536;12;4
70;0;920;4;7
