trialNum;isGoImageDisplayed;decisionCorrect
1;0;1
2;0;1
3;0;1
4;0;1
5;0;1
6;0;1
7;0;1
8;0;1
9;0;0
10;0;0
11;0;1
12;0;1
13;0;1
14;0;1
15;1;0
16;0;1
17;0;1
18;0;1
19;0;1
20;0;0
21;0;1
22;0;1
23;0;1
24;0;1
25;0;1
26;0;1
27;0;1
28;0;1
29;0;1
30;0;1
31;0;1
32;0;1
33;0;1
34;1;0
35;0;0
36;0;1
37;0;0
38;0;1
39;0;1
40;0;0
41;1;0
42;0;1
43;0;1
44;0;1
45;1;0
46;0;1
47;0;1
48;0;1
49;0;1
50;0;0
51;0;1
52;0;1
53;0;1
54;0;1
55;0;1
56;0;1
57;0;1
58;0;1
59;1;0
60;0;1
61;0;1
62;0;1
63;0;1
64;0;1
65;0;1
66;0;1
67;1;0
68;0;1
69;0;1
70;0;1
