trialNum;oddDecisionCorrect;duration;orCol;orRow
1;0;197123;1;3
2;0;1240;6;4
3;1;2528;3;6
4;1;2413;10;6
5;0;2678;10;6
6;0;3023;10;6
7;0;4149;10;6
8;0;1007;3;3
9;0;2312;3;3
10;0;2520;3;3
11;1;2432;6;7
12;0;2391;6;7
13;0;2824;6;7
14;1;1985;5;5
15;0;1102;1;5
16;0;2991;9;4
17;0;2641;9;4
18;1;2617;9;4
19;0;1975;9;4
20;0;2576;9;4
21;0;1879;9;4
22;0;1051;2;4
23;0;1863;2;4
24;1;2496;9;7
25;0;4112;9;7
26;0;2408;10;3
27;1;1824;9;6
28;0;3231;9;6
29;0;2407;9;6
30;0;3760;9;6
31;0;2352;5;4
32;0;2623;10;1
33;0;3263;10;1
34;0;1417;10;6
35;0;2632;10;6
36;1;1864;10;6
37;1;3199;4;2
38;0;1072;6;3
39;1;2616;12;3
40;0;2935;2;5
41;1;5366;2;5
42;0;4424;2;5
43;0;3736;2;5
44;0;1260;6;3
45;0;2248;6;3
46;0;1359;9;3
47;1;9769;1;7
48;0;3056;9;6
49;0;2896;9;6
50;0;2687;5;6
51;0;3696;5;6
52;1;3664;4;3
53;0;2529;4;3
54;0;2448;5;6
55;0;1896;5;6
56;0;2631;5;6
57;0;976;8;5
58;0;2224;10;6
59;0;2975;11;2
60;1;2800;6;1
61;1;2591;2;3
62;0;3096;2;4
63;0;3320;2;4
64;0;2552;2;4
65;0;3375;2;4
