trialNum;oddDecisionCorrect;duration;orCol;orRow
1;1;9158;5;4
2;0;2287;10;4
3;0;4168;10;4
4;0;4451;10;4
5;0;2656;3;5
6;0;3983;3;5
7;0;3349;3;5
8;0;1287;8;1
9;0;4840;8;1
10;0;934;6;2
11;0;5495;6;2
12;0;4719;6;2
13;0;1151;8;7
14;0;4816;8;7
15;0;3408;8;7
16;0;2335;11;5
17;0;4122;11;5
18;0;4775;11;5
19;0;1160;6;1
20;0;5017;6;1
21;0;4280;6;1
22;0;1011;4;3
23;0;1223;8;5
24;0;7297;8;5
25;0;4384;8;5
26;0;2266;3;5
27;0;1432;10;5
28;0;5440;10;5
29;0;3369;1;2
30;0;4305;1;2
31;0;6977;1;2
32;0;3408;2;6
33;0;1136;9;6
34;0;2936;6;2
35;0;5191;6;2
36;0;4905;6;2
37;0;1119;3;2
38;0;944;4;4
39;0;4808;4;4
40;0;7010;4;4
41;0;983;7;3
42;0;5824;7;3
43;0;1625;11;5
44;0;950;10;5
45;0;1424;6;2
46;0;4288;6;2
47;0;4295;6;2
48;0;3783;6;2
49;0;3662;6;2
50;0;952;5;7
51;0;4809;5;7
52;0;1006;4;7
53;0;1817;7;3
54;0;1992;11;1
55;0;3584;11;1
56;0;1262;8;6
57;0;1056;8;4
58;0;1335;6;4
59;0;5369;6;4
60;0;5040;6;4
61;0;1455;2;5
62;0;1154;9;5
63;0;2848;4;1
64;0;4760;4;1
65;0;4766;4;1
