trialNum;oddDecisionCorrect;duration;orCol;orRow
1;0;2514;-1;-1
2;0;2926;-1;-1
3;0;928;6;5
4;0;1939;-1;-1
5;0;1983;-1;-1
6;0;1239;6;2
7;0;2279;-1;-1
8;0;1448;3;2
9;0;836;6;4
10;0;1040;6;5
11;0;879;7;4
12;0;1680;-1;-1
13;0;2271;-1;-1
14;0;1654;-1;-1
15;0;1952;-1;-1
16;0;1783;-1;-1
17;0;1840;-1;-1
18;0;1504;6;1
19;0;2167;-1;-1
20;0;952;4;5
21;0;1968;-1;-1
22;0;1419;-1;-1
23;0;1567;-1;-1
24;0;1751;-1;-1
25;0;1783;-1;-1
26;0;1408;3;1
27;0;1656;2;3
28;0;1927;10;5
29;0;2824;-1;-1
30;0;2063;-1;-1
31;0;2217;-1;-1
32;0;2184;-1;-1
33;1;2111;12;1
34;0;1338;1;4
35;0;983;9;5
36;0;2385;11;1
37;0;3231;-1;-1
38;0;2281;-1;-1
39;0;3000;-1;-1
40;0;2576;-1;-1
41;0;2343;-1;-1
42;0;2006;-1;-1
43;0;978;4;2
44;0;2103;-1;-1
45;0;999;3;3
46;0;1407;3;2
47;0;2833;-1;-1
48;0;1440;9;7
49;0;1024;4;3
50;0;3343;-1;-1
51;0;2544;3;4
52;0;999;7;2
53;0;1047;7;3
54;0;2664;-1;-1
55;0;2544;-1;-1
56;0;1056;6;6
57;0;2233;-1;-1
58;0;1801;-1;-1
59;0;2256;-1;-1
60;0;2463;-1;-1
61;0;960;8;5
62;0;2575;-1;-1
63;0;967;8;2
64;0;1055;6;6
65;0;920;6;7
66;0;2224;-1;-1
67;0;2272;-1;-1
68;0;912;9;5
69;0;831;9;2
70;0;2400;10;6
