trialNum;oddDecisionCorrect;duration;orCol;orRow
1;0;11257;;
2;0;950;;
3;1;1223;6;3
4;0;965;10;3
5;0;1639;5;4
6;0;1552;5;4
7;1;1327;7;5
8;1;2366;7;5
9;0;1047;11;3
10;0;1239;11;3
11;0;1391;7;6
12;0;1599;11;5
13;0;742;10;6
14;1;2296;7;3
15;0;1039;10;2
16;0;945;3;4
17;0;3649;3;4
18;0;1992;7;2
19;1;2232;6;3
20;1;1992;6;3
21;0;3800;6;3
22;0;1419;6;3
23;0;1496;2;6
24;0;831;9;6
25;1;2871;7;2
26;0;2000;7;6
27;0;2223;7;6
28;0;1927;7;6
29;0;1904;2;3
30;0;856;10;5
31;0;1305;10;5
32;0;1216;9;3
33;1;1456;7;2
34;1;1904;7;2
35;0;2280;7;2
36;0;2191;7;2
37;0;3424;7;6
38;0;2391;7;6
39;0;1225;3;5
40;0;1583;3;5
41;1;1896;8;2
42;0;2088;6;5
43;0;2048;4;7
44;0;807;10;2
45;0;752;11;3
46;0;2544;11;3
47;0;2240;11;3
48;0;1318;7;2
49;0;1976;7;2
50;0;1631;7;2
51;0;1591;4;2
52;0;1399;2;3
53;0;2529;2;3
54;0;985;4;6
55;0;799;9;2
56;0;1920;9;2
57;1;3152;6;7
58;0;1048;4;4
59;0;1641;6;6
60;0;1048;3;2
61;0;2256;3;2
62;0;1647;3;2
63;0;888;3;6
64;0;1471;5;4
65;0;982;4;7
66;0;2318;4;7
67;0;1519;1;3
68;1;1519;6;2
69;0;2169;6;2
70;0;1424;4;6
