trialNum;oddDecisionCorrect;duration;orCol;orRow
1;0;9770;;
2;0;1455;;
3;0;1128;7;2
4;0;1060;9;4
5;0;1632;9;4
6;0;1103;3;2
7;0;1390;3;2
8;0;1713;3;2
9;0;1303;3;2
10;0;2023;3;2
11;0;807;8;4
12;0;1280;8;4
13;0;1647;8;4
14;0;1511;8;4
15;0;1191;11;3
16;0;1223;11;2
17;0;1194;4;5
18;0;1103;4;5
19;0;1048;2;5
20;0;1032;9;2
21;0;1460;1;2
22;0;1066;1;4
23;0;1191;11;3
24;0;1279;1;7
25;0;2287;1;7
26;0;1888;1;7
27;0;1479;1;7
28;0;1248;1;7
29;0;1951;1;7
30;0;847;9;3
31;0;1343;9;3
32;0;1152;9;3
33;0;992;9;4
34;0;1298;3;7
35;0;1375;3;7
36;0;992;11;2
37;0;1152;11;3
38;0;1328;11;3
39;0;1096;4;5
40;0;2409;3;2
41;0;1039;7;3
42;1;1543;12;2
43;0;1383;12;2
44;0;2174;12;2
45;0;1521;12;2
46;0;799;2;3
47;0;1504;12;4
48;0;1000;10;2
49;0;1232;10;2
50;0;1774;10;2
51;0;1025;5;3
52;0;1175;4;5
53;0;1024;7;3
54;0;1128;10;2
55;0;959;4;2
56;0;1199;9;3
57;0;1408;9;3
58;0;1023;2;6
59;0;1631;11;1
60;0;1319;11;4
61;0;2064;11;4
62;0;1129;11;1
63;0;1352;11;1
64;0;1624;11;6
65;0;912;6;3
66;0;1702;6;3
67;0;1825;6;3
68;0;1654;6;3
69;0;783;6;3
70;0;1271;6;3
