trialNum;oddDecisionCorrect;duration;orCol;orRow
1;1;27160;;
2;0;2688;2;7
3;0;4128;2;7
4;1;2499;2;3
5;0;1422;2;5
6;0;3848;2;5
7;0;3145;2;5
8;0;2581;2;4
9;0;4224;2;4
10;0;2729;2;4
11;0;2687;2;4
12;0;2399;2;4
13;0;2488;2;4
14;0;1496;10;2
15;1;2783;11;5
16;0;3696;11;5
17;0;4014;11;5
18;0;1312;3;5
19;0;2287;6;2
20;0;1184;12;7
21;1;4079;12;4
22;0;1698;3;2
23;0;2752;3;2
24;0;2928;3;2
25;0;2152;3;2
26;0;2408;3;2
27;0;2687;3;2
28;0;991;5;4
29;0;2273;5;4
30;0;1688;11;3
31;0;1152;10;3
32;0;3889;10;3
33;0;2352;10;3
34;0;952;9;2
35;0;1312;8;4
36;0;3033;8;4
37;0;3336;8;4
38;0;3058;8;4
39;0;1615;12;5
40;0;1071;9;4
41;0;2296;9;4
42;0;1592;9;4
43;0;1888;9;4
44;1;4935;9;4
45;0;1952;9;4
46;0;3151;9;4
47;0;1231;5;5
48;0;2446;9;4
49;0;1256;7;1
50;0;1669;8;5
51;0;832;6;3
52;0;3570;6;3
53;0;2895;6;3
54;0;1120;12;7
55;0;903;6;3
56;0;1151;7;2
57;0;1560;8;6
58;0;1800;10;1
59;0;3840;10;1
60;0;1968;10;1
61;0;1544;10;1
62;0;2960;10;1
63;0;1239;8;5
64;0;1384;9;6
65;0;1160;4;7
66;0;879;7;5
67;0;3263;7;5
68;0;1992;7;5
69;0;1039;9;3
70;0;2360;9;3
