trialNum;oddDecisionCorrect;duration;orCol;orRow
1;0;2236;-1;-1
2;0;1151;10;4
3;0;1062;7;5
4;0;1826;-1;-1
5;0;1934;-1;-1
6;0;1761;-1;-1
7;0;847;10;5
8;0;1487;-1;-1
9;0;1904;-1;-1
10;0;1143;3;7
11;0;1793;-1;-1
12;0;2943;-1;-1
13;0;1927;-1;-1
14;0;1656;-1;-1
15;0;1095;2;1
16;0;1040;3;3
17;0;2066;-1;-1
18;0;1624;-1;-1
19;0;1552;-1;-1
20;1;1519;3;2
21;0;999;4;4
22;0;2613;-1;-1
23;0;1039;6;2
24;0;2224;-1;-1
25;0;2239;-1;-1
26;0;1848;6;7
27;0;967;4;6
28;0;1824;-1;-1
29;0;1568;11;5
30;0;1993;-1;-1
31;0;983;3;4
32;0;943;6;4
33;0;1871;11;3
34;0;1511;3;6
35;0;1999;-1;-1
36;0;1606;1;2
37;0;863;6;4
38;0;1681;-1;-1
39;0;1711;-1;-1
40;0;1224;10;6
41;0;1080;3;4
42;0;1487;-1;-1
43;0;911;10;4
44;0;1813;-1;-1
45;0;2552;2;1
46;0;1712;3;7
47;0;2256;-1;-1
48;0;1352;4;2
49;0;976;1;4
50;0;2418;-1;-1
51;0;1816;-1;-1
52;0;1000;7;3
53;1;1335;3;2
54;0;2799;-1;-1
55;0;1831;-1;-1
56;0;2042;7;7
57;0;1512;11;5
58;0;2663;-1;-1
59;0;1376;7;5
60;0;1820;12;2
61;0;2544;-1;-1
62;0;3119;-1;-1
63;0;1551;11;5
64;0;2679;-1;-1
65;0;2720;-1;-1
66;0;1375;8;5
67;0;1944;-1;-1
68;0;944;3;3
69;0;965;8;5
70;0;1063;11;4
