trialNum;oddDecisionCorrect;duration;orCol;orRow
1;1;4471;2;7
2;0;1647;11;4
3;1;1495;2;1
4;0;1822;10;6
5;1;1312;9;2
6;0;1881;9;1
7;0;767;6;6
8;0;1935;9;7
9;0;1664;9;7
10;0;1439;9;6
11;1;1840;6;2
12;0;999;7;5
13;0;1736;11;7
14;0;1592;11;7
15;0;1911;6;6
16;0;1440;2;4
17;0;1873;2;4
18;0;648;6;4
19;0;1953;6;4
20;0;1760;6;4
21;0;2224;6;4
22;1;2049;12;6
23;0;1503;12;4
24;0;1608;12;4
25;0;2401;2;1
26;0;1879;11;2
27;0;1464;11;2
28;0;967;6;6
29;0;1761;6;6
30;0;823;6;4
31;0;1944;4;7
32;0;2096;4;7
33;0;2168;4;7
34;0;1754;10;5
35;0;711;6;5
36;0;1959;9;2
37;0;1335;9;2
38;0;2319;9;2
39;0;1569;9;2
40;0;2639;2;1
41;0;912;7;1
42;0;1663;7;1
43;0;1822;7;1
44;0;1439;10;6
45;0;1457;10;6
46;1;1431;2;4
47;0;1696;10;3
48;0;1680;10;4
49;0;1816;10;4
50;0;1864;10;4
51;1;2480;6;2
52;0;871;6;3
53;0;703;7;5
54;0;1928;9;1
55;0;2031;9;1
56;0;1631;4;4
57;1;1544;1;2
58;0;2856;1;2
59;0;2071;1;2
60;1;1752;1;1
61;0;2271;1;1
62;1;1672;11;6
63;0;2510;11;6
64;0;1801;11;6
65;0;2078;11;6
66;0;2089;11;6
67;0;1663;11;6
68;0;1775;11;6
69;0;1135;8;3
70;0;1352;10;5
