trialNum;oddDecisionCorrect;duration;orCol;orRow
1;0;3355;;
2;0;1301;;
3;0;1031;11;7
4;0;979;10;6
5;1;1224;2;4
6;0;1167;3;1
7;0;1118;2;6
8;0;1479;11;4
9;0;1599;11;4
10;0;1367;11;4
11;0;927;7;6
12;0;1400;7;6
13;0;824;10;5
14;0;1232;6;5
15;0;1384;6;5
16;0;1264;6;5
17;0;1168;3;2
18;1;1594;12;2
19;0;968;7;5
20;0;983;2;4
21;0;1039;4;3
22;0;867;9;3
23;0;1727;9;3
24;0;895;9;6
25;0;983;3;2
26;0;911;3;4
27;0;1503;12;6
28;0;904;7;2
29;0;839;11;3
30;0;1424;4;4
31;0;2360;4;4
32;0;1312;8;4
33;0;647;8;4
34;0;1424;8;4
35;0;1511;8;4
36;0;848;6;3
37;0;903;3;6
38;0;2072;3;6
39;0;1295;3;6
40;0;823;6;5
41;0;1398;6;5
42;0;831;5;3
43;0;1599;12;3
44;0;1909;12;3
45;0;863;3;2
46;0;1136;12;6
47;0;1624;9;1
48;0;1201;9;1
49;0;1080;1;3
50;0;830;7;3
51;0;1767;7;3
52;0;864;9;7
53;0;1487;9;7
54;0;998;9;7
55;0;968;4;2
56;0;783;7;7
57;0;1056;7;7
58;0;1280;7;7
59;0;1472;7;7
60;0;856;7;7
61;0;1312;7;7
62;0;727;6;7
63;0;1232;1;5
64;0;1057;1;5
65;0;976;1;5
66;0;1047;1;5
67;0;1157;1;5
68;0;658;6;3
69;0;848;4;6
70;0;991;4;6
