trialNum;oddDecisionCorrect;duration;orCol;orRow
1;0;92238;7;3
2;0;1719;2;6
3;0;1399;10;2
4;0;2513;10;2
5;0;1808;10;2
6;0;1607;10;2
7;0;1264;2;7
8;0;1423;2;7
9;0;1231;1;5
10;0;1127;1;5
11;0;1343;1;5
12;0;1583;1;5
13;0;1239;10;5
14;0;1592;10;5
15;0;1905;2;6
16;0;1048;12;3
17;0;1545;12;3
18;0;1663;12;3
19;0;1199;10;2
20;0;1207;10;2
21;0;1183;3;5
22;0;1190;3;5
23;0;1432;3;5
24;0;1464;3;5
25;0;1368;3;5
26;0;1353;8;7
27;0;1159;8;7
28;0;1431;8;7
29;0;1559;8;7
30;0;1447;8;7
31;0;1390;8;7
32;0;1536;8;7
33;0;1152;8;6
34;0;1095;7;6
35;0;1367;7;6
36;0;1503;7;6
37;0;1135;3;5
38;0;1095;2;4
39;0;1647;10;1
40;0;1607;2;2
41;0;1453;2;2
42;0;2096;7;6
43;0;1831;7;6
44;0;1037;7;6
45;0;1265;7;6
46;0;1303;7;6
47;0;1231;9;7
48;0;1112;11;7
49;0;1208;11;7
50;0;1232;11;7
51;0;1864;11;7
52;0;1158;10;2
53;0;1136;3;2
54;0;1199;3;2
55;0;1120;3;2
56;0;1118;6;5
57;0;1039;6;4
58;0;1175;2;4
59;0;1535;2;4
60;0;999;8;2
61;0;1329;5;5
62;0;1192;1;5
63;1;1191;1;5
64;0;1823;4;1
65;0;1288;4;1
66;0;1480;5;4
67;0;1911;11;7
68;0;1472;11;7
69;0;1304;11;7
70;0;1136;4;3
