trialNum;oddDecisionCorrect;duration;orCol;orRow
1;0;9449;3;3
2;0;1758;12;2
3;1;1760;6;5
4;0;1368;11;6
5;0;2260;11;6
6;0;1440;8;3
7;0;2031;8;3
8;0;2232;8;3
9;1;2391;10;1
10;0;977;11;6
11;0;2000;6;6
12;0;1319;7;5
13;0;2817;7;5
14;0;1543;2;7
15;0;2143;2;7
16;0;1287;12;6
17;0;2864;12;6
18;1;1175;12;6
19;0;1151;10;3
20;0;2311;10;3
21;0;1502;10;3
22;0;1563;4;4
23;0;1936;8;6
24;0;1303;2;1
25;0;952;10;5
26;0;2120;10;5
27;0;2041;10;5
28;0;2154;5;3
29;0;1321;2;5
30;0;870;10;6
31;0;1488;10;6
32;0;1239;10;6
33;0;1646;8;4
34;0;1672;11;4
35;0;848;6;7
36;0;855;10;3
37;0;887;10;7
38;0;2281;5;4
39;0;1008;3;6
40;0;1160;7;6
41;0;1912;7;6
42;0;1208;3;4
43;0;1392;3;4
44;0;872;9;3
45;0;1392;1;6
46;0;2031;1;6
47;0;1199;6;7
48;0;1759;6;7
49;0;1528;6;7
50;0;783;6;4
51;0;1568;6;4
52;0;1799;6;4
53;0;1016;6;4
54;1;760;6;4
55;0;2881;6;4
56;0;1552;6;4
57;1;2119;5;5
58;0;2431;5;5
59;0;1920;5;5
60;1;1926;8;5
61;0;799;6;3
62;0;887;4;4
63;0;999;11;2
64;0;2216;11;2
65;0;1248;1;2
66;0;1630;1;2
67;0;1223;11;7
68;0;1416;2;2
69;0;944;6;6
70;1;1456;6;3
