trialNum;oddDecisionCorrect;duration;orCol;orRow
1;1;25184;4;4
2;0;1125;6;3
3;0;1713;6;3
4;0;1624;6;3
5;0;1679;6;3
6;0;2146;6;3
7;0;1296;6;3
8;0;1653;6;3
9;0;2152;6;3
10;1;1401;7;6
11;0;3016;7;6
12;1;1863;10;4
13;0;2592;10;4
14;0;1231;9;4
15;0;1665;9;4
16;0;1151;2;7
17;0;1591;2;7
18;1;2072;8;2
19;1;2232;10;3
20;0;2385;10;3
21;0;1031;4;5
22;0;2043;4;3
23;0;3127;4;3
24;0;2639;4;3
25;1;1647;3;2
26;0;1599;11;5
27;0;1415;11;5
28;1;1696;12;7
29;0;1304;2;7
30;1;2120;9;7
31;0;2840;9;7
32;0;895;6;4
33;0;1001;10;4
34;0;2113;10;4
35;0;1288;10;4
36;0;1079;5;3
37;1;1511;6;1
38;0;1641;6;1
39;0;1624;6;1
40;0;1703;12;2
41;1;1231;10;1
42;0;3023;10;1
43;0;1208;3;4
44;0;1337;3;4
45;0;1479;3;4
46;0;1144;3;4
47;0;1328;3;4
48;1;2048;6;1
49;0;2447;6;1
50;0;981;5;6
51;0;1544;5;6
52;1;2624;10;1
53;0;1464;10;1
54;1;3080;11;2
55;0;2919;11;2
56;0;1160;10;3
57;1;1912;7;6
58;0;1455;4;2
59;1;1991;5;1
60;0;3152;1;3
61;0;1838;1;3
62;0;2368;1;3
63;0;1184;2;4
64;0;2144;2;4
65;0;1775;2;6
66;0;1648;2;6
67;1;2447;9;1
68;0;2960;9;1
69;1;2257;12;4
70;0;1617;4;3
