trialNum;oddDecisionCorrect;duration;orCol;orRow
1;0;12939;;
2;0;1358;;
3;0;2176;;
4;0;940;6;2
5;1;1743;9;7
6;0;1195;9;7
7;0;1575;9;7
8;0;1575;10;2
9;0;1647;10;2
10;0;1975;10;2
11;1;2144;12;6
12;0;3631;12;6
13;0;2936;12;6
14;0;1007;6;5
15;0;1574;5;1
16;0;1815;5;1
17;0;2712;3;5
18;0;1343;2;2
19;0;1376;1;6
20;0;2688;1;6
21;0;3024;1;6
22;0;3256;1;6
23;1;1935;7;2
24;0;1656;9;2
25;0;2216;9;2
26;0;1833;9;2
27;0;1512;2;2
28;0;3713;2;2
29;0;2136;2;2
30;0;3169;2;2
31;0;3792;2;2
32;0;3048;2;2
33;0;1537;4;6
34;1;2552;6;2
35;0;3359;4;1
36;0;2144;4;1
37;0;1520;1;2
38;0;1959;6;7
39;0;2288;6;7
40;0;959;5;6
41;0;1575;5;6
42;0;2023;5;6
43;0;1999;5;6
44;0;3231;5;6
45;0;2247;5;6
46;0;1856;1;7
47;1;1583;9;2
48;0;1567;9;2
49;1;1454;11;6
50;0;1448;12;5
51;0;1552;12;5
52;0;1176;1;6
53;0;1272;3;2
54;0;2156;3;2
55;0;1511;3;2
56;1;2119;9;3
57;0;2048;9;3
58;0;1880;9;3
59;0;1255;11;4
60;0;1776;11;4
61;0;951;7;5
62;0;1455;2;3
63;0;2344;5;6
64;1;2288;8;2
65;0;3137;8;2
