trialNum;oddDecisionCorrect;duration;orCol;orRow
1;0;133425;;
2;0;3296;;
3;0;1472;8;5
4;0;3077;2;6
5;0;3057;2;6
6;0;2719;2;6
7;0;3946;2;6
8;0;4271;2;6
9;0;3320;2;6
10;0;2464;9;6
11;0;944;7;4
12;0;1862;9;5
13;0;2883;9;5
14;0;2136;9;5
15;0;1951;9;5
16;0;2504;9;5
17;0;2289;9;5
18;0;1712;2;6
19;0;2088;11;4
20;0;1151;8;3
21;0;1007;5;2
22;0;2640;5;2
23;1;2143;4;4
24;0;2120;10;5
25;0;1968;10;5
26;0;2399;10;5
27;0;768;6;5
28;0;2640;6;5
29;0;3112;6;5
30;0;1712;7;5
31;0;2240;11;3
32;0;1303;10;3
33;0;792;7;6
34;0;1882;4;3
35;0;1255;6;7
36;0;1913;9;5
37;0;1839;3;7
38;1;2927;3;7
39;0;2959;3;7
40;1;1656;3;4
41;0;4016;7;2
42;0;1512;6;4
43;0;943;6;2
44;0;1833;9;7
45;0;744;7;3
46;0;2111;7;3
47;0;1631;9;2
48;0;1926;4;5
49;0;663;6;6
50;0;2000;6;6
51;0;2888;6;6
52;0;1833;6;6
53;0;2816;6;6
54;0;1823;11;6
55;0;759;6;4
56;0;2120;6;4
57;0;1407;9;7
58;0;2472;9;7
59;0;1720;1;4
60;0;2856;1;4
61;0;1767;9;5
62;0;2320;9;5
63;0;1808;9;5
64;0;2232;10;7
65;0;1951;9;4
