trialNum;isGoImageDisplayed;decisionCorrect
1;0;0
2;1;0
3;0;0
4;0;1
5;0;1
6;0;1
7;1;0
8;0;1
9;0;1
10;0;0
11;0;1
12;0;1
13;0;1
14;0;1
15;0;1
16;0;1
17;0;1
18;0;1
19;1;0
20;0;1
21;0;1
22;0;1
23;0;1
24;0;1
25;0;1
26;0;1
27;0;1
28;0;1
29;0;1
30;1;0
31;0;1
32;0;1
33;0;1
34;0;1
35;0;1
36;0;1
37;0;1
38;0;1
39;0;1
40;0;1
41;0;1
42;0;0
43;0;0
44;0;1
45;1;0
46;0;1
47;0;1
48;0;1
49;1;0
50;0;1
51;0;1
52;0;1
53;0;1
54;0;1
55;1;0
56;0;1
57;0;0
58;0;0
59;0;1
60;0;0
61;1;0
62;0;1
63;0;1
64;0;0
65;0;1
