trialNum;oddDecisionCorrect;duration;orCol;orRow
1;0;38746;2;2
2;0;7182;2;2
3;0;4873;2;2
4;0;4748;2;2
5;0;4246;2;7
6;0;4810;2;7
7;0;2128;7;6
8;0;4801;7;6
9;0;2448;11;6
10;0;7600;11;6
11;0;999;2;4
12;1;5065;10;6
13;1;1863;1;2
14;0;11387;1;2
15;0;8630;1;2
16;0;2951;2;3
17;0;2031;3;5
18;0;1201;7;3
19;0;8904;7;3
20;0;943;6;5
21;0;14945;6;5
22;0;7344;6;5
23;0;2944;7;2
24;0;6648;7;2
25;0;1575;6;1
26;0;1749;9;5
27;0;1127;6;2
28;0;1231;9;4
29;0;14477;9;4
30;0;1815;2;6
31;0;4744;5;7
32;0;8977;5;7
33;0;1335;6;3
34;0;1489;9;6
35;0;4817;11;2
36;0;1544;10;5
37;0;1095;9;3
38;0;1144;9;3
39;0;1663;5;5
40;0;10208;5;5
41;0;871;6;4
42;0;1464;4;4
43;0;1544;2;6
44;0;1743;6;5
45;0;11354;6;5
46;0;880;7;4
47;0;1232;6;5
48;0;9424;6;5
49;0;4456;6;5
50;0;5871;6;5
51;0;983;7;3
52;0;5680;7;3
53;0;5305;7;3
54;0;1279;5;1
55;0;1600;5;3
56;0;2840;5;1
57;0;2593;4;7
58;0;2087;10;5
59;0;1063;10;2
60;0;8129;10;2
61;0;1904;10;2
62;0;6697;10;2
63;0;1024;7;5
64;0;6648;7;5
65;0;1112;7;3
