trialNum;oddDecisionCorrect;duration;orCol;orRow
1;0;7963;;
2;0;1798;;
3;0;1438;;
4;0;1358;1;5
5;0;1976;1;5
6;0;1952;1;5
7;0;735;7;4
8;0;1911;7;4
9;0;1999;7;4
10;0;1439;7;4
11;0;1800;7;4
12;0;2704;9;6
13;0;1768;9;6
14;0;2288;9;6
15;0;1320;3;3
16;0;1535;9;3
17;0;4257;9;3
18;0;831;6;2
19;0;2265;6;2
20;0;888;7;7
21;1;1263;2;2
22;0;2235;12;5
23;0;1823;9;3
24;0;785;7;4
25;0;696;6;6
26;0;1864;6;6
27;0;1168;8;2
28;0;927;6;3
29;0;2528;6;3
30;0;1399;3;4
31;0;944;8;1
32;0;784;7;4
33;0;632;7;6
34;0;2217;7;6
35;0;2224;7;6
36;0;1287;2;5
37;0;2423;2;5
38;0;735;7;4
39;0;2344;7;4
40;0;2153;7;4
41;0;1719;10;3
42;0;3016;10;3
43;0;1721;9;5
44;0;1807;9;5
45;0;2248;9;5
46;0;2560;11;2
47;0;703;6;4
48;0;2255;6;4
49;0;719;6;2
50;0;1328;9;4
51;0;2976;9;4
52;0;2063;11;7
53;0;2201;11;7
54;0;1767;11;7
55;0;1888;11;7
56;0;3072;11;1
57;0;2192;11;1
58;0;807;7;5
59;0;1831;7;5
60;0;711;6;6
61;0;2263;6;6
62;0;2545;6;6
63;0;672;7;2
64;0;1960;7;2
65;0;808;7;2
