trialNum;oddDecisionCorrect;duration;orCol;orRow
1;0;14832;;
2;0;4077;;
3;0;5720;4;3
4;1;2785;2;1
5;0;3089;2;1
6;1;2425;8;5
7;1;11282;3;5
8;1;3063;2;7
9;0;3902;2;7
10;0;2833;2;7
11;1;2864;9;2
12;0;3409;9;2
13;0;3056;9;2
14;0;2744;9;2
15;0;3335;9;2
16;0;2312;9;6
17;1;2382;6;6
18;1;3304;7;5
19;0;1504;11;2
20;1;2912;6;3
21;0;4024;4;2
22;0;3010;4;2
23;0;3577;4;2
24;0;3719;1;4
25;1;3887;4;1
26;1;4001;2;3
27;0;3944;2;3
28;0;3495;2;3
29;0;3993;2;3
30;0;4744;2;3
31;0;2823;1;6
32;0;3960;1;6
33;0;2792;1;6
34;0;3280;1;6
35;0;3233;1;6
36;0;3135;1;6
37;0;2272;1;5
38;1;2953;8;4
39;0;3422;8;4
40;0;1350;11;6
41;0;3136;11;6
42;0;3271;11;6
43;1;2735;6;2
44;0;3671;10;7
45;0;2728;10;3
46;1;3512;2;1
47;1;3712;7;4
48;1;6464;7;6
49;0;4009;7;6
50;1;4567;2;4
51;0;3832;2;4
52;0;897;11;3
53;1;2503;7;6
54;1;6359;2;4
55;0;4646;2;4
56;1;2719;7;2
57;0;967;12;3
58;0;2143;12;3
59;1;2728;7;7
60;0;3744;7;7
61;0;3191;4;7
62;0;4336;4;7
63;1;3568;5;1
64;0;2512;3;5
65;0;4280;4;4
