trialNum;isGoImageDisplayed;decisionCorrect
1;0;1
2;0;1
3;0;0
4;0;1
5;1;0
6;0;1
7;0;1
8;0;1
9;0;1
10;1;0
11;0;1
12;0;1
13;1;0
14;0;0
15;0;1
16;0;1
17;0;1
18;0;1
19;0;0
20;0;0
21;0;1
22;0;1
23;0;1
24;0;1
25;1;0
26;0;1
27;0;1
28;0;1
29;1;1
30;0;1
31;0;1
32;0;1
33;0;1
34;0;1
35;0;1
36;0;1
37;1;0
38;0;1
39;0;1
40;0;1
41;0;1
42;1;0
43;0;1
44;0;1
45;1;0
46;0;1
47;0;1
48;0;0
49;0;1
50;0;1
51;0;1
52;0;1
53;0;1
54;0;1
55;0;1
56;0;1
57;0;1
58;0;1
59;0;1
60;0;1
61;0;1
62;0;1
63;0;1
64;0;1
65;0;1
66;0;0
67;0;1
68;0;0
69;0;1
70;0;1
