trialNum;oddDecisionCorrect;duration;orCol;orRow
1;0;48387;4;5
2;0;5902;10;4
3;1;5305;10;2
4;0;10893;10;2
5;0;1103;8;3
6;0;856;7;3
7;0;1191;5;6
8;0;984;7;3
9;0;6233;1;2
10;0;5368;10;2
11;0;1135;6;4
12;0;807;5;2
13;0;3760;5;2
14;0;4705;11;6
15;0;3768;11;6
16;0;2575;2;3
17;1;5823;11;4
18;0;4081;11;4
19;0;7288;11;4
20;0;4184;11;4
21;0;999;6;6
22;1;6554;3;6
23;0;3486;3;6
24;0;4665;3;6
25;0;839;7;3
26;0;3695;7;3
27;1;4416;10;7
28;0;1415;6;2
29;0;3287;11;3
30;0;4464;11;3
31;0;3752;11;3
32;0;4032;11;3
33;0;4168;11;3
34;0;6361;11;3
35;0;3737;12;6
36;1;3799;10;2
37;0;5463;10;2
38;0;5424;10;2
39;0;7705;10;2
40;1;3911;3;5
41;0;3567;12;6
42;0;5417;12;6
43;0;6601;12;6
44;0;6062;12;6
45;0;5032;12;6
46;0;3968;12;6
47;0;3912;12;6
48;0;3127;12;6
49;0;3624;12;6
50;0;822;6;4
51;0;656;7;7
52;0;927;6;4
53;1;5176;11;4
54;0;5639;11;4
55;0;5345;11;4
56;0;5423;11;4
57;1;3888;10;6
58;0;9136;10;6
59;0;7183;9;4
60;0;5768;9;4
61;0;6248;9;4
62;0;872;8;3
63;0;6624;8;3
64;0;4960;8;3
65;1;5041;1;7
66;0;8704;1;7
67;0;1774;5;1
68;1;4631;3;5
69;1;6105;4;6
70;1;7144;3;7
