trialNum;oddDecisionCorrect;duration;orCol;orRow
1;0;10762;11;2
2;0;3588;11;2
3;0;2551;11;2
4;0;2306;10;5
5;0;2464;10;5
6;0;1896;10;5
7;0;2519;10;5
8;0;2096;2;5
9;0;3144;10;7
10;0;3272;10;7
11;0;2753;10;7
12;0;2527;1;4
13;0;2559;10;4
14;0;3345;10;4
15;0;943;6;3
16;0;3335;6;3
17;0;903;8;3
18;0;2104;1;4
19;0;1470;2;4
20;0;1863;2;5
21;0;1886;2;5
22;0;1835;2;4
23;0;5329;2;4
24;0;1815;4;6
25;0;3359;4;6
26;0;2119;1;6
27;0;2833;1;6
28;0;2183;4;1
29;1;3023;5;6
30;0;3400;5;6
31;0;2024;5;6
32;0;823;7;6
33;0;2808;7;6
34;0;1496;12;2
35;1;2071;5;2
36;0;3737;5;2
37;0;2136;5;2
38;0;1216;8;1
39;0;4343;8;1
40;0;3024;1;3
41;0;3624;1;3
42;0;3392;1;3
43;0;4721;1;3
44;0;2427;1;3
45;0;1577;10;5
46;0;3999;10;5
47;0;1823;9;3
48;0;815;7;5
49;0;1184;6;4
50;0;1975;9;6
51;0;2008;4;6
52;0;3784;4;6
53;0;3760;4;6
54;0;2985;4;6
55;0;2080;4;6
56;0;3311;12;5
57;0;3441;12;5
58;0;4424;12;5
59;0;2320;11;2
60;0;3776;11;2
61;1;2576;10;7
62;0;1968;10;6
63;0;4313;10;6
64;0;5007;10;6
65;0;6865;10;6
