trialNum;isGoImageDisplayed;decisionCorrect
1;0;0
2;0;1
3;0;0
4;0;1
5;0;1
6;1;1
7;0;1
8;0;1
9;1;0
10;0;1
11;0;0
12;0;1
13;1;0
14;0;1
15;0;1
16;0;1
17;0;1
18;0;1
19;0;1
20;0;1
21;0;1
22;0;1
23;0;1
24;0;1
25;1;0
26;0;1
27;0;1
28;0;1
29;0;1
30;0;1
31;0;1
32;0;0
33;0;0
34;0;1
35;0;1
36;0;1
37;0;1
38;1;0
39;0;1
40;0;1
41;0;1
42;0;1
43;0;1
44;0;1
45;0;1
46;0;1
47;0;1
48;0;1
49;0;1
50;0;1
51;0;1
52;0;1
53;0;1
54;0;1
55;1;1
56;0;1
57;0;1
58;0;0
59;1;1
60;0;1
61;0;0
62;0;1
63;0;1
64;0;1
65;0;1
66;0;1
67;0;1
68;0;1
69;0;0
70;0;1
