trialNum;oddDecisionCorrect;duration;orCol;orRow
1;1;5538;11;2
2;0;4982;-1;-1
3;0;2951;4;6
4;0;5291;-1;-1
5;0;2119;4;2
6;0;3406;1;5
7;0;2311;11;3
8;0;4102;-1;-1
9;0;2688;-1;-1
10;0;3024;1;3
11;0;3167;-1;-1
12;0;3046;-1;-1
13;0;3131;-1;-1
14;0;960;8;2
15;0;5503;-1;-1
16;0;3992;-1;-1
17;0;3409;-1;-1
18;0;4169;-1;-1
19;0;2632;-1;-1
20;0;4704;-1;-1
21;0;3697;-1;-1
22;0;3937;-1;-1
23;0;2375;6;4
24;0;1167;7;5
25;0;3551;2;5
26;0;3919;10;5
27;0;4793;1;3
28;0;5076;-1;-1
29;0;3809;-1;-1
30;0;3087;-1;-1
31;0;1159;7;6
32;0;2359;7;6
33;0;865;8;5
34;0;1080;7;6
35;0;936;6;5
36;0;4263;-1;-1
37;0;3889;-1;-1
38;0;2319;10;5
39;0;4056;-1;-1
40;0;3120;3;4
41;0;7424;-1;-1
42;0;8649;-1;-1
43;0;2968;-1;-1
44;0;4065;-1;-1
45;0;3753;-1;-1
46;0;1926;11;6
47;0;4168;-1;-1
48;0;864;7;2
49;0;3497;-1;-1
50;0;912;7;1
51;0;824;6;3
52;0;2911;3;5
53;0;3456;-1;-1
54;0;5016;-1;-1
55;0;712;6;3
56;0;1943;10;4
57;0;6495;-1;-1
58;0;4312;-1;-1
59;0;2584;11;2
60;0;3480;-1;-1
61;0;2904;-1;-1
62;0;2528;4;6
63;0;3352;-1;-1
64;1;2617;11;2
65;0;2344;1;5
66;0;4351;-1;-1
67;0;856;6;3
68;0;4288;-1;-1
69;0;2183;4;4
70;0;2457;2;6
