trialNum;oddDecisionCorrect;duration;orCol;orRow
1;0;50176;-1;-1
2;0;8481;-1;-1
3;0;2639;1;1
4;1;3696;7;4
5;1;5927;10;6
6;0;5403;-1;-1
7;0;2487;-1;-1
8;1;1408;7;3
9;1;5641;-1;-1
10;1;8001;11;1
11;0;1952;9;2
12;1;1880;-1;-1
13;1;13384;10;2
14;1;5872;-1;-1
15;0;8014;10;6
16;0;6121;-1;-1
17;0;3943;10;4
18;0;7824;-1;-1
19;0;8808;-1;-1
20;0;2839;7;4
21;0;4856;1;6
22;0;9340;-1;-1
23;1;7480;-1;-1
24;0;6881;-1;-1
25;0;1759;6;2
26;0;5128;8;7
27;0;6041;-1;-1
28;0;9729;1;2
29;0;2080;7;2
30;0;1560;9;1
31;0;1540;2;4
32;0;6497;-1;-1
33;0;7936;-1;-1
34;0;8600;-1;-1
35;0;14457;-1;-1
36;0;9122;10;7
37;0;7023;-1;-1
38;0;1169;9;4
39;0;6559;-1;-1
40;0;2992;4;5
41;0;4976;-1;-1
42;0;4849;-1;-1
43;0;1239;5;3
44;0;1600;10;2
45;0;1232;7;4
46;0;4841;1;5
47;0;2551;8;6
48;0;9408;-1;-1
49;0;1127;9;5
50;0;7935;-1;-1
51;0;4784;-1;-1
52;0;4897;-1;-1
53;0;1895;6;2
54;0;5328;-1;-1
55;0;1143;3;3
56;0;4488;-1;-1
57;0;959;9;4
58;0;8137;-1;-1
59;0;3423;-1;-1
60;0;3360;11;6
61;0;4910;-1;-1
62;0;5105;-1;-1
63;0;3615;-1;-1
64;0;2736;-1;-1
65;0;2745;-1;-1
66;1;3926;4;5
67;0;1152;4;4
68;1;1424;7;5
69;0;1968;10;3
70;0;4904;-1;-1
