<?xml version="1.0" encoding="UTF-8" standalone="no"?>
<!-- Created with Inkscape (http://www.inkscape.org/) -->

<svg
   xmlns:dc="http://purl.org/dc/elements/1.1/"
   xmlns:cc="http://creativecommons.org/ns#"
   xmlns:rdf="http://www.w3.org/1999/02/22-rdf-syntax-ns#"
   xmlns:svg="http://www.w3.org/2000/svg"
   xmlns="http://www.w3.org/2000/svg"
   xmlns:sodipodi="http://sodipodi.sourceforge.net/DTD/sodipodi-0.dtd"
   xmlns:inkscape="http://www.inkscape.org/namespaces/inkscape"
   width="960"
   height="540"
   id="svg2"
   version="1.1"
   inkscape:version="0.48.5 r10040"
   sodipodi:docname="1_4.png">
  <defs
     id="defs4">
    <linearGradient
       id="linearGradient3896">
      <stop
         style="stop-color:#000000;stop-opacity:1;"
         offset="0"
         id="stop3898" />
      <stop
         style="stop-color:#000000;stop-opacity:0;"
         offset="1"
         id="stop3900" />
    </linearGradient>
  </defs>
  <sodipodi:namedview
     id="base"
     pagecolor="#ffffff"
     bordercolor="#666666"
     borderopacity="1.0"
     inkscape:pageopacity="1"
     inkscape:pageshadow="2"
     inkscape:zoom="0.49497475"
     inkscape:cx="462.00665"
     inkscape:cy="377.95031"
     inkscape:document-units="px"
     inkscape:current-layer="layer1"
     showgrid="false"
     inkscape:window-width="1089"
     inkscape:window-height="722"
     inkscape:window-x="0"
     inkscape:window-y="3"
     inkscape:window-maximized="0"
     inkscape:showpageshadow="false"
     showborder="true"
     units="px"
     showguides="true"
     inkscape:guide-bbox="true" />
  <metadata
     id="metadata7">
    <rdf:RDF>
      <cc:Work
         rdf:about="">
        <dc:format>image/svg+xml</dc:format>
        <dc:type
           rdf:resource="http://purl.org/dc/dcmitype/StillImage" />
        <dc:title></dc:title>
      </cc:Work>
    </rdf:RDF>
  </metadata>
  <g
     inkscape:label="Ebene 1"
     inkscape:groupmode="layer"
     id="layer1"
     transform="translate(0,-512.3627)">
    <rect
       style="fill:#000000;fill-rule:evenodd;stroke:none"
       id="rect5013"
       width="960"
       height="540"
       x="0"
       y="512.36267" />
    <g
       transform="translate(0,-467.39951)"
       id="layer1-4"
       inkscape:label="Ebene 1">
      <rect
         y="979.76221"
         x="0"
         height="72.599998"
         width="72.599998"
         id="rect3850-0"
         style="fill:#000000;fill-rule:evenodd;stroke:none" />
      <text
         sodipodi:linespacing="125%"
         id="text3019-8"
         y="1045.6764"
         x="6.2462883"
         style="font-size:100px;font-style:normal;font-variant:normal;font-weight:bold;font-stretch:normal;text-align:start;line-height:125%;letter-spacing:0px;word-spacing:0px;writing-mode:lr-tb;text-anchor:start;fill:#ff0000;fill-opacity:1;stroke:none;font-family:Courier New;-inkscape-font-specification:Courier New Bold"
         xml:space="preserve"><tspan
           y="1045.6764"
           x="6.2462883"
           id="tspan3021-5"
           sodipodi:role="line">O</tspan></text>
    </g>
    <g
       transform="translate(709.92,-467.39951)"
       id="layer1-8"
       inkscape:label="Ebene 1">
      <rect
         y="979.76221"
         x="0"
         height="72.599998"
         width="72.599998"
         id="rect3850-7"
         style="fill:#000000;fill-rule:evenodd;stroke:none" />
      <text
         sodipodi:linespacing="125%"
         id="text3019-2"
         y="1045.6764"
         x="6.2462883"
         style="font-size:100px;font-style:normal;font-variant:normal;font-weight:bold;font-stretch:normal;text-align:start;line-height:125%;letter-spacing:0px;word-spacing:0px;writing-mode:lr-tb;text-anchor:start;fill:#ff0000;fill-opacity:1;stroke:none;font-family:Courier New;-inkscape-font-specification:Courier New Bold"
         xml:space="preserve"><tspan
           y="1045.6764"
           x="6.2462883"
           id="tspan3021-7"
           sodipodi:role="line">O</tspan></text>
    </g>
    <g
       transform="translate(887.4,-467.39951)"
       id="layer1-5"
       inkscape:label="Ebene 1">
      <rect
         y="979.76221"
         x="0"
         height="72.599998"
         width="72.599998"
         id="rect3850-69"
         style="fill:#000000;fill-rule:evenodd;stroke:none" />
      <text
         sodipodi:linespacing="125%"
         id="text3019-5"
         y="1045.6764"
         x="6.2462883"
         style="font-size:100px;font-style:normal;font-variant:normal;font-weight:bold;font-stretch:normal;text-align:start;line-height:125%;letter-spacing:0px;word-spacing:0px;writing-mode:lr-tb;text-anchor:start;fill:#ff0000;fill-opacity:1;stroke:none;font-family:Courier New;-inkscape-font-specification:Courier New Bold"
         xml:space="preserve"><tspan
           y="1045.6764"
           x="6.2462883"
           id="tspan3021-1"
           sodipodi:role="line">O</tspan></text>
    </g>
    <g
       transform="translate(887.4,-155.79951)"
       id="layer1-33"
       inkscape:label="Ebene 1">
      <rect
         y="979.76221"
         x="0"
         height="72.599998"
         width="72.599998"
         id="rect3850-3"
         style="fill:#000000;fill-rule:evenodd;stroke:none" />
      <text
         sodipodi:linespacing="125%"
         id="text3019-24"
         y="1045.6764"
         x="6.2462883"
         style="font-size:100px;font-style:normal;font-variant:normal;font-weight:bold;font-stretch:normal;text-align:start;line-height:125%;letter-spacing:0px;word-spacing:0px;writing-mode:lr-tb;text-anchor:start;fill:#ff0000;fill-opacity:1;stroke:none;font-family:Courier New;-inkscape-font-specification:Courier New Bold"
         xml:space="preserve"><tspan
           y="1045.6764"
           x="6.2462883"
           id="tspan3021-08"
           sodipodi:role="line">O</tspan></text>
    </g>
    <g
       transform="translate(177.48,4.9449463e-4)"
       id="layer1-89"
       inkscape:label="Ebene 1">
      <rect
         y="979.76221"
         x="0"
         height="72.599998"
         width="72.599998"
         id="rect3850-85"
         style="fill:#000000;fill-rule:evenodd;stroke:none" />
      <text
         sodipodi:linespacing="125%"
         id="text3019-88"
         y="1045.6764"
         x="6.2462883"
         style="font-size:100px;font-style:normal;font-variant:normal;font-weight:bold;font-stretch:normal;text-align:start;line-height:125%;letter-spacing:0px;word-spacing:0px;writing-mode:lr-tb;text-anchor:start;fill:#ff0000;fill-opacity:1;stroke:none;font-family:Courier New;-inkscape-font-specification:Courier New Bold"
         xml:space="preserve"><tspan
           y="1045.6764"
           x="6.2462883"
           id="tspan3021-86"
           sodipodi:role="line">O</tspan></text>
    </g>
    <g
       transform="translate(354.96,4.9449463e-4)"
       id="layer1-6"
       inkscape:label="Ebene 1">
      <rect
         y="979.76221"
         x="0"
         height="72.599998"
         width="72.599998"
         id="rect3850-09"
         style="fill:#000000;fill-rule:evenodd;stroke:none" />
      <text
         sodipodi:linespacing="125%"
         id="text3019-93"
         y="1045.6764"
         x="6.2462883"
         style="font-size:100px;font-style:normal;font-variant:normal;font-weight:bold;font-stretch:normal;text-align:start;line-height:125%;letter-spacing:0px;word-spacing:0px;writing-mode:lr-tb;text-anchor:start;fill:#ff0000;fill-opacity:1;stroke:none;font-family:Courier New;-inkscape-font-specification:Courier New Bold"
         xml:space="preserve"><tspan
           y="1045.6764"
           x="6.2462883"
           id="tspan3021-12"
           sodipodi:role="line">O</tspan></text>
    </g>
    <g
       transform="translate(709.92,-155.79951)"
       id="layer1-85"
       inkscape:label="Ebene 1">
      <rect
         y="979.76221"
         x="0"
         height="72.599998"
         width="72.599998"
         id="rect3850-24"
         style="fill:#000000;fill-rule:evenodd;stroke:none" />
      <text
         sodipodi:linespacing="125%"
         id="text3019-68"
         y="1045.6764"
         x="6.2462883"
         style="font-size:100px;font-style:normal;font-variant:normal;font-weight:bold;font-stretch:normal;text-align:start;line-height:125%;letter-spacing:0px;word-spacing:0px;writing-mode:lr-tb;text-anchor:start;fill:#ff0000;fill-opacity:1;stroke:none;font-family:Courier New;-inkscape-font-specification:Courier New Bold"
         xml:space="preserve"><tspan
           y="1045.6764"
           x="6.2462883"
           id="tspan3021-869"
           sodipodi:role="line">O</tspan></text>
    </g>
    <g
       transform="translate(177.48,-311.59951)"
       id="layer1-52"
       inkscape:label="Ebene 1">
      <rect
         y="979.76221"
         x="0"
         height="72.599998"
         width="72.599998"
         id="rect3850-78"
         style="fill:#000000;fill-rule:evenodd;stroke:none" />
      <text
         sodipodi:linespacing="125%"
         id="text3019-19"
         y="1045.6764"
         x="6.2462883"
         style="font-size:100px;font-style:normal;font-variant:normal;font-weight:bold;font-stretch:normal;text-align:start;line-height:125%;letter-spacing:0px;word-spacing:0px;writing-mode:lr-tb;text-anchor:start;fill:#ff0000;fill-opacity:1;stroke:none;font-family:Courier New;-inkscape-font-specification:Courier New Bold"
         xml:space="preserve"><tspan
           y="1045.6764"
           x="6.2462883"
           id="tspan3021-79"
           sodipodi:role="line">O</tspan></text>
    </g>
    <g
       transform="translate(709.92,-311.69951)"
       id="layer1-41"
       inkscape:label="Ebene 1">
      <rect
         y="979.76221"
         x="0"
         height="72.599998"
         width="72.599998"
         id="rect3850-030"
         style="fill:#000000;fill-rule:evenodd;stroke:none" />
      <text
         sodipodi:linespacing="125%"
         id="text3019-21"
         y="1045.6764"
         x="6.2462883"
         style="font-size:100px;font-style:normal;font-variant:normal;font-weight:bold;font-stretch:normal;text-align:start;line-height:125%;letter-spacing:0px;word-spacing:0px;writing-mode:lr-tb;text-anchor:start;fill:#ff0000;fill-opacity:1;stroke:none;font-family:Courier New;-inkscape-font-specification:Courier New Bold"
         xml:space="preserve"><tspan
           y="1045.6764"
           x="6.2462883"
           id="tspan3021-88"
           sodipodi:role="line">O</tspan></text>
    </g>
    <g
       transform="translate(532.44,-467.39951)"
       id="layer1-690"
       inkscape:label="Ebene 1">
      <rect
         y="979.76221"
         x="0"
         height="72.599998"
         width="72.599998"
         id="rect3850-246"
         style="fill:#000000;fill-rule:evenodd;stroke:none" />
      <text
         sodipodi:linespacing="125%"
         id="text3019-245"
         y="1045.6764"
         x="6.2462883"
         style="font-size:100px;font-style:normal;font-variant:normal;font-weight:bold;font-stretch:normal;text-align:start;line-height:125%;letter-spacing:0px;word-spacing:0px;writing-mode:lr-tb;text-anchor:start;fill:#ff0000;fill-opacity:1;stroke:none;font-family:Courier New;-inkscape-font-specification:Courier New Bold"
         xml:space="preserve"><tspan
           y="1045.6764"
           x="6.2462883"
           id="tspan3021-54"
           sodipodi:role="line">O</tspan></text>
    </g>
    <g
       transform="translate(0,-311.59951)"
       id="layer1-90"
       inkscape:label="Ebene 1">
      <rect
         y="979.76221"
         x="0"
         height="72.599998"
         width="72.599998"
         id="rect3850-95"
         style="fill:#000000;fill-rule:evenodd;stroke:none" />
      <text
         sodipodi:linespacing="125%"
         id="text3019-67"
         y="1045.6764"
         x="6.2462883"
         style="font-size:100px;font-style:normal;font-variant:normal;font-weight:bold;font-stretch:normal;text-align:start;line-height:125%;letter-spacing:0px;word-spacing:0px;writing-mode:lr-tb;text-anchor:start;fill:#ff0000;fill-opacity:1;stroke:none;font-family:Courier New;-inkscape-font-specification:Courier New Bold"
         xml:space="preserve"><tspan
           y="1045.6764"
           x="6.2462883"
           id="tspan3021-00"
           sodipodi:role="line">O</tspan></text>
    </g>
    <g
       transform="translate(0,-155.79951)"
       id="layer1-47"
       inkscape:label="Ebene 1">
      <rect
         y="979.76221"
         x="0"
         height="72.599998"
         width="72.599998"
         id="rect3850-40"
         style="fill:#000000;fill-rule:evenodd;stroke:none" />
      <text
         sodipodi:linespacing="125%"
         id="text3019-86"
         y="1045.6764"
         x="6.2462883"
         style="font-size:100px;font-style:normal;font-variant:normal;font-weight:bold;font-stretch:normal;text-align:start;line-height:125%;letter-spacing:0px;word-spacing:0px;writing-mode:lr-tb;text-anchor:start;fill:#ff0000;fill-opacity:1;stroke:none;font-family:Courier New;-inkscape-font-specification:Courier New Bold"
         xml:space="preserve"><tspan
           y="1045.6764"
           x="6.2462883"
           id="tspan3021-31"
           sodipodi:role="line">O</tspan></text>
    </g>
    <g
       transform="translate(887.4,-311.59951)"
       id="layer1-3"
       inkscape:label="Ebene 1">
      <rect
         y="979.76221"
         x="0"
         height="72.599998"
         width="72.599998"
         id="rect3850-45"
         style="fill:#000000;fill-rule:evenodd;stroke:none" />
      <text
         sodipodi:linespacing="125%"
         id="text3019-77"
         y="1045.6764"
         x="6.2462883"
         style="font-size:100px;font-style:normal;font-variant:normal;font-weight:bold;font-stretch:normal;text-align:start;line-height:125%;letter-spacing:0px;word-spacing:0px;writing-mode:lr-tb;text-anchor:start;fill:#ff0000;fill-opacity:1;stroke:none;font-family:Courier New;-inkscape-font-specification:Courier New Bold"
         xml:space="preserve"><tspan
           y="1045.6764"
           x="6.2462883"
           id="tspan3021-507"
           sodipodi:role="line">O</tspan></text>
    </g>
    <g
       transform="translate(177.48,-155.79951)"
       id="layer1-04"
       inkscape:label="Ebene 1">
      <rect
         y="979.76221"
         x="0"
         height="72.599998"
         width="72.599998"
         id="rect3850-59"
         style="fill:#000000;fill-rule:evenodd;stroke:none" />
      <text
         sodipodi:linespacing="125%"
         id="text3019-42"
         y="1045.6764"
         x="6.2462883"
         style="font-size:100px;font-style:normal;font-variant:normal;font-weight:bold;font-stretch:normal;text-align:start;line-height:125%;letter-spacing:0px;word-spacing:0px;writing-mode:lr-tb;text-anchor:start;fill:#ff0000;fill-opacity:1;stroke:none;font-family:Courier New;-inkscape-font-specification:Courier New Bold"
         xml:space="preserve"><tspan
           y="1045.6764"
           x="6.2462883"
           id="tspan3021-78"
           sodipodi:role="line">O</tspan></text>
    </g>
    <g
       transform="translate(887.4,4.9449463e-4)"
       id="layer1-08"
       inkscape:label="Ebene 1">
      <rect
         y="979.76221"
         x="0"
         height="72.599998"
         width="72.599998"
         id="rect3850-91"
         style="fill:#000000;fill-rule:evenodd;stroke:none" />
      <text
         sodipodi:linespacing="125%"
         id="text3019-225"
         y="1045.6764"
         x="6.2462883"
         style="font-size:100px;font-style:normal;font-variant:normal;font-weight:bold;font-stretch:normal;text-align:start;line-height:125%;letter-spacing:0px;word-spacing:0px;writing-mode:lr-tb;text-anchor:start;fill:#ff0000;fill-opacity:1;stroke:none;font-family:Courier New;-inkscape-font-specification:Courier New Bold"
         xml:space="preserve"><tspan
           y="1045.6764"
           x="6.2462883"
           id="tspan3021-59"
           sodipodi:role="line">O</tspan></text>
    </g>
    <g
       transform="translate(177.48,-467.39951)"
       id="layer1-55"
       inkscape:label="Ebene 1">
      <rect
         y="979.76221"
         x="0"
         height="72.599998"
         width="72.599998"
         id="rect3850-33"
         style="fill:#000000;fill-rule:evenodd;stroke:none" />
      <text
         sodipodi:linespacing="125%"
         id="text3019-58"
         y="1045.6764"
         x="6.2462883"
         style="font-size:100px;font-style:normal;font-variant:normal;font-weight:bold;font-stretch:normal;text-align:start;line-height:125%;letter-spacing:0px;word-spacing:0px;writing-mode:lr-tb;text-anchor:start;fill:#ff0000;fill-opacity:1;stroke:none;font-family:Courier New;-inkscape-font-specification:Courier New Bold"
         xml:space="preserve"><tspan
           y="1045.6764"
           x="6.2462883"
           id="tspan3021-4"
           sodipodi:role="line">O</tspan></text>
    </g>
    <g
       transform="translate(354.96,-467.39951)"
       id="layer1-9"
       inkscape:label="Ebene 1">
      <rect
         y="979.76221"
         x="0"
         height="72.599998"
         width="72.599998"
         id="rect3850-1"
         style="fill:#000000;fill-rule:evenodd;stroke:none" />
      <text
         sodipodi:linespacing="125%"
         id="text3019-4"
         y="1045.6764"
         x="6.2462883"
         style="font-size:100px;font-style:normal;font-variant:normal;font-weight:bold;font-stretch:normal;text-align:start;line-height:125%;letter-spacing:0px;word-spacing:0px;writing-mode:lr-tb;text-anchor:start;fill:#ff0000;fill-opacity:1;stroke:none;font-family:Courier New;-inkscape-font-specification:Courier New Bold"
         xml:space="preserve"><tspan
           y="1045.6764"
           x="6.2462883"
           id="tspan3021-18"
           sodipodi:role="line">O</tspan></text>
    </g>
    <g
       transform="translate(532.44,4.9449463e-4)"
       id="layer1-31"
       inkscape:label="Ebene 1">
      <rect
         y="979.76221"
         x="0"
         height="72.599998"
         width="72.599998"
         id="rect3850-8"
         style="fill:#000000;fill-rule:evenodd;stroke:none" />
      <text
         sodipodi:linespacing="125%"
         id="text3019-55"
         y="1045.6764"
         x="6.2462883"
         style="font-size:100px;font-style:normal;font-variant:normal;font-weight:bold;font-stretch:normal;text-align:start;line-height:125%;letter-spacing:0px;word-spacing:0px;writing-mode:lr-tb;text-anchor:start;fill:#ff0000;fill-opacity:1;stroke:none;font-family:Courier New;-inkscape-font-specification:Courier New Bold"
         xml:space="preserve"><tspan
           y="1045.6764"
           x="6.2462883"
           id="tspan3021-3"
           sodipodi:role="line">O</tspan></text>
    </g>
    <g
       transform="translate(709.92,4.9449463e-4)"
       id="layer1-13"
       inkscape:label="Ebene 1">
      <rect
         y="979.76221"
         x="0"
         height="72.599998"
         width="72.599998"
         id="rect3850-2"
         style="fill:#000000;fill-rule:evenodd;stroke:none" />
      <text
         sodipodi:linespacing="125%"
         id="text3019-6"
         y="1045.6764"
         x="6.2462883"
         style="font-size:100px;font-style:normal;font-variant:normal;font-weight:bold;font-stretch:normal;text-align:start;line-height:125%;letter-spacing:0px;word-spacing:0px;writing-mode:lr-tb;text-anchor:start;fill:#ff0000;fill-opacity:1;stroke:none;font-family:Courier New;-inkscape-font-specification:Courier New Bold"
         xml:space="preserve"><tspan
           y="1045.6764"
           x="6.2462883"
           id="tspan3021-19"
           sodipodi:role="line">O</tspan></text>
    </g>
    <g
       transform="translate(0,4.9449463e-4)"
       id="layer1-96"
       inkscape:label="Ebene 1">
      <rect
         y="979.76221"
         x="0"
         height="72.599998"
         width="72.599998"
         id="rect3850"
         style="fill:#000000;fill-rule:evenodd;stroke:none" />
      <text
         sodipodi:linespacing="125%"
         id="text3019"
         y="1045.6764"
         x="6.2462883"
         style="font-size:100px;font-style:normal;font-variant:normal;font-weight:bold;font-stretch:normal;text-align:start;line-height:125%;letter-spacing:0px;word-spacing:0px;writing-mode:lr-tb;text-anchor:start;fill:#ff0000;fill-opacity:1;stroke:none;font-family:Courier New;-inkscape-font-specification:Courier New Bold"
         xml:space="preserve"><tspan
           y="1045.6764"
           x="6.2462883"
           id="tspan3021"
           sodipodi:role="line">O</tspan></text>
    </g>
    <g
       transform="translate(354.96,-311.59951)"
       id="layer1-59"
       inkscape:label="Ebene 1">
      <rect
         y="979.76221"
         x="0"
         height="72.599998"
         width="72.599998"
         id="rect3850-4"
         style="fill:#000000;fill-rule:evenodd;stroke:none" />
      <text
         sodipodi:linespacing="125%"
         id="text3019-41"
         y="1045.6764"
         x="6.2462883"
         style="font-size:100px;font-style:normal;font-variant:normal;font-weight:bold;font-stretch:normal;text-align:start;line-height:125%;letter-spacing:0px;word-spacing:0px;writing-mode:lr-tb;text-anchor:start;fill:#ff0000;fill-opacity:1;stroke:none;font-family:Courier New;-inkscape-font-specification:Courier New Bold"
         xml:space="preserve"><tspan
           y="1045.6764"
           x="6.2462883"
           id="tspan3021-2"
           sodipodi:role="line">O</tspan></text>
    </g>
    <g
       transform="translate(532.44,-311.59951)"
       id="layer1-315"
       inkscape:label="Ebene 1">
      <rect
         y="979.76221"
         x="0"
         height="72.599998"
         width="72.599998"
         id="rect3850-5"
         style="fill:#000000;fill-rule:evenodd;stroke:none" />
      <text
         sodipodi:linespacing="125%"
         id="text3019-87"
         y="1045.6764"
         x="6.2462883"
         style="font-size:100px;font-style:normal;font-variant:normal;font-weight:bold;font-stretch:normal;text-align:start;line-height:125%;letter-spacing:0px;word-spacing:0px;writing-mode:lr-tb;text-anchor:start;fill:#ff0000;fill-opacity:1;stroke:none;font-family:Courier New;-inkscape-font-specification:Courier New Bold"
         xml:space="preserve"><tspan
           y="1045.6764"
           x="6.2462883"
           id="tspan3021-0"
           sodipodi:role="line">O</tspan></text>
    </g>
    <g
       transform="translate(354.96,-155.79951)"
       id="layer1-1"
       inkscape:label="Ebene 1">
      <rect
         y="979.76221"
         x="0"
         height="72.599998"
         width="72.599998"
         id="rect3850-6"
         style="fill:#000000;fill-rule:evenodd;stroke:none" />
      <text
         sodipodi:linespacing="125%"
         id="text3019-0"
         y="1045.6764"
         x="6.2462883"
         style="font-size:100px;font-style:normal;font-variant:normal;font-weight:bold;font-stretch:normal;text-align:start;line-height:125%;letter-spacing:0px;word-spacing:0px;writing-mode:lr-tb;text-anchor:start;fill:#ff0000;fill-opacity:1;stroke:none;font-family:Courier New;-inkscape-font-specification:Courier New Bold"
         xml:space="preserve"><tspan
           y="1045.6764"
           x="6.2462883"
           id="tspan3021-13"
           sodipodi:role="line">O</tspan></text>
    </g>
    <g
       transform="translate(532.44,-155.79951)"
       id="layer1-81"
       inkscape:label="Ebene 1">
      <rect
         y="979.76221"
         x="0"
         height="72.599998"
         width="72.599998"
         id="rect3850-22"
         style="fill:#000000;fill-rule:evenodd;stroke:none" />
      <text
         sodipodi:linespacing="125%"
         id="text3019-54"
         y="1045.6764"
         x="6.2462883"
         style="font-size:100px;font-style:normal;font-variant:normal;font-weight:bold;font-stretch:normal;text-align:start;line-height:125%;letter-spacing:0px;word-spacing:0px;writing-mode:lr-tb;text-anchor:start;fill:#ff0000;fill-opacity:1;stroke:none;font-family:Courier New;-inkscape-font-specification:Courier New Bold"
         xml:space="preserve"><tspan
           y="1045.6764"
           x="6.2462883"
           id="tspan3021-126"
           sodipodi:role="line">O</tspan></text>
    </g>
  </g>
</svg>
