participant;md;pd;td;p;e;f;o
1;20;10;30;10;30;20;20
2;55;35;20;15;30;15;28.33333333
3;70;60;65;80;65;70;68.33333333
4;40;20;55;50;35;25;37.5
5;25;10;10;50;90;65;41.66666667
6;25;15;55;50;50;15;35
7;80;80;75;75;80;65;75.83333333
8;40;10;45;25;15;35;28.33333333
9;85;10;75;40;75;55;56.66666667
10;75;5;5;70;25;50;38.33333333
11;75;15;55;40;75;70;55
12;50;15;75;50;75;65;55
13;70;65;85;70;90;60;73.33333333
14;30;10;55;15;50;20;30
15;80;70;65;35;75;60;64.16666667
16;20;5;25;10;35;35;21.66666667
17;10;95;65;20;95;30;52.5
18;20;20;35;15;35;5;21.66666667
19;75;15;50;20;90;50;50
20;35;60;20;20;55;20;35
21;75;15;80;35;80;65;58.33333333
22;90;5;75;25;45;15;42.5
23;90;25;25;25;60;5;38.33333333
24;75;45;50;35;75;35;52.5